<svg xmlns="http://www.w3.org/2000/svg" xmlns:xlink="http://www.w3.org/1999/xlink" version="1.2" width="183.54mm" height="25.02mm" viewBox="0 0 61.4362 8.3757">
<!-- Page: 1/1 -->
<text transform="translate(3.3474, 1.6737)" font-family="serif" font-size="2.2000" text-anchor="start" fill="currentColor">
<tspan/>
</text>
<rect transform="translate(47.9229, 5.1172)" x="0.0000" y="-1.0365" width="0.1386" height="2.0729" ry="0.0000" fill="currentColor"/>
<rect transform="translate(23.6014, 5.1172)" x="0.0000" y="-1.0365" width="0.1386" height="2.0729" ry="0.0000" fill="currentColor"/>
<rect transform="translate(57.9502, 5.1172)" x="0.0000" y="-1.0365" width="0.1386" height="2.0729" ry="0.0000" fill="currentColor"/>
<line transform="translate(3.3474, 5.1172)" stroke-linejoin="round" stroke-linecap="round" stroke-width="0.0729" stroke="currentColor" x1="0.0365" y1="-0.0000" x2="54.7050" y2="-0.0000"/>
<rect transform="translate(39.7255, 5.1172)" x="-0.0474" y="-3.3333" width="0.0948" height="3.1366" ry="0.0235" fill="currentColor"/>
<a style="color:inherit;" xlink:href="textedit:///home/paul/lilypond-world/clairnote-site-images/blog-images/rhythm-staff-example/Clairnote-rhythm-staff-example-trad.ly:13:14:15">
<path transform="translate(38.4671, 5.1172) scale(0.0040, -0.0040)" d="M222 135c53 0 104 -27 104 -86c0 -71 -56 -120 -103 -148c-36 -22 -76 -36 -118 -36c-53 0 -105 27 -105 86c0 71 57 120 104 148c36 22 76 36 118 36z" fill="currentColor"/>
</a>
<rect transform="translate(30.3061, 5.1172)" x="-0.0474" y="-3.2035" width="0.0948" height="3.0068" ry="0.0235" fill="currentColor"/>
<rect transform="translate(37.2197, 5.1172)" x="-0.0474" y="-3.2035" width="0.0948" height="3.0068" ry="0.0235" fill="currentColor"/>
<a style="color:inherit;" xlink:href="textedit:///home/paul/lilypond-world/clairnote-site-images/blog-images/rhythm-staff-example/Clairnote-rhythm-staff-example-trad.ly:13:11:12">
<path transform="translate(35.9613, 5.1172) scale(0.0040, -0.0040)" d="M222 135c53 0 104 -27 104 -86c0 -71 -56 -120 -103 -148c-36 -22 -76 -36 -118 -36c-53 0 -105 27 -105 86c0 71 57 120 104 148c36 22 76 36 118 36z" fill="currentColor"/>
</a>
<rect transform="translate(32.8119, 5.1172)" x="-0.0474" y="-3.2035" width="0.0948" height="3.0068" ry="0.0235" fill="currentColor"/>
<path transform="translate(33.3161, 4.6172) scale(0.0040, -0.0040)" d="M0 0c0 32 25 57 57 57s57 -25 57 -57s-25 -57 -57 -57s-57 25 -57 57z" fill="currentColor"/>
<a style="color:inherit;" xlink:href="textedit:///home/paul/lilypond-world/clairnote-site-images/blog-images/rhythm-staff-example/Clairnote-rhythm-staff-example-trad.ly:13:8:9">
<path transform="translate(31.5535, 5.1172) scale(0.0040, -0.0040)" d="M222 135c53 0 104 -27 104 -86c0 -71 -56 -120 -103 -148c-36 -22 -76 -36 -118 -36c-53 0 -105 27 -105 86c0 71 57 120 104 148c36 22 76 36 118 36z" fill="currentColor"/>
</a>
<polygon transform="translate(25.8510, 1.9137)" stroke-linejoin="round" stroke-linecap="round" stroke-width="0.0471" fill="currentColor" stroke="currentColor" points="4.4791 -0.2165 4.4791 0.2165 0.0235 0.2165 0.0235 -0.2165"/>
<polygon transform="translate(29.2061, 2.7102)" stroke-linejoin="round" stroke-linecap="round" stroke-width="0.0471" fill="currentColor" stroke="currentColor" points="1.1239 -0.2165 1.1239 0.2165 0.0235 0.2165 0.0235 -0.2165"/>
<polygon transform="translate(32.7645, 1.9137)" stroke-linejoin="round" stroke-linecap="round" stroke-width="0.0471" fill="currentColor" stroke="currentColor" points="4.4791 -0.2165 4.4791 0.2165 0.0235 0.2165 0.0235 -0.2165"/>
<polygon transform="translate(36.1197, 2.7102)" stroke-linejoin="round" stroke-linecap="round" stroke-width="0.0471" fill="currentColor" stroke="currentColor" points="1.1239 -0.2165 1.1239 0.2165 0.0235 0.2165 0.0235 -0.2165"/>
<a style="color:inherit;" xlink:href="textedit:///home/paul/lilypond-world/clairnote-site-images/blog-images/rhythm-staff-example/Clairnote-rhythm-staff-example-trad.ly:14:2:3">
<path transform="translate(49.9615, 5.1172) scale(0.0040, -0.0040)" d="M215 114c-50 0 -71 -42 -71 -88c0 -79 60 -140 139 -140c50 0 70 42 70 88c0 79 -59 140 -138 140zM497 0c0 -43 -35 -74 -73 -95c-54 -29 -114 -40 -175 -40s-122 11 -176 40c-38 21 -73 52 -73 95s35 74 73 95c54 29 115 40 176 40s121 -11 175 -40
c38 -21 73 -52 73 -95z" fill="currentColor"/>
</a>
<a style="color:inherit;" xlink:href="textedit:///home/paul/lilypond-world/clairnote-site-images/blog-images/rhythm-staff-example/Clairnote-rhythm-staff-example-trad.ly:13:16:17">
<path transform="translate(43.3729, 5.1172) scale(0.0040, -0.0040)" d="M-23 -113c0 26 10 40 36 40c34 0 85 -15 130 -37l-137 164c-7 8 -10 17 -10 25c0 33 49 64 86 96c26 22 39 54 39 85c0 24 -8 47 -24 67l-39 46c-2 3 -3 6 -3 9c0 7 7 14 14 14c3 0 7 -1 10 -5l152 -182c7 -8 10 -17 10 -25c0 -33 -49 -64 -86 -96
c-26 -22 -39 -54 -39 -85c0 -24 8 -47 24 -67l87 -104c2 -3 3 -5 3 -8c0 -7 -7 -14 -14 -14c-3 0 -7 1 -10 5c-19 22 -66 43 -102 43c-40 0 -52 -29 -52 -70c0 -35 11 -75 28 -96c4 -5 0 -11 -5 -11c-2 0 -4 0 -5 2c-46 55 -93 150 -93 204z" fill="currentColor"/>
</a>
<a style="color:inherit;" xlink:href="textedit:///home/paul/lilypond-world/clairnote-site-images/blog-images/rhythm-staff-example/Clairnote-rhythm-staff-example-trad.ly:12:8:9">
<path transform="translate(17.3745, 5.1172) scale(0.0040, -0.0040)" d="M316 67c0 25 -20 42 -42 42c-4 0 -9 -1 -13 -2c-31 -9 -79 -41 -117 -65s-86 -55 -107 -80c-7 -8 -10 -19 -10 -29c0 -25 20 -42 42 -42c4 0 9 1 13 2c31 9 79 41 117 65s86 55 107 80c7 8 10 19 10 29zM265 135c44 0 78 -21 78 -68c0 -19 -5 -39 -11 -57
c-12 -37 -33 -71 -65 -93c-53 -36 -114 -52 -189 -52c-44 0 -78 21 -78 68c0 19 5 39 11 57c12 37 33 71 65 93c53 36 114 52 189 52z" fill="currentColor"/>
</a>
<a style="color:inherit;" xlink:href="textedit:///home/paul/lilypond-world/clairnote-site-images/blog-images/rhythm-staff-example/Clairnote-rhythm-staff-example-trad.ly:13:5:6">
<path transform="translate(29.0477, 5.1172) scale(0.0040, -0.0040)" d="M222 135c53 0 104 -27 104 -86c0 -71 -56 -120 -103 -148c-36 -22 -76 -36 -118 -36c-53 0 -105 27 -105 86c0 71 57 120 104 148c36 22 76 36 118 36z" fill="currentColor"/>
</a>
<path transform="translate(14.9745, 1.7658) scale(0.0040, -0.0040)" d="M0 0c0 -198 207 -336 207 -534c0 -71 -16 -142 -42 -208c-4 -7 -10 -11 -17 -11c-12 0 -24 10 -21 25c26 62 41 127 41 194c0 104 -96 209 -168 284h-14v250h14z" fill="currentColor"/>
<rect transform="translate(14.9271, 5.1172)" x="-0.0474" y="-3.3750" width="0.0948" height="3.1783" ry="0.0235" fill="currentColor"/>
<a style="color:inherit;" xlink:href="textedit:///home/paul/lilypond-world/clairnote-site-images/blog-images/rhythm-staff-example/Clairnote-rhythm-staff-example-trad.ly:12:6:7">
<path transform="translate(13.6687, 5.1172) scale(0.0040, -0.0040)" d="M222 135c53 0 104 -27 104 -86c0 -71 -56 -120 -103 -148c-36 -22 -76 -36 -118 -36c-53 0 -105 27 -105 86c0 71 57 120 104 148c36 22 76 36 118 36z" fill="currentColor"/>
</a>
<rect transform="translate(9.3193, 5.1172)" x="-0.0474" y="-3.3333" width="0.0948" height="3.1366" ry="0.0235" fill="currentColor"/>
<path transform="translate(9.8235, 4.6172) scale(0.0040, -0.0040)" d="M0 0c0 32 25 57 57 57s57 -25 57 -57s-25 -57 -57 -57s-57 25 -57 57z" fill="currentColor"/>
<path transform="translate(4.3474, 5.1172) scale(0.0040, -0.0040)" d="M360 25c-51 0 -76 43 -76 77c0 39 28 78 74 78c6 0 13 0 18 -1c-29 37 -76 60 -126 60c-106 0 -113 -73 -113 -185c0 -17 1 -35 1 -54s-1 -37 -1 -54c0 -112 7 -185 113 -185c82 0 145 68 164 151c1 6 6 9 10 9c6 0 11 -4 11 -11c0 -94 -107 -171 -185 -171
c-68 0 -137 20 -184 69c-49 51 -66 122 -66 192s17 141 66 192c47 49 116 69 184 69c88 0 163 -63 178 -149c1 -5 2 -8 2 -13c0 -40 -32 -74 -70 -74z" fill="currentColor"/>
<a style="color:inherit;" xlink:href="textedit:///home/paul/lilypond-world/clairnote-site-images/blog-images/rhythm-staff-example/Clairnote-rhythm-staff-example-trad.ly:12:2:3">
<path transform="translate(8.0609, 5.1172) scale(0.0040, -0.0040)" d="M222 135c53 0 104 -27 104 -86c0 -71 -56 -120 -103 -148c-36 -22 -76 -36 -118 -36c-53 0 -105 27 -105 86c0 71 57 120 104 148c36 22 76 36 118 36z" fill="currentColor"/>
</a>
<rect transform="translate(25.8984, 5.1172)" x="-0.0474" y="-3.2035" width="0.0948" height="3.0068" ry="0.0235" fill="currentColor"/>
<path transform="translate(26.4026, 4.6172) scale(0.0040, -0.0040)" d="M0 0c0 32 25 57 57 57s57 -25 57 -57s-25 -57 -57 -57s-57 25 -57 57z" fill="currentColor"/>
<a style="color:inherit;" xlink:href="textedit:///home/paul/lilypond-world/clairnote-site-images/blog-images/rhythm-staff-example/Clairnote-rhythm-staff-example-trad.ly:13:2:3">
<path transform="translate(24.6400, 5.1172) scale(0.0040, -0.0040)" d="M222 135c53 0 104 -27 104 -86c0 -71 -56 -120 -103 -148c-36 -22 -76 -36 -118 -36c-53 0 -105 27 -105 86c0 71 57 120 104 148c36 22 76 36 118 36z" fill="currentColor"/>
</a>
<rect transform="translate(18.6991, 5.1172)" x="-0.0474" y="-3.3333" width="0.0948" height="3.0649" ry="0.0235" fill="currentColor"/>
<a transform="translate(3.4545, 96.9067)" xlink:href="http://lilypond.org/">
<rect x="0.0000" y="-0.5021" width="63.3860" height="2.1892" fill="none" stroke="none" stroke-width="0.0"/>
</a>
<text transform="translate(3.4545, 96.9067)" font-family="serif" font-size="2.2000" text-anchor="start" fill="currentColor">
<tspan>
Music engraving by LilyPond 2.19.63—www.lilypond.org</tspan>
</text>
</svg>
