<?xml version="1.0" encoding="UTF-8" standalone="no"?>
<!-- Created with Inkscape (http://www.inkscape.org/) -->

<svg
   xmlns:dc="http://purl.org/dc/elements/1.1/"
   xmlns:cc="http://creativecommons.org/ns#"
   xmlns:rdf="http://www.w3.org/1999/02/22-rdf-syntax-ns#"
   xmlns:svg="http://www.w3.org/2000/svg"
   xmlns="http://www.w3.org/2000/svg"
   version="1.2"
   width="178.32033"
   height="268.25027"
   viewBox="0 0 28.638251 43.081003"
   id="svg2">
  <metadata
     id="metadata336">
    <rdf:RDF>
      <cc:Work
         rdf:about="">
        <dc:format>image/svg+xml</dc:format>
        <dc:type
           rdf:resource="http://purl.org/dc/dcmitype/StillImage" />
        <dc:title></dc:title>
      </cc:Work>
    </rdf:RDF>
  </metadata>
  <defs
     id="defs334" />
  <text
     x="-1.8801744"
     y="-35.309502"
     id="text4"
     style="font-size:2.20009995px;text-anchor:start;fill:currentColor;font-family:Century Schoolbook L">
    <tspan
       id="tspan6" />
  </text>
  <line
     x1="0.99550027"
     y1="0.8905009"
     x2="27.747749"
     y2="0.8905009"
     id="line160"
     style="stroke:currentColor;stroke-width:0.175;stroke-linecap:round;stroke-linejoin:round" />
  <line
     x1="0.99550027"
     y1="3.3405015"
     x2="27.747749"
     y2="3.3405015"
     id="line162"
     style="stroke:currentColor;stroke-width:0.175;stroke-linecap:round;stroke-linejoin:round" />
  <line
     x1="0.99550027"
     y1="8.2405033"
     x2="27.747749"
     y2="8.2405033"
     id="line164"
     style="stroke:currentColor;stroke-width:0.175;stroke-linecap:round;stroke-linejoin:round" />
  <line
     x1="0.99550027"
     y1="10.6905"
     x2="27.747749"
     y2="10.6905"
     id="line166"
     style="stroke:currentColor;stroke-width:0.175;stroke-linecap:round;stroke-linejoin:round" />
  <line
     x1="0.99550027"
     y1="16.640497"
     x2="27.747749"
     y2="16.640497"
     id="line168"
     style="stroke:currentColor;stroke-width:0.175;stroke-linecap:round;stroke-linejoin:round" />
  <line
     x1="0.99550027"
     y1="19.090502"
     x2="27.747749"
     y2="19.090502"
     id="line170"
     style="stroke:currentColor;stroke-width:0.175;stroke-linecap:round;stroke-linejoin:round" />
  <line
     x1="0.99550027"
     y1="23.990503"
     x2="27.747749"
     y2="23.990503"
     id="line172"
     style="stroke:currentColor;stroke-width:0.175;stroke-linecap:round;stroke-linejoin:round" />
  <line
     x1="0.99550027"
     y1="26.4405"
     x2="27.747749"
     y2="26.4405"
     id="line174"
     style="stroke:currentColor;stroke-width:0.175;stroke-linecap:round;stroke-linejoin:round" />
  <line
     x1="0.99550027"
     y1="32.390503"
     x2="27.747749"
     y2="32.390503"
     id="line176"
     style="stroke:currentColor;stroke-width:0.175;stroke-linecap:round;stroke-linejoin:round" />
  <line
     x1="0.99550027"
     y1="34.8405"
     x2="27.747749"
     y2="34.8405"
     id="line178"
     style="stroke:currentColor;stroke-width:0.175;stroke-linecap:round;stroke-linejoin:round" />
  <line
     x1="0.99550027"
     y1="39.740501"
     x2="27.747749"
     y2="39.740501"
     id="line180"
     style="stroke:currentColor;stroke-width:0.175;stroke-linecap:round;stroke-linejoin:round" />
  <line
     x1="0.99550027"
     y1="42.190498"
     x2="27.747749"
     y2="42.190498"
     id="line182"
     style="stroke:currentColor;stroke-width:0.175;stroke-linecap:round;stroke-linejoin:round" />
  <rect
     width="0.33249998"
     height="9.8000002"
     ry="0"
     x="27.50275"
     y="32.390503"
     id="rect184"
     style="fill:currentColor" />
  <rect
     width="0.33249998"
     height="9.8000002"
     ry="0"
     x="27.50275"
     y="16.640497"
     id="rect186"
     style="fill:currentColor" />
  <rect
     width="0.33249998"
     height="9.8000002"
     ry="0"
     x="27.50275"
     y="0.8905009"
     id="rect188"
     style="fill:currentColor" />
  <g
     transform="matrix(1.7284546,0.27376031,-0.27376031,1.7284546,-12.402989,-67.571783)"
     id="g190">
    <g
       id="g192">
      <g
         transform="scale(0.945,1)"
         id="g194">
        <path
           d="m 315,65 c 0,24 -21,41 -42,41 -4,0 -8,0 -12,-1 C 230,96 184,65 147,41 110,17 63,-12 43,-37 36,-45 32,-55 32,-65 c 0,-24 21,-41 42,-41 4,0 8,0 12,1 31,9 78,40 115,64 37,24 84,53 104,78 7,8 10,18 10,28 z m -51,72 c 47,0 83,-21 83,-72 0,-19 -4,-37 -10,-56 -12,-38 -32,-74 -65,-96 -54,-36 -113,-51 -188,-51 -47,0 -84,22 -84,73 0,19 5,37 11,56 12,38 31,74 64,96 54,36 114,50 189,50 z"
           transform="matrix(0.004,0,0,-0.004,24.4957,40.4453)"
           id="path196"
           style="fill:currentColor" />
      </g>
    </g>
  </g>
  <g
     transform="matrix(1.7284546,0.27376031,-0.27376031,1.7284546,-10.034932,-67.385798)"
     id="g198">
    <g
       id="g200">
      <path
         d="m 220,138 c 56,0 109,-29 109,-91 0,-72 -56,-121 -103,-149 -36,-21 -76,-36 -117,-36 -56,0 -109,29 -109,91 0,72 56,121 103,149 36,21 76,36 117,36 z"
         transform="matrix(0.004,0,0,-0.004,23.1485,49.0953)"
         id="path202"
         style="fill:currentColor" />
    </g>
  </g>
  <g
     transform="matrix(1.7284546,0.27376031,-0.27376031,1.7284546,-7.475303,-67.183965)"
     id="g204">
    <g
       id="g206">
      <g
         transform="scale(0.945,1)"
         id="g208">
        <path
           d="m 315,65 c 0,24 -21,41 -42,41 -4,0 -8,0 -12,-1 C 230,96 184,65 147,41 110,17 63,-12 43,-37 36,-45 32,-55 32,-65 c 0,-24 21,-41 42,-41 4,0 8,0 12,1 31,9 78,40 115,64 37,24 84,53 104,78 7,8 10,18 10,28 z m -51,72 c 47,0 83,-21 83,-72 0,-19 -4,-37 -10,-56 -12,-38 -32,-74 -65,-96 -54,-36 -113,-51 -188,-51 -47,0 -84,22 -84,73 0,19 5,37 11,56 12,38 31,74 64,96 54,36 114,50 189,50 z"
           transform="matrix(0.004,0,0,-0.004,24.4957,58.4453)"
           id="path210"
           style="fill:currentColor" />
      </g>
    </g>
  </g>
  <rect
     width="0.22749999"
     height="5.8362498"
     ry="0.07"
     x="18.661751"
     y="2.7280023"
     id="rect212"
     style="fill:currentColor" />
  <rect
     width="0.22749999"
     height="5.8362498"
     ry="0.07"
     x="18.643551"
     y="17.865503"
     id="rect214"
     style="fill:currentColor" />
  <rect
     width="0.22749999"
     height="5.8362498"
     ry="0.07"
     x="13.389875"
     y="34.227997"
     id="rect216"
     style="fill:currentColor" />
  <g
     transform="matrix(1.75,0,0,1.75,-23.988199,-61.926275)"
     id="g218">
    <path
       d="M 0,0 0,-1"
       transform="translate(19.516,40.5953)"
       id="path220"
       style="fill:none;stroke:currentColor;stroke-width:0.2;stroke-linecap:round;stroke-linejoin:round" />
    <circle
       cx="0"
       cy="0"
       r="0.23999999"
       transform="translate(19.516,39.5953)"
       id="circle222"
       style="fill:currentColor;stroke:currentColor;stroke-width:0.01;stroke-linecap:round;stroke-linejoin:round" />
  </g>
  <rect
     width="0.22749999"
     height="5.8362498"
     ry="0.07"
     x="13.371675"
     y="2.1155031"
     id="rect224"
     style="fill:currentColor" />
  <g
     transform="matrix(1.7284546,0.27376031,-0.27376031,1.7284546,-7.5402064,-66.35929)"
     id="g226">
    <g
       id="g228">
      <g
         transform="scale(0.945,1)"
         id="g230">
        <path
           d="m 315,65 c 0,24 -21,41 -42,41 -4,0 -8,0 -12,-1 C 230,96 184,65 147,41 110,17 63,-12 43,-37 36,-45 32,-55 32,-65 c 0,-24 21,-41 42,-41 4,0 8,0 12,1 31,9 78,40 115,64 37,24 84,53 104,78 7,8 10,18 10,28 z m -51,72 c 47,0 83,-21 83,-72 0,-19 -4,-37 -10,-56 -12,-38 -32,-74 -65,-96 -54,-36 -113,-51 -188,-51 -47,0 -84,22 -84,73 0,19 5,37 11,56 12,38 31,74 64,96 54,36 114,50 189,50 z"
           transform="matrix(0.004,0,0,-0.004,21.3079,58.4453)"
           id="path232"
           style="fill:currentColor" />
      </g>
    </g>
  </g>
  <g
     transform="matrix(1.7284546,0.27376031,-0.27376031,1.7284546,-10.004049,-66.553198)"
     id="g234">
    <g
       id="g236">
      <g
         transform="scale(0.945,1)"
         id="g238">
        <path
           d="m 315,65 c 0,24 -21,41 -42,41 -4,0 -8,0 -12,-1 C 230,96 184,65 147,41 110,17 63,-12 43,-37 36,-45 32,-55 32,-65 c 0,-24 21,-41 42,-41 4,0 8,0 12,1 31,9 78,40 115,64 37,24 84,53 104,78 7,8 10,18 10,28 z m -51,72 c 47,0 83,-21 83,-72 0,-19 -4,-37 -10,-56 -12,-38 -32,-74 -65,-96 -54,-36 -113,-51 -188,-51 -47,0 -84,22 -84,73 0,19 5,37 11,56 12,38 31,74 64,96 54,36 114,50 189,50 z"
           transform="matrix(0.004,0,0,-0.004,21.3079,49.4453)"
           id="path240"
           style="fill:currentColor" />
      </g>
    </g>
  </g>
  <g
     transform="matrix(1.75,0,0,1.75,-23.988199,-61.926275)"
     id="g242">
    <path
       d="M 0,0 0,-1"
       transform="translate(25.5409,58.5953)"
       id="path244"
       style="fill:none;stroke:currentColor;stroke-width:0.2;stroke-linecap:round;stroke-linejoin:round" />
    <circle
       cx="0"
       cy="0"
       r="0.23999999"
       transform="translate(25.5409,57.5953)"
       id="circle246"
       style="fill:currentColor;stroke:currentColor;stroke-width:0.01;stroke-linecap:round;stroke-linejoin:round" />
  </g>
  <rect
     width="0.22749999"
     height="5.8362498"
     ry="0.07"
     x="23.915251"
     y="33.615501"
     id="rect248"
     style="fill:currentColor" />
  <rect
     width="0.22749999"
     height="5.8362498"
     ry="0.07"
     x="23.933626"
     y="18.477999"
     id="rect250"
     style="fill:currentColor" />
  <rect
     width="0.22749999"
     height="5.8362498"
     ry="0.07"
     x="23.933626"
     y="2.7280023"
     id="rect252"
     style="fill:currentColor" />
  <g
     transform="matrix(1.7284546,0.27376031,-0.27376031,1.7284546,-7.5061856,-68.016565)"
     id="g254">
    <g
       id="g256">
      <path
         d="m 220,138 c 56,0 109,-29 109,-91 0,-72 -56,-121 -103,-149 -36,-21 -76,-36 -117,-36 -56,0 -109,29 -109,91 0,72 56,121 103,149 36,21 76,36 117,36 z"
         transform="matrix(0.004,0,0,-0.004,26.1609,58.0953)"
         id="path258"
         style="fill:currentColor" />
    </g>
  </g>
  <g
     transform="matrix(1.7284546,0.27376031,-0.27376031,1.7284546,-9.8742404,-68.202577)"
     id="g260">
    <g
       id="g262">
      <g
         transform="scale(0.945,1)"
         id="g264">
        <path
           d="m 315,65 c 0,24 -21,41 -42,41 -4,0 -8,0 -12,-1 C 230,96 184,65 147,41 110,17 63,-12 43,-37 36,-45 32,-55 32,-65 c 0,-24 21,-41 42,-41 4,0 8,0 12,1 31,9 78,40 115,64 37,24 84,53 104,78 7,8 10,18 10,28 z m -51,72 c 47,0 83,-21 83,-72 0,-19 -4,-37 -10,-56 -12,-38 -32,-74 -65,-96 -54,-36 -113,-51 -188,-51 -47,0 -84,22 -84,73 0,19 5,37 11,56 12,38 31,74 64,96 54,36 114,50 189,50 z"
           transform="matrix(0.004,0,0,-0.004,27.6835,49.4453)"
           id="path266"
           style="fill:currentColor" />
      </g>
    </g>
  </g>
  <g
     transform="matrix(1.7284546,0.27376031,-0.27376031,1.7284546,-12.338083,-68.396486)"
     id="g268">
    <g
       id="g270">
      <g
         transform="scale(0.945,1)"
         id="g272">
        <path
           d="m 315,65 c 0,24 -21,41 -42,41 -4,0 -8,0 -12,-1 C 230,96 184,65 147,41 110,17 63,-12 43,-37 36,-45 32,-55 32,-65 c 0,-24 21,-41 42,-41 4,0 8,0 12,1 31,9 78,40 115,64 37,24 84,53 104,78 7,8 10,18 10,28 z m -51,72 c 47,0 83,-21 83,-72 0,-19 -4,-37 -10,-56 -12,-38 -32,-74 -65,-96 -54,-36 -113,-51 -188,-51 -47,0 -84,22 -84,73 0,19 5,37 11,56 12,38 31,74 64,96 54,36 114,50 189,50 z"
           transform="matrix(0.004,0,0,-0.004,27.6835,40.4453)"
           id="path274"
           style="fill:currentColor" />
      </g>
    </g>
  </g>
  <rect
     width="0.22749999"
     height="5.8362498"
     ry="0.07"
     x="18.661751"
     y="34.227997"
     id="rect276"
     style="fill:currentColor" />
  <g
     transform="matrix(1.75,0,0,1.75,-23.988199,-61.926275)"
     id="g278">
    <path
       d="M 0,0 0,-1"
       transform="translate(22.5285,49.5953)"
       id="path280"
       style="fill:none;stroke:currentColor;stroke-width:0.2;stroke-linecap:round;stroke-linejoin:round" />
    <circle
       cx="0"
       cy="0"
       r="0.23999999"
       transform="translate(22.5285,48.5953)"
       id="circle282"
       style="fill:currentColor;stroke:currentColor;stroke-width:0.01;stroke-linecap:round;stroke-linejoin:round" />
  </g>
  <rect
     width="0.22749999"
     height="5.8362498"
     ry="0.07"
     x="13.389875"
     y="18.477999"
     id="rect284"
     style="fill:currentColor" />
  <rect
     width="0.28"
     height="41.475002"
     ry="0.087499999"
     x="0.80300015"
     y="0.80299938"
     id="rect286"
     style="fill:currentColor" />
  <g
     transform="matrix(1.7284546,0.27376031,-0.27376031,1.7284546,-12.56368,-66.755004)"
     id="g288">
    <g
       id="g290">
      <path
         d="m 220,138 c 56,0 109,-29 109,-91 0,-72 -56,-121 -103,-149 -36,-21 -76,-36 -117,-36 -56,0 -109,29 -109,91 0,72 56,121 103,149 36,21 76,36 117,36 z"
         transform="matrix(0.004,0,0,-0.004,20.136,40.0953)"
         id="path292"
         style="fill:currentColor" />
    </g>
  </g>
  <rect
     width="0.22749999"
     height="5.8362498"
     ry="0.07"
     x="8.119751"
     y="34.227997"
     id="rect294"
     style="fill:currentColor" />
  <rect
     width="0.22749999"
     height="5.8362498"
     ry="0.07"
     x="8.119751"
     y="18.477999"
     id="rect296"
     style="fill:currentColor" />
  <rect
     width="0.22749999"
     height="5.8362498"
     ry="0.07"
     x="8.119751"
     y="2.7280023"
     id="rect298"
     style="fill:currentColor" />
  <g
     transform="matrix(1.7284546,0.27376031,-0.27376031,1.7284546,-7.6050925,-65.534834)"
     id="g300">
    <g
       id="g302">
      <g
         transform="scale(0.945,1)"
         id="g304">
        <path
           d="m 315,65 c 0,24 -21,41 -42,41 -4,0 -8,0 -12,-1 C 230,96 184,65 147,41 110,17 63,-12 43,-37 36,-45 32,-55 32,-65 c 0,-24 21,-41 42,-41 4,0 8,0 12,1 31,9 78,40 115,64 37,24 84,53 104,78 7,8 10,18 10,28 z m -51,72 c 47,0 83,-21 83,-72 0,-19 -4,-37 -10,-56 -12,-38 -32,-74 -65,-96 -54,-36 -113,-51 -188,-51 -47,0 -84,22 -84,73 0,19 5,37 11,56 12,38 31,74 64,96 54,36 114,50 189,50 z"
           transform="matrix(0.004,0,0,-0.004,18.1211,58.4453)"
           id="path306"
           style="fill:currentColor" />
      </g>
    </g>
  </g>
  <g
     transform="matrix(1.7284546,0.27376031,-0.27376031,1.7284546,-10.068935,-65.728743)"
     id="g308">
    <g
       id="g310">
      <g
         transform="scale(0.945,1)"
         id="g312">
        <path
           d="m 315,65 c 0,24 -21,41 -42,41 -4,0 -8,0 -12,-1 C 230,96 184,65 147,41 110,17 63,-12 43,-37 36,-45 32,-55 32,-65 c 0,-24 21,-41 42,-41 4,0 8,0 12,1 31,9 78,40 115,64 37,24 84,53 104,78 7,8 10,18 10,28 z m -51,72 c 47,0 83,-21 83,-72 0,-19 -4,-37 -10,-56 -12,-38 -32,-74 -65,-96 -54,-36 -113,-51 -188,-51 -47,0 -84,22 -84,73 0,19 5,37 11,56 12,38 31,74 64,96 54,36 114,50 189,50 z"
           transform="matrix(0.004,0,0,-0.004,18.1211,49.4453)"
           id="path314"
           style="fill:currentColor" />
      </g>
    </g>
  </g>
  <g
     transform="matrix(1.7284546,0.27376031,-0.27376031,1.7284546,-12.532778,-65.922652)"
     id="g316">
    <g
       id="g318">
      <g
         transform="scale(0.945,1)"
         id="g320">
        <path
           d="m 315,65 c 0,24 -21,41 -42,41 -4,0 -8,0 -12,-1 C 230,96 184,65 147,41 110,17 63,-12 43,-37 36,-45 32,-55 32,-65 c 0,-24 21,-41 42,-41 4,0 8,0 12,1 31,9 78,40 115,64 37,24 84,53 104,78 7,8 10,18 10,28 z m -51,72 c 47,0 83,-21 83,-72 0,-19 -4,-37 -10,-56 -12,-38 -32,-74 -65,-96 -54,-36 -113,-51 -188,-51 -47,0 -84,22 -84,73 0,19 5,37 11,56 12,38 31,74 64,96 54,36 114,50 189,50 z"
           transform="matrix(0.004,0,0,-0.004,18.1211,40.4453)"
           id="path322"
           style="fill:currentColor" />
      </g>
    </g>
  </g>
</svg>
