<?xml version="1.0" encoding="UTF-8" standalone="no"?>
<!-- Created with Inkscape (http://www.inkscape.org/) -->

<svg
   xmlns:dc="http://purl.org/dc/elements/1.1/"
   xmlns:cc="http://creativecommons.org/ns#"
   xmlns:rdf="http://www.w3.org/1999/02/22-rdf-syntax-ns#"
   xmlns:svg="http://www.w3.org/2000/svg"
   xmlns="http://www.w3.org/2000/svg"
   version="1.2"
   width="447.89227"
   height="89.71978"
   viewBox="0 0 71.931515 14.409"
   id="svg3241">
  <metadata
     id="metadata3319">
    <rdf:RDF>
      <cc:Work
         rdf:about="">
        <dc:format>image/svg+xml</dc:format>
        <dc:type
           rdf:resource="http://purl.org/dc/dcmitype/StillImage" />
        <dc:title></dc:title>
      </cc:Work>
    </rdf:RDF>
  </metadata>
  <defs
     id="defs3317" />
  <text
     x="7.3387566"
     y="2.5464985"
     id="text3243"
     style="font-size:2.20009995px;text-anchor:start;fill:currentColor;font-family:Century Schoolbook L">
    <tspan
       id="tspan3245" />
  </text>
  <line
     x1="0.8927936"
     y1="10.910998"
     x2="71.041016"
     y2="10.910998"
     id="line3247"
     style="stroke:currentColor;stroke-width:0.175;stroke-linecap:round;stroke-linejoin:round" />
  <line
     x1="0.8927936"
     y1="9.1609983"
     x2="71.041016"
     y2="9.1609983"
     id="line3249"
     style="stroke:currentColor;stroke-width:0.175;stroke-linecap:round;stroke-linejoin:round" />
  <line
     x1="0.8927936"
     y1="7.4109983"
     x2="71.041016"
     y2="7.4109983"
     id="line3251"
     style="stroke:currentColor;stroke-width:0.175;stroke-linecap:round;stroke-linejoin:round" />
  <line
     x1="0.8927936"
     y1="5.6609983"
     x2="71.041016"
     y2="5.6609983"
     id="line3253"
     style="stroke:currentColor;stroke-width:0.175;stroke-linecap:round;stroke-linejoin:round" />
  <line
     x1="0.8927936"
     y1="3.9109981"
     x2="71.041016"
     y2="3.9109981"
     id="line3255"
     style="stroke:currentColor;stroke-width:0.175;stroke-linecap:round;stroke-linejoin:round" />
  <rect
     width="0.33249998"
     height="7"
     ry="0"
     x="42.523716"
     y="3.9109981"
     id="rect3257"
     style="fill:currentColor" />
  <path
     d="m 29.259768,6.5359984 c 0,-0.217 0.175,-0.392 0.392,-0.392 0.217,0 0.392,0.175 0.392,0.392 0,0.217 -0.175,0.392 -0.392,0.392 -0.217,0 -0.392,-0.175 -0.392,-0.392 z"
     id="path3259"
     style="fill:currentColor" />
  <path
     d="m 29.259768,8.2859984 c 0,-0.217 0.175,-0.392 0.392,-0.392 0.217,0 0.392,0.175 0.392,0.392 0,0.217 -0.175,0.392 -0.392,0.392 -0.217,0 -0.392,-0.175 -0.392,-0.392 z"
     id="path3261"
     style="fill:currentColor" />
  <rect
     width="0.33249998"
     height="7"
     ry="0"
     x="28.402269"
     y="3.9109981"
     id="rect3263"
     style="fill:currentColor" />
  <rect
     width="1.0500001"
     height="7"
     ry="0"
     x="26.827269"
     y="3.9109981"
     id="rect3265"
     style="fill:currentColor" />
  <path
     d="m 67.908518,6.5359984 c 0,-0.217 0.175,-0.392 0.392,-0.392 0.217,0 0.392,0.175 0.392,0.392 0,0.217 -0.175,0.392 -0.392,0.392 -0.217,0 -0.392,-0.175 -0.392,-0.392 z"
     id="path3267"
     style="fill:currentColor" />
  <path
     d="m 67.908518,8.2859984 c 0,-0.217 0.175,-0.392 0.392,-0.392 0.217,0 0.392,0.175 0.392,0.392 0,0.217 -0.175,0.392 -0.392,0.392 -0.217,0 -0.392,-0.175 -0.392,-0.392 z"
     id="path3269"
     style="fill:currentColor" />
  <rect
     width="1.0500001"
     height="7"
     ry="0"
     x="70.078514"
     y="3.9109981"
     id="rect3271"
     style="fill:currentColor" />
  <rect
     width="0.33249998"
     height="7"
     ry="0"
     x="69.221016"
     y="3.9109981"
     id="rect3273"
     style="fill:currentColor" />
  <rect
     width="0.33249998"
     height="7"
     ry="0"
     x="55.270016"
     y="3.9109981"
     id="rect3275"
     style="fill:currentColor" />
  <rect
     width="0.22749999"
     height="5.5046248"
     ry="0.07"
     x="57.358643"
     y="7.7396488"
     id="rect3277"
     style="fill:currentColor" />
  <path
     d="m 58.898643,6.4449984 c 0.392,0 0.763,0.203 0.763,0.637 0,0.504 -0.392,0.847 -0.721,1.043 -0.252,0.147 -0.532,0.252 -0.819,0.252 -0.392,0 -0.763,-0.203 -0.763,-0.637 0,-0.504 0.392,-0.847 0.721,-1.043 0.252,-0.147 0.532,-0.252 0.819,-0.252 z"
     id="path3279"
     style="fill:currentColor" />
  <rect
     width="0.22749999"
     height="5.79635"
     ry="0.07"
     x="51.781918"
     y="2.1609983"
     id="rect3281"
     style="fill:currentColor" />
  <path
     d="m 51.246068,7.3199984 c 0.392,0 0.763,0.203 0.763,0.637 0,0.504 -0.392,0.847 -0.721,1.043 -0.252,0.147 -0.532,0.252 -0.819,0.252 -0.392,0 -0.763,-0.203 -0.763,-0.637 0,-0.504 0.392,-0.847 0.721,-1.043 0.252,-0.147 0.532,-0.252 0.819,-0.252 z"
     id="path3283"
     style="fill:currentColor" />
  <path
     d="m 4.8372936,7.3269984 c 0.028,0 0.063,-0.007 0.091,-0.007 1.085,0 1.792,0.896 1.792,1.827 0,0.532 -0.231,1.0779996 -0.749,1.4699996 -0.154,0.119 -0.329,0.196 -0.511,0.252 0.021,0.245 0.035,0.49 0.035,0.735 0,0.133 -0.007,0.273 -0.014,0.406 -0.049,0.84 -0.63,1.596 -1.456,1.596 -0.756,0 -1.365,-0.616 -1.365,-1.379 0,-0.406 0.371,-0.721 0.784,-0.721 0.378,0 0.665,0.329 0.665,0.721 0,0.364 -0.301,0.665 -0.665,0.665 -0.077,0 -0.147,-0.014 -0.217,-0.042 0.182,0.273 0.476,0.455 0.819,0.455 0.672,0 1.099,-0.644 1.141,-1.337 0.007,-0.126 0.014,-0.259 0.014,-0.385 0,-0.217 -0.007,-0.427 -0.028,-0.644 -0.203,0.035 -0.406,0.056 -0.623,0.056 -1.316,0 -2.331,-1.2039996 -2.331,-2.6179996 0,-1.239 0.917,-2.142 1.736,-3.087 -0.133,-0.434 -0.259,-0.875 -0.315,-1.33 -0.042,-0.364 -0.049,-0.728 -0.049,-1.092 0,-0.805 0.385,-1.568 1.043,-2.04399996 0.021,-0.014 0.049,-0.021 0.07,-0.021 0.028,0 0.049,0 0.07,0.021 0.497,0.58799996 0.931,1.71499996 0.931,2.50599996 0,1.001 -0.602,1.785 -1.26,2.548 0.147,0.476 0.273,0.966 0.392,1.449 z m 0.595,3.2549996 c 0.476,-0.168 0.791,-0.6649996 0.791,-1.1479996 0,-0.63 -0.462,-1.253 -1.211,-1.33 0.168,0.812 0.322,1.617 0.42,2.4779996 z m -2.709,-1.6169996 c 0,0.945 0.903,1.7289996 1.848,1.7289996 0.196,0 0.385,-0.014 0.574,-0.042 -0.098,-0.8889996 -0.259,-1.7149996 -0.441,-2.5479996 -0.553,0.056 -0.868,0.427 -0.868,0.833 0,0.308 0.175,0.637 0.567,0.861 0.035,0.035 0.049,0.07 0.049,0.105 0,0.077 -0.07,0.1539996 -0.154,0.1539996 -0.021,0 -0.042,-0.007 -0.063,-0.014 -0.56,-0.3009996 -0.819,-0.8049996 -0.819,-1.2949996 0,-0.616 0.406,-1.218 1.12,-1.379 -0.098,-0.406 -0.203,-0.819 -0.322,-1.225 -0.749,0.847 -1.491,1.701 -1.491,2.821 z m 2.338,-7.119 c -0.693,0.336 -1.134,1.043 -1.134,1.813 0,0.518 0.126,0.931 0.252,1.358 0.56,-0.679 1.022,-1.386 1.022,-2.268 0,-0.385 -0.028,-0.553 -0.14,-0.903 z"
     id="path3285"
     style="fill:currentColor" />
  <rect
     width="0.22749999"
     height="5.79635"
     ry="0.07"
     x="17.939369"
     y="3.9109981"
     id="rect3287"
     style="fill:currentColor" />
  <rect
     width="0.22749999"
     height="5.5046248"
     ry="0.07"
     x="62.633492"
     y="7.7396488"
     id="rect3289"
     style="fill:currentColor" />
  <path
     d="m 64.173493,6.4449984 c 0.392,0 0.763,0.203 0.763,0.637 0,0.504 -0.392,0.847 -0.721,1.043 -0.252,0.147 -0.532,0.252 -0.819,0.252 -0.392,0 -0.763,-0.203 -0.763,-0.637 0,-0.504 0.392,-0.847 0.721,-1.043 0.252,-0.147 0.532,-0.252 0.819,-0.252 z"
     id="path3291"
     style="fill:currentColor" />
  <path
     d="m 10.983294,8.7871984 c 0.154,-0.098 0.308,-0.203 0.42,-0.35 0.077,-0.105 0.133,-0.231 0.189,-0.35 0.014,-0.028 0.035,-0.042 0.063,-0.042 0.042,0 0.091,0.035 0.091,0.098 v 1.715 h 0.504 c 0.07,0 0.105,0.049 0.105,0.098 0,0.049 -0.035,0.1049996 -0.105,0.1049996 h -0.504 v 0.056 c 0,0.336 0.189,0.658 0.504,0.658 0.056,0 0.084,0.035 0.084,0.077 0,0.042 -0.028,0.084 -0.084,0.084 -0.308,0 -0.609,-0.091 -0.917,-0.091 -0.308,0 -0.609,0.091 -0.917,0.091 -0.056,0 -0.084,-0.042 -0.084,-0.084 0,-0.042 0.028,-0.077 0.084,-0.077 0.315,0 0.511,-0.322 0.511,-0.658 v -0.056 H 9.7582942 c -0.161,0 -0.217,-0.098 -0.217,-0.1609996 0,-0.021 0.007,-0.035 0.014,-0.042 0.5599998,-0.651 0.9659998,-1.449 0.9659998,-2.31 0,-0.063 0.042,-0.112 0.091,-0.112 h 0.021 c 0.161,0.049 0.329,0.091 0.497,0.091 0.168,0 0.336,-0.042 0.497,-0.091 0.014,-0.007 0.021,-0.007 0.035,-0.007 0.077,0 0.126,0.07 0.084,0.119 l -1.9879996,2.31 h 1.1689996 v -0.917 c 0,-0.056 0.007,-0.119 0.056,-0.154 z"
     id="path3293"
     style="fill:currentColor" />
  <path
     d="m 9.8358186,7.3339984 c -0.007,0.049 -0.042,0.077 -0.077,0.077 -0.042,0 -0.084,-0.028 -0.084,-0.077 0,-1.225 1.6450004,-1.155 1.6450004,-2.408 0,-0.42 -0.126,-0.854 -0.49,-0.854 -0.182,0 -0.357,0.098 -0.357,0.259 0,0.189 0.245,0.287 0.245,0.476 0,0.266 -0.21,0.483 -0.476,0.483 -0.2660004,0 -0.4830004,-0.217 -0.4830004,-0.483 0,-0.532 0.5040004,-0.896 1.0710004,-0.896 0.672,0 1.308999,0.392 1.308999,1.015 0,1.071 -1.056999,1.113 -1.742999,1.54 0.063,-0.014 0.119,-0.021 0.182,-0.021 0.231,0 0.49,0.077 0.735,0.252 0.147,0.105 0.322,0.161 0.461999,0.161 0.147,0 0.273,-0.063 0.308,-0.203 0.014,-0.042 0.042,-0.063 0.077,-0.063 0.042,0 0.084,0.035 0.084,0.084 0,0.469 -0.629999,0.735 -0.965999,0.735 -0.252,0 -0.497,-0.098 -0.672,-0.308 -0.091,-0.112 -0.217,-0.154 -0.336,-0.154 -0.21,0 -0.4130004,0.14 -0.4340004,0.385 z"
     id="path3295"
     style="fill:currentColor" />
  <rect
     width="0.22749999"
     height="5.79635"
     ry="0.07"
     x="33.698116"
     y="3.0359983"
     id="rect3297"
     style="fill:currentColor" />
  <path
     d="m 33.162268,8.1949984 c 0.392,0 0.763,0.203 0.763,0.637 0,0.504 -0.392,0.847 -0.721,1.043 -0.252,0.1469996 -0.532,0.2519996 -0.819,0.2519996 -0.392,0 -0.763,-0.2029996 -0.763,-0.6369996 0,-0.504 0.392,-0.847 0.721,-1.043 0.252,-0.147 0.532,-0.252 0.819,-0.252 z"
     id="path3299"
     style="fill:currentColor" />
  <rect
     width="0.22749999"
     height="5.79635"
     ry="0.07"
     x="23.21422"
     y="3.9109981"
     id="rect3301"
     style="fill:currentColor" />
  <path
     d="m 22.678368,9.0699984 c 0.392,0 0.763,0.203 0.763,0.637 0,0.5039996 -0.392,0.8469996 -0.721,1.0429996 -0.252,0.147 -0.532,0.252 -0.819,0.252 -0.392,0 -0.763,-0.203 -0.763,-0.637 0,-0.5039996 0.392,-0.8469996 0.721,-1.0429996 0.252,-0.147 0.532,-0.252 0.819,-0.252 z"
     id="path3303"
     style="fill:currentColor" />
  <rect
     width="0.22749999"
     height="5.79635"
     ry="0.07"
     x="46.506893"
     y="2.1609983"
     id="rect3305"
     style="fill:currentColor" />
  <path
     d="m 45.971218,7.3199984 c 0.392,0 0.763,0.203 0.763,0.637 0,0.504 -0.392,0.847 -0.721,1.043 -0.252,0.147 -0.532,0.252 -0.819,0.252 -0.392,0 -0.763,-0.203 -0.763,-0.637 0,-0.504 0.392,-0.847 0.721,-1.043 0.252,-0.147 0.532,-0.252 0.819,-0.252 z"
     id="path3307"
     style="fill:currentColor" />
  <path
     d="m 17.403518,9.0699984 c 0.392,0 0.763,0.203 0.763,0.637 0,0.5039996 -0.392,0.8469996 -0.721,1.0429996 -0.252,0.147 -0.532,0.252 -0.819,0.252 -0.392,0 -0.763,-0.203 -0.763,-0.637 0,-0.5039996 0.392,-0.8469996 0.721,-1.0429996 0.252,-0.147 0.532,-0.252 0.819,-0.252 z"
     id="path3309"
     style="fill:currentColor" />
  <path
     d="m 38.437293,8.1949984 c 0.392,0 0.763,0.203 0.763,0.637 0,0.504 -0.392,0.847 -0.721,1.043 -0.252,0.1469996 -0.532,0.2519996 -0.819,0.2519996 -0.392,0 -0.763,-0.2029996 -0.763,-0.6369996 0,-0.504 0.392,-0.847 0.721,-1.043 0.252,-0.147 0.532,-0.252 0.819,-0.252 z"
     id="path3311"
     style="fill:currentColor" />
  <rect
     width="0.22749999"
     height="5.79635"
     ry="0.07"
     x="38.972969"
     y="3.0359983"
     id="rect3313"
     style="fill:currentColor" />
</svg>
