<svg xmlns="http://www.w3.org/2000/svg" xmlns:xlink="http://www.w3.org/1999/xlink" version="1.2" width="133.00mm" height="197.50mm" viewBox="0 0 58.2187 86.4526">
<style type="text/css">
<![CDATA[
tspan { white-space: pre; }
]]>
</style>
<!-- Page: 1/1 -->
<g transform="translate(0.3953, 2.9032)">
<line stroke-linejoin="round" stroke-linecap="round" stroke-width="0.0848" stroke="currentColor" x1="0.0424" y1="0" x2="26.6899" y2="0"/>
</g>
<g transform="translate(0.3953, 4.4032)">
<line stroke-linejoin="round" stroke-linecap="round" stroke-width="0.0848" stroke="currentColor" x1="0.0424" y1="0" x2="26.6899" y2="0"/>
</g>
<g transform="translate(0.3953, 7.4032)">
<line stroke-linejoin="round" stroke-linecap="round" stroke-width="0.0848" stroke="currentColor" x1="0.0424" y1="0" x2="26.6899" y2="0"/>
</g>
<g transform="translate(0.3953, 8.9032)">
<line stroke-linejoin="round" stroke-linecap="round" stroke-width="0.0848" stroke="currentColor" x1="0.0424" y1="0" x2="26.6899" y2="0"/>
</g>
<g transform="translate(-3.9820, 5.9032)">
<rect x="26.7778" y="-0.0799" width="2.5313" height="0.1598" ry="0.0799" fill="currentColor"/>
</g>
<g transform="translate(-3.9820, 10.4032)">
<rect x="10.3778" y="-0.0799" width="2.5313" height="0.1598" ry="0.0799" fill="currentColor"/>
</g>
<g transform="translate(-3.9820, 10.4032)">
<rect x="6.2778" y="-0.0799" width="2.5313" height="0.1598" ry="0.0799" fill="currentColor"/>
</g>
<g transform="scale(1.0000, 1.0000)">
<g transform="translate(11.0953, 8.9032)">
<path stroke-width="0.0001" stroke-linejoin="round" stroke-linecap="round" stroke="currentColor" fill="currentColor" d="M1.0162 -0.5005C1.1901 -0.4580 1.3000 -0.3601 1.3267 -0.2237C1.3473 -0.1188 1.3091 0.0324 1.2347 0.1410C1.1037 0.3322 0.8787 0.4644 0.6176 0.5036C0.5244 0.5176 0.3659 0.5121 0.2884 0.4921C-0.0297 0.4098 -0.0964 0.0918 0.1475 -0.1799C0.2984 -0.3479 0.5439 -0.4756 0.7758 -0.5066C0.8400 -0.5151 0.9696 -0.5119 1.0162 -0.5005z"/>
</g>
</g>
<g transform="translate(12.3725, 5.9032)">
<rect x="-0.0551" y="-0.5000" width="0.1103" height="3.3133" ry="0.0308" fill="currentColor"/>
</g>
<g color="rgb(18.0392%, 54.5098%, 34.1176%)">
<g transform="translate(9.0467, 13.8206)">
<text font-family="sans-serif" font-size="1.3859" text-anchor="start" fill="currentColor">
<tspan>W</tspan>
</text>
</g>
</g>
<g transform="scale(1.0000, 1.0000)">
<g transform="translate(15.1953, 7.7782)">
<path stroke-width="0.0001" stroke-linejoin="round" stroke-linecap="round" stroke="currentColor" fill="currentColor" d="M1.0265 -0.4999C1.2152 -0.4618 1.3372 -0.3515 1.3549 -0.2025C1.3692 -0.0828 1.3124 0.0767 1.2094 0.2063C1.0774 0.3724 0.8892 0.4721 0.6459 0.5049C0.5851 0.5131 0.5489 0.5134 0.4433 0.5068C0.3289 0.4996 0.3088 0.4966 0.2606 0.4798C0.1181 0.4300 0.0248 0.3354 0.0042 0.2196C-0.0154 0.1092 0.0352 -0.0503 0.1321 -0.1828C0.2682 -0.3692 0.4766 -0.4818 0.7307 -0.5063C0.8236 -0.5152 0.9655 -0.5122 1.0265 -0.4999zM0.8920 -0.3272C0.8019 -0.3059 0.6744 -0.2509 0.5172 -0.1656C0.1997 0.0069 0.1097 0.0977 0.1513 0.2039C0.1688 0.2487 0.1917 0.2776 0.2265 0.2986C0.3097 0.3488 0.4220 0.3375 0.6348 0.2572C0.9775 0.1280 1.2160 -0.0339 1.2240 -0.1427C1.2287 -0.2070 1.1849 -0.2813 1.1220 -0.3156C1.0837 -0.3365 1.0773 -0.3379 1.0151 -0.3393C0.9699 -0.3403 0.9308 -0.3364 0.8920 -0.3272z"/>
</g>
</g>
<g color="rgb(57.6471%, 43.9216%, 85.8824%)">
<g transform="translate(12.7396, 13.8206)">
<text font-family="sans-serif" font-size="1.3859" text-anchor="start" fill="currentColor">
<tspan>m3</tspan>
</text>
</g>
</g>
<g transform="translate(16.4973, 5.9032)">
<rect x="-0.0551" y="-1.6250" width="0.1103" height="3.3133" ry="0.0308" fill="currentColor"/>
</g>
<g transform="scale(1.0000, 1.0000)">
<g transform="translate(19.2953, 7.0282)">
<path stroke-width="0.0001" stroke-linejoin="round" stroke-linecap="round" stroke="currentColor" fill="currentColor" d="M1.0265 -0.4999C1.2152 -0.4618 1.3372 -0.3515 1.3549 -0.2025C1.3692 -0.0828 1.3124 0.0767 1.2094 0.2063C1.0774 0.3724 0.8892 0.4721 0.6459 0.5049C0.5851 0.5131 0.5489 0.5134 0.4433 0.5068C0.3289 0.4996 0.3088 0.4966 0.2606 0.4798C0.1181 0.4300 0.0248 0.3354 0.0042 0.2196C-0.0154 0.1092 0.0352 -0.0503 0.1321 -0.1828C0.2682 -0.3692 0.4766 -0.4818 0.7307 -0.5063C0.8236 -0.5152 0.9655 -0.5122 1.0265 -0.4999zM0.8920 -0.3272C0.8019 -0.3059 0.6744 -0.2509 0.5172 -0.1656C0.1997 0.0069 0.1097 0.0977 0.1513 0.2039C0.1688 0.2487 0.1917 0.2776 0.2265 0.2986C0.3097 0.3488 0.4220 0.3375 0.6348 0.2572C0.9775 0.1280 1.2160 -0.0339 1.2240 -0.1427C1.2287 -0.2070 1.1849 -0.2813 1.1220 -0.3156C1.0837 -0.3365 1.0773 -0.3379 1.0151 -0.3393C0.9699 -0.3403 0.9308 -0.3364 0.8920 -0.3272z"/>
</g>
</g>
<g color="rgb(18.0392%, 54.5098%, 34.1176%)">
<g transform="translate(17.2467, 13.8206)">
<text font-family="sans-serif" font-size="1.3859" text-anchor="start" fill="currentColor">
<tspan>W</tspan>
</text>
</g>
</g>
<g transform="translate(20.5973, 5.9032)">
<rect x="-0.0551" y="-2.3750" width="0.1103" height="3.3133" ry="0.0308" fill="currentColor"/>
</g>
<g transform="scale(1.0000, 1.0000)">
<g transform="translate(23.3953, 5.9032)">
<path stroke-width="0.0001" stroke-linejoin="round" stroke-linecap="round" stroke="currentColor" fill="currentColor" d="M1.0162 -0.5005C1.1901 -0.4580 1.3000 -0.3601 1.3267 -0.2237C1.3473 -0.1188 1.3091 0.0324 1.2347 0.1410C1.1037 0.3322 0.8787 0.4644 0.6176 0.5036C0.5244 0.5176 0.3659 0.5121 0.2884 0.4921C-0.0297 0.4098 -0.0964 0.0918 0.1475 -0.1799C0.2984 -0.3479 0.5439 -0.4756 0.7758 -0.5066C0.8400 -0.5151 0.9696 -0.5119 1.0162 -0.5005z"/>
</g>
</g>
<g color="rgb(57.6471%, 43.9216%, 85.8824%)">
<g transform="translate(20.9396, 13.8206)">
<text font-family="sans-serif" font-size="1.3859" text-anchor="start" fill="currentColor">
<tspan>m3</tspan>
</text>
</g>
</g>
<g transform="translate(23.4505, 5.9032)">
<rect x="-0.0551" y="0.1867" width="0.1103" height="3.3133" ry="0.0308" fill="currentColor"/>
</g>
<g color="rgb(50.0000%, 50.0000%, 50.0000%)">
<g transform="translate(0.8953, 2.1381)">
<text font-family="sans-serif" font-size="1.2350" text-anchor="start" fill="currentColor">
<tspan>C Major Pentatonic</tspan>
</text>
</g>
</g>
<g transform="scale(1.0000, 1.0000)">
<g transform="translate(2.8953, 10.4032)">
<path stroke-width="0.0001" stroke-linejoin="round" stroke-linecap="round" stroke="currentColor" fill="currentColor" d="M1.0162 -0.5005C1.1901 -0.4580 1.3000 -0.3601 1.3267 -0.2237C1.3473 -0.1188 1.3091 0.0324 1.2347 0.1410C1.1037 0.3322 0.8787 0.4644 0.6176 0.5036C0.5244 0.5176 0.3659 0.5121 0.2884 0.4921C-0.0297 0.4098 -0.0964 0.0918 0.1475 -0.1799C0.2984 -0.3479 0.5439 -0.4756 0.7758 -0.5066C0.8400 -0.5151 0.9696 -0.5119 1.0162 -0.5005z"/>
</g>
</g>
<g transform="translate(4.1725, 5.9032)">
<rect x="-0.0551" y="1.0000" width="0.1103" height="3.3133" ry="0.0308" fill="currentColor"/>
</g>
<g transform="scale(1.0000, 1.0000)">
<g transform="translate(6.9953, 9.6532)">
<path stroke-width="0.0001" stroke-linejoin="round" stroke-linecap="round" stroke="currentColor" fill="currentColor" d="M1.0162 -0.5005C1.1901 -0.4580 1.3000 -0.3601 1.3267 -0.2237C1.3473 -0.1188 1.3091 0.0324 1.2347 0.1410C1.1037 0.3322 0.8787 0.4644 0.6176 0.5036C0.5244 0.5176 0.3659 0.5121 0.2884 0.4921C-0.0297 0.4098 -0.0964 0.0918 0.1475 -0.1799C0.2984 -0.3479 0.5439 -0.4756 0.7758 -0.5066C0.8400 -0.5151 0.9696 -0.5119 1.0162 -0.5005z"/>
</g>
</g>
<g color="rgb(18.0392%, 54.5098%, 34.1176%)">
<g transform="translate(4.9467, 13.8206)">
<text font-family="sans-serif" font-size="1.3859" text-anchor="start" fill="currentColor">
<tspan>W</tspan>
</text>
</g>
</g>
<g transform="translate(8.2725, 5.9032)">
<rect x="-0.0551" y="0.2500" width="0.1103" height="3.3133" ry="0.0308" fill="currentColor"/>
</g>
<g transform="translate(0.3953, 18.5312)">
<line stroke-linejoin="round" stroke-linecap="round" stroke-width="0.0848" stroke="currentColor" x1="0.0424" y1="0" x2="26.6899" y2="0"/>
</g>
<g transform="translate(0.3953, 20.0312)">
<line stroke-linejoin="round" stroke-linecap="round" stroke-width="0.0848" stroke="currentColor" x1="0.0424" y1="0" x2="26.6899" y2="0"/>
</g>
<g transform="translate(0.3953, 23.0312)">
<line stroke-linejoin="round" stroke-linecap="round" stroke-width="0.0848" stroke="currentColor" x1="0.0424" y1="0" x2="26.6899" y2="0"/>
</g>
<g transform="translate(0.3953, 24.5312)">
<line stroke-linejoin="round" stroke-linecap="round" stroke-width="0.0848" stroke="currentColor" x1="0.0424" y1="0" x2="26.6899" y2="0"/>
</g>
<g transform="translate(-3.9820, 21.5312)">
<rect x="26.7778" y="-0.0799" width="2.5313" height="0.1598" ry="0.0799" fill="currentColor"/>
</g>
<g transform="translate(-3.9820, 21.5312)">
<rect x="22.6666" y="-0.0799" width="2.5786" height="0.1598" ry="0.0799" fill="currentColor"/>
</g>
<g transform="translate(-3.9820, 26.0312)">
<rect x="6.2778" y="-0.0799" width="2.5313" height="0.1598" ry="0.0799" fill="currentColor"/>
</g>
<g transform="scale(1.0000, 1.0000)">
<g transform="translate(11.0953, 23.7812)">
<path stroke-width="0.0001" stroke-linejoin="round" stroke-linecap="round" stroke="currentColor" fill="currentColor" d="M1.0162 -0.5005C1.1901 -0.4580 1.3000 -0.3601 1.3267 -0.2237C1.3473 -0.1188 1.3091 0.0324 1.2347 0.1410C1.1037 0.3322 0.8787 0.4644 0.6176 0.5036C0.5244 0.5176 0.3659 0.5121 0.2884 0.4921C-0.0297 0.4098 -0.0964 0.0918 0.1475 -0.1799C0.2984 -0.3479 0.5439 -0.4756 0.7758 -0.5066C0.8400 -0.5151 0.9696 -0.5119 1.0162 -0.5005z"/>
</g>
</g>
<g transform="translate(12.3725, 21.5312)">
<rect x="-0.0551" y="-1.2500" width="0.1103" height="3.3133" ry="0.0308" fill="currentColor"/>
</g>
<g color="rgb(18.0392%, 54.5098%, 34.1176%)">
<g transform="translate(9.0467, 28.9486)">
<text font-family="sans-serif" font-size="1.3859" text-anchor="start" fill="currentColor">
<tspan>W</tspan>
</text>
</g>
</g>
<g transform="scale(1.0000, 1.0000)">
<g transform="translate(15.1953, 22.6562)">
<path stroke-width="0.0001" stroke-linejoin="round" stroke-linecap="round" stroke="currentColor" fill="currentColor" d="M1.0265 -0.4999C1.2152 -0.4618 1.3372 -0.3515 1.3549 -0.2025C1.3692 -0.0828 1.3124 0.0767 1.2094 0.2063C1.0774 0.3724 0.8892 0.4721 0.6459 0.5049C0.5851 0.5131 0.5489 0.5134 0.4433 0.5068C0.3289 0.4996 0.3088 0.4966 0.2606 0.4798C0.1181 0.4300 0.0248 0.3354 0.0042 0.2196C-0.0154 0.1092 0.0352 -0.0503 0.1321 -0.1828C0.2682 -0.3692 0.4766 -0.4818 0.7307 -0.5063C0.8236 -0.5152 0.9655 -0.5122 1.0265 -0.4999zM0.8920 -0.3272C0.8019 -0.3059 0.6744 -0.2509 0.5172 -0.1656C0.1997 0.0069 0.1097 0.0977 0.1513 0.2039C0.1688 0.2487 0.1917 0.2776 0.2265 0.2986C0.3097 0.3488 0.4220 0.3375 0.6348 0.2572C0.9775 0.1280 1.2160 -0.0339 1.2240 -0.1427C1.2287 -0.2070 1.1849 -0.2813 1.1220 -0.3156C1.0837 -0.3365 1.0773 -0.3379 1.0151 -0.3393C0.9699 -0.3403 0.9308 -0.3364 0.8920 -0.3272z"/>
</g>
</g>
<g color="rgb(57.6471%, 43.9216%, 85.8824%)">
<g transform="translate(12.7396, 28.9486)">
<text font-family="sans-serif" font-size="1.3859" text-anchor="start" fill="currentColor">
<tspan>m3</tspan>
</text>
</g>
</g>
<g transform="translate(16.4973, 21.5312)">
<rect x="-0.0551" y="-2.3750" width="0.1103" height="3.3133" ry="0.0308" fill="currentColor"/>
</g>
<g transform="scale(1.0000, 1.0000)">
<g transform="translate(19.2953, 21.9062)">
<path stroke-width="0.0001" stroke-linejoin="round" stroke-linecap="round" stroke="currentColor" fill="currentColor" d="M1.0265 -0.4999C1.2152 -0.4618 1.3372 -0.3515 1.3549 -0.2025C1.3692 -0.0828 1.3124 0.0767 1.2094 0.2063C1.0774 0.3724 0.8892 0.4721 0.6459 0.5049C0.5851 0.5131 0.5489 0.5134 0.4433 0.5068C0.3289 0.4996 0.3088 0.4966 0.2606 0.4798C0.1181 0.4300 0.0248 0.3354 0.0042 0.2196C-0.0154 0.1092 0.0352 -0.0503 0.1321 -0.1828C0.2682 -0.3692 0.4766 -0.4818 0.7307 -0.5063C0.8236 -0.5152 0.9655 -0.5122 1.0265 -0.4999zM0.8920 -0.3272C0.8019 -0.3059 0.6744 -0.2509 0.5172 -0.1656C0.1997 0.0069 0.1097 0.0977 0.1513 0.2039C0.1688 0.2487 0.1917 0.2776 0.2265 0.2986C0.3097 0.3488 0.4220 0.3375 0.6348 0.2572C0.9775 0.1280 1.2160 -0.0339 1.2240 -0.1427C1.2287 -0.2070 1.1849 -0.2813 1.1220 -0.3156C1.0837 -0.3365 1.0773 -0.3379 1.0151 -0.3393C0.9699 -0.3403 0.9308 -0.3364 0.8920 -0.3272z"/>
</g>
</g>
<g color="rgb(18.0392%, 54.5098%, 34.1176%)">
<g transform="translate(17.2467, 28.9486)">
<text font-family="sans-serif" font-size="1.3859" text-anchor="start" fill="currentColor">
<tspan>W</tspan>
</text>
</g>
</g>
<g transform="translate(20.5973, 21.5312)">
<rect x="-0.0551" y="-3.1250" width="0.1103" height="3.3133" ry="0.0308" fill="currentColor"/>
</g>
<g transform="scale(1.0000, 1.0000)">
<g transform="translate(23.3953, 20.7812)">
<path stroke-width="0.0001" stroke-linejoin="round" stroke-linecap="round" stroke="currentColor" fill="currentColor" d="M1.0162 -0.5005C1.1901 -0.4580 1.3000 -0.3601 1.3267 -0.2237C1.3473 -0.1188 1.3091 0.0324 1.2347 0.1410C1.1037 0.3322 0.8787 0.4644 0.6176 0.5036C0.5244 0.5176 0.3659 0.5121 0.2884 0.4921C-0.0297 0.4098 -0.0964 0.0918 0.1475 -0.1799C0.2984 -0.3479 0.5439 -0.4756 0.7758 -0.5066C0.8400 -0.5151 0.9696 -0.5119 1.0162 -0.5005z"/>
</g>
</g>
<g color="rgb(57.6471%, 43.9216%, 85.8824%)">
<g transform="translate(20.9396, 28.9486)">
<text font-family="sans-serif" font-size="1.3859" text-anchor="start" fill="currentColor">
<tspan>m3</tspan>
</text>
</g>
</g>
<g transform="translate(23.4505, 21.5312)">
<rect x="-0.0551" y="-0.5633" width="0.1103" height="3.3133" ry="0.0308" fill="currentColor"/>
</g>
<g color="rgb(50.0000%, 50.0000%, 50.0000%)">
<g transform="translate(0.8953, 17.7661)">
<text font-family="sans-serif" font-size="1.2350" text-anchor="start" fill="currentColor">
<tspan>D Major Pentatonic</tspan>
</text>
</g>
</g>
<g transform="scale(1.0000, 1.0000)">
<g transform="translate(2.8953, 25.2812)">
<path stroke-width="0.0001" stroke-linejoin="round" stroke-linecap="round" stroke="currentColor" fill="currentColor" d="M1.0162 -0.5005C1.1901 -0.4580 1.3000 -0.3601 1.3267 -0.2237C1.3473 -0.1188 1.3091 0.0324 1.2347 0.1410C1.1037 0.3322 0.8787 0.4644 0.6176 0.5036C0.5244 0.5176 0.3659 0.5121 0.2884 0.4921C-0.0297 0.4098 -0.0964 0.0918 0.1475 -0.1799C0.2984 -0.3479 0.5439 -0.4756 0.7758 -0.5066C0.8400 -0.5151 0.9696 -0.5119 1.0162 -0.5005z"/>
</g>
</g>
<g transform="translate(4.1725, 21.5312)">
<rect x="-0.0551" y="0.2500" width="0.1103" height="3.3133" ry="0.0308" fill="currentColor"/>
</g>
<g transform="scale(1.0000, 1.0000)">
<g transform="translate(6.9953, 24.5312)">
<path stroke-width="0.0001" stroke-linejoin="round" stroke-linecap="round" stroke="currentColor" fill="currentColor" d="M1.0162 -0.5005C1.1901 -0.4580 1.3000 -0.3601 1.3267 -0.2237C1.3473 -0.1188 1.3091 0.0324 1.2347 0.1410C1.1037 0.3322 0.8787 0.4644 0.6176 0.5036C0.5244 0.5176 0.3659 0.5121 0.2884 0.4921C-0.0297 0.4098 -0.0964 0.0918 0.1475 -0.1799C0.2984 -0.3479 0.5439 -0.4756 0.7758 -0.5066C0.8400 -0.5151 0.9696 -0.5119 1.0162 -0.5005z"/>
</g>
</g>
<g color="rgb(18.0392%, 54.5098%, 34.1176%)">
<g transform="translate(4.9467, 28.9486)">
<text font-family="sans-serif" font-size="1.3859" text-anchor="start" fill="currentColor">
<tspan>W</tspan>
</text>
</g>
</g>
<g transform="translate(8.2725, 21.5312)">
<rect x="-0.0551" y="-0.5000" width="0.1103" height="3.3133" ry="0.0308" fill="currentColor"/>
</g>
<g transform="translate(0.3953, 33.6591)">
<line stroke-linejoin="round" stroke-linecap="round" stroke-width="0.0848" stroke="currentColor" x1="0.0424" y1="0" x2="26.6899" y2="0"/>
</g>
<g transform="translate(0.3953, 35.1591)">
<line stroke-linejoin="round" stroke-linecap="round" stroke-width="0.0848" stroke="currentColor" x1="0.0424" y1="0" x2="26.6899" y2="0"/>
</g>
<g transform="translate(0.3953, 38.1591)">
<line stroke-linejoin="round" stroke-linecap="round" stroke-width="0.0848" stroke="currentColor" x1="0.0424" y1="0" x2="26.6899" y2="0"/>
</g>
<g transform="translate(0.3953, 39.6591)">
<line stroke-linejoin="round" stroke-linecap="round" stroke-width="0.0848" stroke="currentColor" x1="0.0424" y1="0" x2="26.6899" y2="0"/>
</g>
<g transform="translate(-3.9820, 36.6591)">
<rect x="22.6666" y="-0.0799" width="2.5786" height="0.1598" ry="0.0799" fill="currentColor"/>
</g>
<g transform="translate(-3.9820, 36.6591)">
<rect x="18.5666" y="-0.0799" width="2.5786" height="0.1598" ry="0.0799" fill="currentColor"/>
</g>
<g transform="scale(1.0000, 1.0000)">
<g transform="translate(11.0953, 38.1591)">
<path stroke-width="0.0001" stroke-linejoin="round" stroke-linecap="round" stroke="currentColor" fill="currentColor" d="M1.0162 -0.5005C1.1901 -0.4580 1.3000 -0.3601 1.3267 -0.2237C1.3473 -0.1188 1.3091 0.0324 1.2347 0.1410C1.1037 0.3322 0.8787 0.4644 0.6176 0.5036C0.5244 0.5176 0.3659 0.5121 0.2884 0.4921C-0.0297 0.4098 -0.0964 0.0918 0.1475 -0.1799C0.2984 -0.3479 0.5439 -0.4756 0.7758 -0.5066C0.8400 -0.5151 0.9696 -0.5119 1.0162 -0.5005z"/>
</g>
</g>
<g transform="translate(12.3725, 36.6591)">
<rect x="-0.0551" y="-2.0000" width="0.1103" height="3.3133" ry="0.0308" fill="currentColor"/>
</g>
<g color="rgb(18.0392%, 54.5098%, 34.1176%)">
<g transform="translate(9.0467, 43.0766)">
<text font-family="sans-serif" font-size="1.3859" text-anchor="start" fill="currentColor">
<tspan>W</tspan>
</text>
</g>
</g>
<g transform="scale(1.0000, 1.0000)">
<g transform="translate(15.1953, 37.0341)">
<path stroke-width="0.0001" stroke-linejoin="round" stroke-linecap="round" stroke="currentColor" fill="currentColor" d="M1.0265 -0.4999C1.2152 -0.4618 1.3372 -0.3515 1.3549 -0.2025C1.3692 -0.0828 1.3124 0.0767 1.2094 0.2063C1.0774 0.3724 0.8892 0.4721 0.6459 0.5049C0.5851 0.5131 0.5489 0.5134 0.4433 0.5068C0.3289 0.4996 0.3088 0.4966 0.2606 0.4798C0.1181 0.4300 0.0248 0.3354 0.0042 0.2196C-0.0154 0.1092 0.0352 -0.0503 0.1321 -0.1828C0.2682 -0.3692 0.4766 -0.4818 0.7307 -0.5063C0.8236 -0.5152 0.9655 -0.5122 1.0265 -0.4999zM0.8920 -0.3272C0.8019 -0.3059 0.6744 -0.2509 0.5172 -0.1656C0.1997 0.0069 0.1097 0.0977 0.1513 0.2039C0.1688 0.2487 0.1917 0.2776 0.2265 0.2986C0.3097 0.3488 0.4220 0.3375 0.6348 0.2572C0.9775 0.1280 1.2160 -0.0339 1.2240 -0.1427C1.2287 -0.2070 1.1849 -0.2813 1.1220 -0.3156C1.0837 -0.3365 1.0773 -0.3379 1.0151 -0.3393C0.9699 -0.3403 0.9308 -0.3364 0.8920 -0.3272z"/>
</g>
</g>
<g color="rgb(57.6471%, 43.9216%, 85.8824%)">
<g transform="translate(12.7396, 43.0766)">
<text font-family="sans-serif" font-size="1.3859" text-anchor="start" fill="currentColor">
<tspan>m3</tspan>
</text>
</g>
</g>
<g transform="translate(16.4973, 36.6591)">
<rect x="-0.0551" y="-3.1250" width="0.1103" height="3.3133" ry="0.0308" fill="currentColor"/>
</g>
<g transform="scale(1.0000, 1.0000)">
<g transform="translate(19.2953, 36.2841)">
<path stroke-width="0.0001" stroke-linejoin="round" stroke-linecap="round" stroke="currentColor" fill="currentColor" d="M1.0265 -0.4999C1.2152 -0.4618 1.3372 -0.3515 1.3549 -0.2025C1.3692 -0.0828 1.3124 0.0767 1.2094 0.2063C1.0774 0.3724 0.8892 0.4721 0.6459 0.5049C0.5851 0.5131 0.5489 0.5134 0.4433 0.5068C0.3289 0.4996 0.3088 0.4966 0.2606 0.4798C0.1181 0.4300 0.0248 0.3354 0.0042 0.2196C-0.0154 0.1092 0.0352 -0.0503 0.1321 -0.1828C0.2682 -0.3692 0.4766 -0.4818 0.7307 -0.5063C0.8236 -0.5152 0.9655 -0.5122 1.0265 -0.4999zM0.8920 -0.3272C0.8019 -0.3059 0.6744 -0.2509 0.5172 -0.1656C0.1997 0.0069 0.1097 0.0977 0.1513 0.2039C0.1688 0.2487 0.1917 0.2776 0.2265 0.2986C0.3097 0.3488 0.4220 0.3375 0.6348 0.2572C0.9775 0.1280 1.2160 -0.0339 1.2240 -0.1427C1.2287 -0.2070 1.1849 -0.2813 1.1220 -0.3156C1.0837 -0.3365 1.0773 -0.3379 1.0151 -0.3393C0.9699 -0.3403 0.9308 -0.3364 0.8920 -0.3272z"/>
</g>
</g>
<g color="rgb(18.0392%, 54.5098%, 34.1176%)">
<g transform="translate(17.2467, 43.0766)">
<text font-family="sans-serif" font-size="1.3859" text-anchor="start" fill="currentColor">
<tspan>W</tspan>
</text>
</g>
</g>
<g transform="translate(19.3505, 36.6591)">
<rect x="-0.0551" y="-0.1883" width="0.1103" height="3.3133" ry="0.0308" fill="currentColor"/>
</g>
<g transform="scale(1.0000, 1.0000)">
<g transform="translate(23.3953, 35.1591)">
<path stroke-width="0.0001" stroke-linejoin="round" stroke-linecap="round" stroke="currentColor" fill="currentColor" d="M1.0162 -0.5005C1.1901 -0.4580 1.3000 -0.3601 1.3267 -0.2237C1.3473 -0.1188 1.3091 0.0324 1.2347 0.1410C1.1037 0.3322 0.8787 0.4644 0.6176 0.5036C0.5244 0.5176 0.3659 0.5121 0.2884 0.4921C-0.0297 0.4098 -0.0964 0.0918 0.1475 -0.1799C0.2984 -0.3479 0.5439 -0.4756 0.7758 -0.5066C0.8400 -0.5151 0.9696 -0.5119 1.0162 -0.5005z"/>
</g>
</g>
<g color="rgb(57.6471%, 43.9216%, 85.8824%)">
<g transform="translate(20.9396, 43.0766)">
<text font-family="sans-serif" font-size="1.3859" text-anchor="start" fill="currentColor">
<tspan>m3</tspan>
</text>
</g>
</g>
<g transform="translate(23.4505, 36.6591)">
<rect x="-0.0551" y="-1.3133" width="0.1103" height="3.3133" ry="0.0308" fill="currentColor"/>
</g>
<g color="rgb(50.0000%, 50.0000%, 50.0000%)">
<g transform="translate(0.8953, 32.8941)">
<text font-family="sans-serif" font-size="1.2350" text-anchor="start" fill="currentColor">
<tspan>E Major Pentatonic</tspan>
</text>
</g>
</g>
<g transform="scale(1.0000, 1.0000)">
<g transform="translate(2.8953, 39.6591)">
<path stroke-width="0.0001" stroke-linejoin="round" stroke-linecap="round" stroke="currentColor" fill="currentColor" d="M1.0162 -0.5005C1.1901 -0.4580 1.3000 -0.3601 1.3267 -0.2237C1.3473 -0.1188 1.3091 0.0324 1.2347 0.1410C1.1037 0.3322 0.8787 0.4644 0.6176 0.5036C0.5244 0.5176 0.3659 0.5121 0.2884 0.4921C-0.0297 0.4098 -0.0964 0.0918 0.1475 -0.1799C0.2984 -0.3479 0.5439 -0.4756 0.7758 -0.5066C0.8400 -0.5151 0.9696 -0.5119 1.0162 -0.5005z"/>
</g>
</g>
<g transform="translate(4.1725, 36.6591)">
<rect x="-0.0551" y="-0.5000" width="0.1103" height="3.3133" ry="0.0308" fill="currentColor"/>
</g>
<g transform="scale(1.0000, 1.0000)">
<g transform="translate(6.9953, 38.9091)">
<path stroke-width="0.0001" stroke-linejoin="round" stroke-linecap="round" stroke="currentColor" fill="currentColor" d="M1.0162 -0.5005C1.1901 -0.4580 1.3000 -0.3601 1.3267 -0.2237C1.3473 -0.1188 1.3091 0.0324 1.2347 0.1410C1.1037 0.3322 0.8787 0.4644 0.6176 0.5036C0.5244 0.5176 0.3659 0.5121 0.2884 0.4921C-0.0297 0.4098 -0.0964 0.0918 0.1475 -0.1799C0.2984 -0.3479 0.5439 -0.4756 0.7758 -0.5066C0.8400 -0.5151 0.9696 -0.5119 1.0162 -0.5005z"/>
</g>
</g>
<g color="rgb(18.0392%, 54.5098%, 34.1176%)">
<g transform="translate(4.9467, 43.0766)">
<text font-family="sans-serif" font-size="1.3859" text-anchor="start" fill="currentColor">
<tspan>W</tspan>
</text>
</g>
</g>
<g transform="translate(8.2725, 36.6591)">
<rect x="-0.0551" y="-1.2500" width="0.1103" height="3.3133" ry="0.0308" fill="currentColor"/>
</g>
<g transform="translate(0.3953, 47.7871)">
<line stroke-linejoin="round" stroke-linecap="round" stroke-width="0.0848" stroke="currentColor" x1="0.0424" y1="0" x2="26.6899" y2="0"/>
</g>
<g transform="translate(0.3953, 49.2871)">
<line stroke-linejoin="round" stroke-linecap="round" stroke-width="0.0848" stroke="currentColor" x1="0.0424" y1="0" x2="26.6899" y2="0"/>
</g>
<g transform="translate(0.3953, 52.2871)">
<line stroke-linejoin="round" stroke-linecap="round" stroke-width="0.0848" stroke="currentColor" x1="0.0424" y1="0" x2="26.6899" y2="0"/>
</g>
<g transform="translate(0.3953, 53.7871)">
<line stroke-linejoin="round" stroke-linecap="round" stroke-width="0.0848" stroke="currentColor" x1="0.0424" y1="0" x2="26.6899" y2="0"/>
</g>
<g transform="translate(-3.9820, 50.7871)">
<rect x="18.5666" y="-0.0799" width="2.5786" height="0.1598" ry="0.0799" fill="currentColor"/>
</g>
<g transform="translate(-3.9820, 50.7871)">
<rect x="14.4778" y="-0.0799" width="2.5313" height="0.1598" ry="0.0799" fill="currentColor"/>
</g>
<g transform="scale(1.0000, 1.0000)">
<g transform="translate(11.0953, 51.5371)">
<path stroke-width="0.0001" stroke-linejoin="round" stroke-linecap="round" stroke="currentColor" fill="currentColor" d="M1.0162 -0.5005C1.1901 -0.4580 1.3000 -0.3601 1.3267 -0.2237C1.3473 -0.1188 1.3091 0.0324 1.2347 0.1410C1.1037 0.3322 0.8787 0.4644 0.6176 0.5036C0.5244 0.5176 0.3659 0.5121 0.2884 0.4921C-0.0297 0.4098 -0.0964 0.0918 0.1475 -0.1799C0.2984 -0.3479 0.5439 -0.4756 0.7758 -0.5066C0.8400 -0.5151 0.9696 -0.5119 1.0162 -0.5005z"/>
</g>
</g>
<g transform="translate(12.3725, 50.7871)">
<rect x="-0.0551" y="-2.7500" width="0.1103" height="3.3133" ry="0.0308" fill="currentColor"/>
</g>
<g color="rgb(18.0392%, 54.5098%, 34.1176%)">
<g transform="translate(9.0467, 57.2045)">
<text font-family="sans-serif" font-size="1.3859" text-anchor="start" fill="currentColor">
<tspan>W</tspan>
</text>
</g>
</g>
<g transform="scale(1.0000, 1.0000)">
<g transform="translate(15.1953, 50.4121)">
<path stroke-width="0.0001" stroke-linejoin="round" stroke-linecap="round" stroke="currentColor" fill="currentColor" d="M1.0265 -0.4999C1.2152 -0.4618 1.3372 -0.3515 1.3549 -0.2025C1.3692 -0.0828 1.3124 0.0767 1.2094 0.2063C1.0774 0.3724 0.8892 0.4721 0.6459 0.5049C0.5851 0.5131 0.5489 0.5134 0.4433 0.5068C0.3289 0.4996 0.3088 0.4966 0.2606 0.4798C0.1181 0.4300 0.0248 0.3354 0.0042 0.2196C-0.0154 0.1092 0.0352 -0.0503 0.1321 -0.1828C0.2682 -0.3692 0.4766 -0.4818 0.7307 -0.5063C0.8236 -0.5152 0.9655 -0.5122 1.0265 -0.4999zM0.8920 -0.3272C0.8019 -0.3059 0.6744 -0.2509 0.5172 -0.1656C0.1997 0.0069 0.1097 0.0977 0.1513 0.2039C0.1688 0.2487 0.1917 0.2776 0.2265 0.2986C0.3097 0.3488 0.4220 0.3375 0.6348 0.2572C0.9775 0.1280 1.2160 -0.0339 1.2240 -0.1427C1.2287 -0.2070 1.1849 -0.2813 1.1220 -0.3156C1.0837 -0.3365 1.0773 -0.3379 1.0151 -0.3393C0.9699 -0.3403 0.9308 -0.3364 0.8920 -0.3272z"/>
</g>
</g>
<g color="rgb(57.6471%, 43.9216%, 85.8824%)">
<g transform="translate(12.7396, 57.2045)">
<text font-family="sans-serif" font-size="1.3859" text-anchor="start" fill="currentColor">
<tspan>m3</tspan>
</text>
</g>
</g>
<g transform="translate(15.2505, 50.7871)">
<rect x="-0.0551" y="-0.1883" width="0.1103" height="3.3133" ry="0.0308" fill="currentColor"/>
</g>
<g transform="scale(1.0000, 1.0000)">
<g transform="translate(19.2953, 49.6621)">
<path stroke-width="0.0001" stroke-linejoin="round" stroke-linecap="round" stroke="currentColor" fill="currentColor" d="M1.0265 -0.4999C1.2152 -0.4618 1.3372 -0.3515 1.3549 -0.2025C1.3692 -0.0828 1.3124 0.0767 1.2094 0.2063C1.0774 0.3724 0.8892 0.4721 0.6459 0.5049C0.5851 0.5131 0.5489 0.5134 0.4433 0.5068C0.3289 0.4996 0.3088 0.4966 0.2606 0.4798C0.1181 0.4300 0.0248 0.3354 0.0042 0.2196C-0.0154 0.1092 0.0352 -0.0503 0.1321 -0.1828C0.2682 -0.3692 0.4766 -0.4818 0.7307 -0.5063C0.8236 -0.5152 0.9655 -0.5122 1.0265 -0.4999zM0.8920 -0.3272C0.8019 -0.3059 0.6744 -0.2509 0.5172 -0.1656C0.1997 0.0069 0.1097 0.0977 0.1513 0.2039C0.1688 0.2487 0.1917 0.2776 0.2265 0.2986C0.3097 0.3488 0.4220 0.3375 0.6348 0.2572C0.9775 0.1280 1.2160 -0.0339 1.2240 -0.1427C1.2287 -0.2070 1.1849 -0.2813 1.1220 -0.3156C1.0837 -0.3365 1.0773 -0.3379 1.0151 -0.3393C0.9699 -0.3403 0.9308 -0.3364 0.8920 -0.3272z"/>
</g>
</g>
<g color="rgb(18.0392%, 54.5098%, 34.1176%)">
<g transform="translate(17.2467, 57.2045)">
<text font-family="sans-serif" font-size="1.3859" text-anchor="start" fill="currentColor">
<tspan>W</tspan>
</text>
</g>
</g>
<g transform="translate(19.3505, 50.7871)">
<rect x="-0.0551" y="-0.9383" width="0.1103" height="3.3133" ry="0.0308" fill="currentColor"/>
</g>
<g transform="scale(1.0000, 1.0000)">
<g transform="translate(23.3953, 48.5371)">
<path stroke-width="0.0001" stroke-linejoin="round" stroke-linecap="round" stroke="currentColor" fill="currentColor" d="M1.0162 -0.5005C1.1901 -0.4580 1.3000 -0.3601 1.3267 -0.2237C1.3473 -0.1188 1.3091 0.0324 1.2347 0.1410C1.1037 0.3322 0.8787 0.4644 0.6176 0.5036C0.5244 0.5176 0.3659 0.5121 0.2884 0.4921C-0.0297 0.4098 -0.0964 0.0918 0.1475 -0.1799C0.2984 -0.3479 0.5439 -0.4756 0.7758 -0.5066C0.8400 -0.5151 0.9696 -0.5119 1.0162 -0.5005z"/>
</g>
</g>
<g color="rgb(57.6471%, 43.9216%, 85.8824%)">
<g transform="translate(20.9396, 57.2045)">
<text font-family="sans-serif" font-size="1.3859" text-anchor="start" fill="currentColor">
<tspan>m3</tspan>
</text>
</g>
</g>
<g transform="translate(23.4505, 50.7871)">
<rect x="-0.0551" y="-2.0633" width="0.1103" height="3.3133" ry="0.0308" fill="currentColor"/>
</g>
<g color="rgb(50.0000%, 50.0000%, 50.0000%)">
<g transform="translate(0.8953, 47.0221)">
<text font-family="sans-serif" font-size="1.2350" text-anchor="start" fill="currentColor">
<tspan>F Sharp Major Pentatonic</tspan>
</text>
</g>
</g>
<g transform="scale(1.0000, 1.0000)">
<g transform="translate(2.8953, 53.0371)">
<path stroke-width="0.0001" stroke-linejoin="round" stroke-linecap="round" stroke="currentColor" fill="currentColor" d="M1.0162 -0.5005C1.1901 -0.4580 1.3000 -0.3601 1.3267 -0.2237C1.3473 -0.1188 1.3091 0.0324 1.2347 0.1410C1.1037 0.3322 0.8787 0.4644 0.6176 0.5036C0.5244 0.5176 0.3659 0.5121 0.2884 0.4921C-0.0297 0.4098 -0.0964 0.0918 0.1475 -0.1799C0.2984 -0.3479 0.5439 -0.4756 0.7758 -0.5066C0.8400 -0.5151 0.9696 -0.5119 1.0162 -0.5005z"/>
</g>
</g>
<g transform="translate(4.1725, 50.7871)">
<rect x="-0.0551" y="-1.2500" width="0.1103" height="3.3133" ry="0.0308" fill="currentColor"/>
</g>
<g transform="scale(1.0000, 1.0000)">
<g transform="translate(6.9953, 52.2871)">
<path stroke-width="0.0001" stroke-linejoin="round" stroke-linecap="round" stroke="currentColor" fill="currentColor" d="M1.0162 -0.5005C1.1901 -0.4580 1.3000 -0.3601 1.3267 -0.2237C1.3473 -0.1188 1.3091 0.0324 1.2347 0.1410C1.1037 0.3322 0.8787 0.4644 0.6176 0.5036C0.5244 0.5176 0.3659 0.5121 0.2884 0.4921C-0.0297 0.4098 -0.0964 0.0918 0.1475 -0.1799C0.2984 -0.3479 0.5439 -0.4756 0.7758 -0.5066C0.8400 -0.5151 0.9696 -0.5119 1.0162 -0.5005z"/>
</g>
</g>
<g color="rgb(18.0392%, 54.5098%, 34.1176%)">
<g transform="translate(4.9467, 57.2045)">
<text font-family="sans-serif" font-size="1.3859" text-anchor="start" fill="currentColor">
<tspan>W</tspan>
</text>
</g>
</g>
<g transform="translate(8.2725, 50.7871)">
<rect x="-0.0551" y="-2.0000" width="0.1103" height="3.3133" ry="0.0308" fill="currentColor"/>
</g>
<g transform="translate(0.3953, 61.9151)">
<line stroke-linejoin="round" stroke-linecap="round" stroke-width="0.0848" stroke="currentColor" x1="0.0424" y1="0" x2="26.6899" y2="0"/>
</g>
<g transform="translate(0.3953, 63.4151)">
<line stroke-linejoin="round" stroke-linecap="round" stroke-width="0.0848" stroke="currentColor" x1="0.0424" y1="0" x2="26.6899" y2="0"/>
</g>
<g transform="translate(0.3953, 66.4151)">
<line stroke-linejoin="round" stroke-linecap="round" stroke-width="0.0848" stroke="currentColor" x1="0.0424" y1="0" x2="26.6899" y2="0"/>
</g>
<g transform="translate(0.3953, 67.9151)">
<line stroke-linejoin="round" stroke-linecap="round" stroke-width="0.0848" stroke="currentColor" x1="0.0424" y1="0" x2="26.6899" y2="0"/>
</g>
<g transform="translate(-3.9820, 64.9151)">
<rect x="14.4778" y="-0.0799" width="2.5313" height="0.1598" ry="0.0799" fill="currentColor"/>
</g>
<g transform="translate(-3.9820, 64.9151)">
<rect x="10.3778" y="-0.0799" width="2.5313" height="0.1598" ry="0.0799" fill="currentColor"/>
</g>
<g transform="scale(1.0000, 1.0000)">
<g transform="translate(11.0953, 64.9151)">
<path stroke-width="0.0001" stroke-linejoin="round" stroke-linecap="round" stroke="currentColor" fill="currentColor" d="M1.0162 -0.5005C1.1901 -0.4580 1.3000 -0.3601 1.3267 -0.2237C1.3473 -0.1188 1.3091 0.0324 1.2347 0.1410C1.1037 0.3322 0.8787 0.4644 0.6176 0.5036C0.5244 0.5176 0.3659 0.5121 0.2884 0.4921C-0.0297 0.4098 -0.0964 0.0918 0.1475 -0.1799C0.2984 -0.3479 0.5439 -0.4756 0.7758 -0.5066C0.8400 -0.5151 0.9696 -0.5119 1.0162 -0.5005z"/>
</g>
</g>
<g transform="translate(11.1505, 64.9151)">
<rect x="-0.0551" y="0.1867" width="0.1103" height="3.3133" ry="0.0308" fill="currentColor"/>
</g>
<g color="rgb(18.0392%, 54.5098%, 34.1176%)">
<g transform="translate(9.0467, 71.3325)">
<text font-family="sans-serif" font-size="1.3859" text-anchor="start" fill="currentColor">
<tspan>W</tspan>
</text>
</g>
</g>
<g transform="scale(1.0000, 1.0000)">
<g transform="translate(15.1953, 63.7901)">
<path stroke-width="0.0001" stroke-linejoin="round" stroke-linecap="round" stroke="currentColor" fill="currentColor" d="M1.0265 -0.4999C1.2152 -0.4618 1.3372 -0.3515 1.3549 -0.2025C1.3692 -0.0828 1.3124 0.0767 1.2094 0.2063C1.0774 0.3724 0.8892 0.4721 0.6459 0.5049C0.5851 0.5131 0.5489 0.5134 0.4433 0.5068C0.3289 0.4996 0.3088 0.4966 0.2606 0.4798C0.1181 0.4300 0.0248 0.3354 0.0042 0.2196C-0.0154 0.1092 0.0352 -0.0503 0.1321 -0.1828C0.2682 -0.3692 0.4766 -0.4818 0.7307 -0.5063C0.8236 -0.5152 0.9655 -0.5122 1.0265 -0.4999zM0.8920 -0.3272C0.8019 -0.3059 0.6744 -0.2509 0.5172 -0.1656C0.1997 0.0069 0.1097 0.0977 0.1513 0.2039C0.1688 0.2487 0.1917 0.2776 0.2265 0.2986C0.3097 0.3488 0.4220 0.3375 0.6348 0.2572C0.9775 0.1280 1.2160 -0.0339 1.2240 -0.1427C1.2287 -0.2070 1.1849 -0.2813 1.1220 -0.3156C1.0837 -0.3365 1.0773 -0.3379 1.0151 -0.3393C0.9699 -0.3403 0.9308 -0.3364 0.8920 -0.3272z"/>
</g>
</g>
<g color="rgb(57.6471%, 43.9216%, 85.8824%)">
<g transform="translate(12.7396, 71.3325)">
<text font-family="sans-serif" font-size="1.3859" text-anchor="start" fill="currentColor">
<tspan>m3</tspan>
</text>
</g>
</g>
<g transform="translate(15.2505, 64.9151)">
<rect x="-0.0551" y="-0.9383" width="0.1103" height="3.3133" ry="0.0308" fill="currentColor"/>
</g>
<g transform="scale(1.0000, 1.0000)">
<g transform="translate(19.2953, 63.0401)">
<path stroke-width="0.0001" stroke-linejoin="round" stroke-linecap="round" stroke="currentColor" fill="currentColor" d="M1.0265 -0.4999C1.2152 -0.4618 1.3372 -0.3515 1.3549 -0.2025C1.3692 -0.0828 1.3124 0.0767 1.2094 0.2063C1.0774 0.3724 0.8892 0.4721 0.6459 0.5049C0.5851 0.5131 0.5489 0.5134 0.4433 0.5068C0.3289 0.4996 0.3088 0.4966 0.2606 0.4798C0.1181 0.4300 0.0248 0.3354 0.0042 0.2196C-0.0154 0.1092 0.0352 -0.0503 0.1321 -0.1828C0.2682 -0.3692 0.4766 -0.4818 0.7307 -0.5063C0.8236 -0.5152 0.9655 -0.5122 1.0265 -0.4999zM0.8920 -0.3272C0.8019 -0.3059 0.6744 -0.2509 0.5172 -0.1656C0.1997 0.0069 0.1097 0.0977 0.1513 0.2039C0.1688 0.2487 0.1917 0.2776 0.2265 0.2986C0.3097 0.3488 0.4220 0.3375 0.6348 0.2572C0.9775 0.1280 1.2160 -0.0339 1.2240 -0.1427C1.2287 -0.2070 1.1849 -0.2813 1.1220 -0.3156C1.0837 -0.3365 1.0773 -0.3379 1.0151 -0.3393C0.9699 -0.3403 0.9308 -0.3364 0.8920 -0.3272z"/>
</g>
</g>
<g color="rgb(18.0392%, 54.5098%, 34.1176%)">
<g transform="translate(17.2467, 71.3325)">
<text font-family="sans-serif" font-size="1.3859" text-anchor="start" fill="currentColor">
<tspan>W</tspan>
</text>
</g>
</g>
<g transform="translate(19.3505, 64.9151)">
<rect x="-0.0551" y="-1.6883" width="0.1103" height="3.3133" ry="0.0308" fill="currentColor"/>
</g>
<g transform="scale(1.0000, 1.0000)">
<g transform="translate(23.3953, 61.9151)">
<path stroke-width="0.0001" stroke-linejoin="round" stroke-linecap="round" stroke="currentColor" fill="currentColor" d="M1.0162 -0.5005C1.1901 -0.4580 1.3000 -0.3601 1.3267 -0.2237C1.3473 -0.1188 1.3091 0.0324 1.2347 0.1410C1.1037 0.3322 0.8787 0.4644 0.6176 0.5036C0.5244 0.5176 0.3659 0.5121 0.2884 0.4921C-0.0297 0.4098 -0.0964 0.0918 0.1475 -0.1799C0.2984 -0.3479 0.5439 -0.4756 0.7758 -0.5066C0.8400 -0.5151 0.9696 -0.5119 1.0162 -0.5005z"/>
</g>
</g>
<g color="rgb(57.6471%, 43.9216%, 85.8824%)">
<g transform="translate(20.9396, 71.3325)">
<text font-family="sans-serif" font-size="1.3859" text-anchor="start" fill="currentColor">
<tspan>m3</tspan>
</text>
</g>
</g>
<g transform="translate(23.4505, 64.9151)">
<rect x="-0.0551" y="-2.8133" width="0.1103" height="3.3133" ry="0.0308" fill="currentColor"/>
</g>
<g color="rgb(50.0000%, 50.0000%, 50.0000%)">
<g transform="translate(0.8953, 61.1500)">
<text font-family="sans-serif" font-size="1.2350" text-anchor="start" fill="currentColor">
<tspan>G Sharp Major Pentatonic</tspan>
</text>
</g>
</g>
<g transform="scale(1.0000, 1.0000)">
<g transform="translate(2.8953, 66.4151)">
<path stroke-width="0.0001" stroke-linejoin="round" stroke-linecap="round" stroke="currentColor" fill="currentColor" d="M1.0162 -0.5005C1.1901 -0.4580 1.3000 -0.3601 1.3267 -0.2237C1.3473 -0.1188 1.3091 0.0324 1.2347 0.1410C1.1037 0.3322 0.8787 0.4644 0.6176 0.5036C0.5244 0.5176 0.3659 0.5121 0.2884 0.4921C-0.0297 0.4098 -0.0964 0.0918 0.1475 -0.1799C0.2984 -0.3479 0.5439 -0.4756 0.7758 -0.5066C0.8400 -0.5151 0.9696 -0.5119 1.0162 -0.5005z"/>
</g>
</g>
<g transform="translate(4.1725, 64.9151)">
<rect x="-0.0551" y="-2.0000" width="0.1103" height="3.3133" ry="0.0308" fill="currentColor"/>
</g>
<g transform="scale(1.0000, 1.0000)">
<g transform="translate(6.9953, 65.6651)">
<path stroke-width="0.0001" stroke-linejoin="round" stroke-linecap="round" stroke="currentColor" fill="currentColor" d="M1.0162 -0.5005C1.1901 -0.4580 1.3000 -0.3601 1.3267 -0.2237C1.3473 -0.1188 1.3091 0.0324 1.2347 0.1410C1.1037 0.3322 0.8787 0.4644 0.6176 0.5036C0.5244 0.5176 0.3659 0.5121 0.2884 0.4921C-0.0297 0.4098 -0.0964 0.0918 0.1475 -0.1799C0.2984 -0.3479 0.5439 -0.4756 0.7758 -0.5066C0.8400 -0.5151 0.9696 -0.5119 1.0162 -0.5005z"/>
</g>
</g>
<g color="rgb(18.0392%, 54.5098%, 34.1176%)">
<g transform="translate(4.9467, 71.3325)">
<text font-family="sans-serif" font-size="1.3859" text-anchor="start" fill="currentColor">
<tspan>W</tspan>
</text>
</g>
</g>
<g transform="translate(8.2725, 64.9151)">
<rect x="-0.0551" y="-2.7500" width="0.1103" height="3.3133" ry="0.0308" fill="currentColor"/>
</g>
<g transform="translate(0.3953, 76.0431)">
<line stroke-linejoin="round" stroke-linecap="round" stroke-width="0.0848" stroke="currentColor" x1="0.0424" y1="0" x2="26.6899" y2="0"/>
</g>
<g transform="translate(0.3953, 77.5431)">
<line stroke-linejoin="round" stroke-linecap="round" stroke-width="0.0848" stroke="currentColor" x1="0.0424" y1="0" x2="26.6899" y2="0"/>
</g>
<g transform="translate(0.3953, 80.5431)">
<line stroke-linejoin="round" stroke-linecap="round" stroke-width="0.0848" stroke="currentColor" x1="0.0424" y1="0" x2="26.6899" y2="0"/>
</g>
<g transform="translate(0.3953, 82.0431)">
<line stroke-linejoin="round" stroke-linecap="round" stroke-width="0.0848" stroke="currentColor" x1="0.0424" y1="0" x2="26.6899" y2="0"/>
</g>
<g transform="translate(-3.9820, 74.5431)">
<rect x="26.7778" y="-0.0799" width="2.5313" height="0.1598" ry="0.0799" fill="currentColor"/>
</g>
<g transform="translate(-3.9820, 79.0431)">
<rect x="14.4778" y="-0.0799" width="2.5313" height="0.1598" ry="0.0799" fill="currentColor"/>
</g>
<g transform="translate(-3.9820, 79.0431)">
<rect x="10.3778" y="-0.0799" width="2.5313" height="0.1598" ry="0.0799" fill="currentColor"/>
</g>
<g transform="translate(-3.9820, 79.0431)">
<rect x="6.2778" y="-0.0799" width="2.5313" height="0.1598" ry="0.0799" fill="currentColor"/>
</g>
<g transform="scale(1.0000, 1.0000)">
<g transform="translate(11.0953, 78.2931)">
<path stroke-width="0.0001" stroke-linejoin="round" stroke-linecap="round" stroke="currentColor" fill="currentColor" d="M1.0162 -0.5005C1.1901 -0.4580 1.3000 -0.3601 1.3267 -0.2237C1.3473 -0.1188 1.3091 0.0324 1.2347 0.1410C1.1037 0.3322 0.8787 0.4644 0.6176 0.5036C0.5244 0.5176 0.3659 0.5121 0.2884 0.4921C-0.0297 0.4098 -0.0964 0.0918 0.1475 -0.1799C0.2984 -0.3479 0.5439 -0.4756 0.7758 -0.5066C0.8400 -0.5151 0.9696 -0.5119 1.0162 -0.5005z"/>
</g>
</g>
<g transform="translate(11.1505, 79.0431)">
<rect x="-0.0551" y="-0.5633" width="0.1103" height="3.3133" ry="0.0308" fill="currentColor"/>
</g>
<g color="rgb(18.0392%, 54.5098%, 34.1176%)">
<g transform="translate(9.0467, 85.4605)">
<text font-family="sans-serif" font-size="1.3859" text-anchor="start" fill="currentColor">
<tspan>W</tspan>
</text>
</g>
</g>
<g transform="scale(1.0000, 1.0000)">
<g transform="translate(15.1953, 77.1681)">
<path stroke-width="0.0001" stroke-linejoin="round" stroke-linecap="round" stroke="currentColor" fill="currentColor" d="M1.0265 -0.4999C1.2152 -0.4618 1.3372 -0.3515 1.3549 -0.2025C1.3692 -0.0828 1.3124 0.0767 1.2094 0.2063C1.0774 0.3724 0.8892 0.4721 0.6459 0.5049C0.5851 0.5131 0.5489 0.5134 0.4433 0.5068C0.3289 0.4996 0.3088 0.4966 0.2606 0.4798C0.1181 0.4300 0.0248 0.3354 0.0042 0.2196C-0.0154 0.1092 0.0352 -0.0503 0.1321 -0.1828C0.2682 -0.3692 0.4766 -0.4818 0.7307 -0.5063C0.8236 -0.5152 0.9655 -0.5122 1.0265 -0.4999zM0.8920 -0.3272C0.8019 -0.3059 0.6744 -0.2509 0.5172 -0.1656C0.1997 0.0069 0.1097 0.0977 0.1513 0.2039C0.1688 0.2487 0.1917 0.2776 0.2265 0.2986C0.3097 0.3488 0.4220 0.3375 0.6348 0.2572C0.9775 0.1280 1.2160 -0.0339 1.2240 -0.1427C1.2287 -0.2070 1.1849 -0.2813 1.1220 -0.3156C1.0837 -0.3365 1.0773 -0.3379 1.0151 -0.3393C0.9699 -0.3403 0.9308 -0.3364 0.8920 -0.3272z"/>
</g>
</g>
<g color="rgb(57.6471%, 43.9216%, 85.8824%)">
<g transform="translate(12.7396, 85.4605)">
<text font-family="sans-serif" font-size="1.3859" text-anchor="start" fill="currentColor">
<tspan>m3</tspan>
</text>
</g>
</g>
<g transform="translate(15.2505, 79.0431)">
<rect x="-0.0551" y="-1.6883" width="0.1103" height="3.3133" ry="0.0308" fill="currentColor"/>
</g>
<g transform="scale(1.0000, 1.0000)">
<g transform="translate(19.2953, 76.4181)">
<path stroke-width="0.0001" stroke-linejoin="round" stroke-linecap="round" stroke="currentColor" fill="currentColor" d="M1.0265 -0.4999C1.2152 -0.4618 1.3372 -0.3515 1.3549 -0.2025C1.3692 -0.0828 1.3124 0.0767 1.2094 0.2063C1.0774 0.3724 0.8892 0.4721 0.6459 0.5049C0.5851 0.5131 0.5489 0.5134 0.4433 0.5068C0.3289 0.4996 0.3088 0.4966 0.2606 0.4798C0.1181 0.4300 0.0248 0.3354 0.0042 0.2196C-0.0154 0.1092 0.0352 -0.0503 0.1321 -0.1828C0.2682 -0.3692 0.4766 -0.4818 0.7307 -0.5063C0.8236 -0.5152 0.9655 -0.5122 1.0265 -0.4999zM0.8920 -0.3272C0.8019 -0.3059 0.6744 -0.2509 0.5172 -0.1656C0.1997 0.0069 0.1097 0.0977 0.1513 0.2039C0.1688 0.2487 0.1917 0.2776 0.2265 0.2986C0.3097 0.3488 0.4220 0.3375 0.6348 0.2572C0.9775 0.1280 1.2160 -0.0339 1.2240 -0.1427C1.2287 -0.2070 1.1849 -0.2813 1.1220 -0.3156C1.0837 -0.3365 1.0773 -0.3379 1.0151 -0.3393C0.9699 -0.3403 0.9308 -0.3364 0.8920 -0.3272z"/>
</g>
</g>
<g color="rgb(18.0392%, 54.5098%, 34.1176%)">
<g transform="translate(17.2467, 85.4605)">
<text font-family="sans-serif" font-size="1.3859" text-anchor="start" fill="currentColor">
<tspan>W</tspan>
</text>
</g>
</g>
<g transform="translate(19.3505, 79.0431)">
<rect x="-0.0551" y="-2.4383" width="0.1103" height="3.3133" ry="0.0308" fill="currentColor"/>
</g>
<g transform="scale(1.0000, 1.0000)">
<g transform="translate(23.3953, 75.2931)">
<path stroke-width="0.0001" stroke-linejoin="round" stroke-linecap="round" stroke="currentColor" fill="currentColor" d="M1.0162 -0.5005C1.1901 -0.4580 1.3000 -0.3601 1.3267 -0.2237C1.3473 -0.1188 1.3091 0.0324 1.2347 0.1410C1.1037 0.3322 0.8787 0.4644 0.6176 0.5036C0.5244 0.5176 0.3659 0.5121 0.2884 0.4921C-0.0297 0.4098 -0.0964 0.0918 0.1475 -0.1799C0.2984 -0.3479 0.5439 -0.4756 0.7758 -0.5066C0.8400 -0.5151 0.9696 -0.5119 1.0162 -0.5005z"/>
</g>
</g>
<g color="rgb(57.6471%, 43.9216%, 85.8824%)">
<g transform="translate(20.9396, 85.4605)">
<text font-family="sans-serif" font-size="1.3859" text-anchor="start" fill="currentColor">
<tspan>m3</tspan>
</text>
</g>
</g>
<g transform="translate(23.4505, 79.0431)">
<rect x="-0.0551" y="-3.5633" width="0.1103" height="3.3133" ry="0.0308" fill="currentColor"/>
</g>
<g color="rgb(50.0000%, 50.0000%, 50.0000%)">
<g transform="translate(0.8953, 75.2780)">
<text font-family="sans-serif" font-size="1.2350" text-anchor="start" fill="currentColor">
<tspan>B Flat Major Pentatonic</tspan>
</text>
</g>
</g>
<g transform="scale(1.0000, 1.0000)">
<g transform="translate(2.8953, 79.7931)">
<path stroke-width="0.0001" stroke-linejoin="round" stroke-linecap="round" stroke="currentColor" fill="currentColor" d="M1.0162 -0.5005C1.1901 -0.4580 1.3000 -0.3601 1.3267 -0.2237C1.3473 -0.1188 1.3091 0.0324 1.2347 0.1410C1.1037 0.3322 0.8787 0.4644 0.6176 0.5036C0.5244 0.5176 0.3659 0.5121 0.2884 0.4921C-0.0297 0.4098 -0.0964 0.0918 0.1475 -0.1799C0.2984 -0.3479 0.5439 -0.4756 0.7758 -0.5066C0.8400 -0.5151 0.9696 -0.5119 1.0162 -0.5005z"/>
</g>
</g>
<g transform="translate(4.1725, 79.0431)">
<rect x="-0.0551" y="-2.7500" width="0.1103" height="3.3133" ry="0.0308" fill="currentColor"/>
</g>
<g transform="scale(1.0000, 1.0000)">
<g transform="translate(6.9953, 79.0431)">
<path stroke-width="0.0001" stroke-linejoin="round" stroke-linecap="round" stroke="currentColor" fill="currentColor" d="M1.0162 -0.5005C1.1901 -0.4580 1.3000 -0.3601 1.3267 -0.2237C1.3473 -0.1188 1.3091 0.0324 1.2347 0.1410C1.1037 0.3322 0.8787 0.4644 0.6176 0.5036C0.5244 0.5176 0.3659 0.5121 0.2884 0.4921C-0.0297 0.4098 -0.0964 0.0918 0.1475 -0.1799C0.2984 -0.3479 0.5439 -0.4756 0.7758 -0.5066C0.8400 -0.5151 0.9696 -0.5119 1.0162 -0.5005z"/>
</g>
</g>
<g color="rgb(18.0392%, 54.5098%, 34.1176%)">
<g transform="translate(4.9467, 85.4605)">
<text font-family="sans-serif" font-size="1.3859" text-anchor="start" fill="currentColor">
<tspan>W</tspan>
</text>
</g>
</g>
<g transform="translate(7.0505, 79.0431)">
<rect x="-0.0551" y="0.1867" width="0.1103" height="3.3133" ry="0.0308" fill="currentColor"/>
</g>
<g transform="translate(31.0663, 2.9032)">
<line stroke-linejoin="round" stroke-linecap="round" stroke-width="0.0848" stroke="currentColor" x1="0.0424" y1="0" x2="26.7147" y2="0"/>
</g>
<g transform="translate(31.0663, 4.4032)">
<line stroke-linejoin="round" stroke-linecap="round" stroke-width="0.0848" stroke="currentColor" x1="0.0424" y1="0" x2="26.7147" y2="0"/>
</g>
<g transform="translate(31.0663, 7.4032)">
<line stroke-linejoin="round" stroke-linecap="round" stroke-width="0.0848" stroke="currentColor" x1="0.0424" y1="0" x2="26.7147" y2="0"/>
</g>
<g transform="translate(31.0663, 8.9032)">
<line stroke-linejoin="round" stroke-linecap="round" stroke-width="0.0848" stroke="currentColor" x1="0.0424" y1="0" x2="26.7147" y2="0"/>
</g>
<g transform="translate(26.6889, 5.9032)">
<rect x="26.7666" y="-0.0799" width="2.5786" height="0.1598" ry="0.0799" fill="currentColor"/>
</g>
<g transform="translate(26.6889, 5.9032)">
<rect x="22.6778" y="-0.0799" width="2.5313" height="0.1598" ry="0.0799" fill="currentColor"/>
</g>
<g transform="translate(26.6889, 10.4032)">
<rect x="6.2666" y="-0.0799" width="2.5786" height="0.1598" ry="0.0799" fill="currentColor"/>
</g>
<g transform="scale(1.0000, 1.0000)">
<g transform="translate(41.7663, 8.5282)">
<path stroke-width="0.0001" stroke-linejoin="round" stroke-linecap="round" stroke="currentColor" fill="currentColor" d="M1.0265 -0.4999C1.2152 -0.4618 1.3372 -0.3515 1.3549 -0.2025C1.3692 -0.0828 1.3124 0.0767 1.2094 0.2063C1.0774 0.3724 0.8892 0.4721 0.6459 0.5049C0.5851 0.5131 0.5489 0.5134 0.4433 0.5068C0.3289 0.4996 0.3088 0.4966 0.2606 0.4798C0.1181 0.4300 0.0248 0.3354 0.0042 0.2196C-0.0154 0.1092 0.0352 -0.0503 0.1321 -0.1828C0.2682 -0.3692 0.4766 -0.4818 0.7307 -0.5063C0.8236 -0.5152 0.9655 -0.5122 1.0265 -0.4999zM0.8920 -0.3272C0.8019 -0.3059 0.6744 -0.2509 0.5172 -0.1656C0.1997 0.0069 0.1097 0.0977 0.1513 0.2039C0.1688 0.2487 0.1917 0.2776 0.2265 0.2986C0.3097 0.3488 0.4220 0.3375 0.6348 0.2572C0.9775 0.1280 1.2160 -0.0339 1.2240 -0.1427C1.2287 -0.2070 1.1849 -0.2813 1.1220 -0.3156C1.0837 -0.3365 1.0773 -0.3379 1.0151 -0.3393C0.9699 -0.3403 0.9308 -0.3364 0.8920 -0.3272z"/>
</g>
</g>
<g transform="translate(43.0683, 5.9032)">
<rect x="-0.0551" y="-0.8750" width="0.1103" height="3.3133" ry="0.0308" fill="currentColor"/>
</g>
<g color="rgb(18.0392%, 54.5098%, 34.1176%)">
<g transform="translate(39.7177, 13.8206)">
<text font-family="sans-serif" font-size="1.3859" text-anchor="start" fill="currentColor">
<tspan>W</tspan>
</text>
</g>
</g>
<g transform="scale(1.0000, 1.0000)">
<g transform="translate(45.8663, 7.4032)">
<path stroke-width="0.0001" stroke-linejoin="round" stroke-linecap="round" stroke="currentColor" fill="currentColor" d="M1.0162 -0.5005C1.1901 -0.4580 1.3000 -0.3601 1.3267 -0.2237C1.3473 -0.1188 1.3091 0.0324 1.2347 0.1410C1.1037 0.3322 0.8787 0.4644 0.6176 0.5036C0.5244 0.5176 0.3659 0.5121 0.2884 0.4921C-0.0297 0.4098 -0.0964 0.0918 0.1475 -0.1799C0.2984 -0.3479 0.5439 -0.4756 0.7758 -0.5066C0.8400 -0.5151 0.9696 -0.5119 1.0162 -0.5005z"/>
</g>
</g>
<g color="rgb(57.6471%, 43.9216%, 85.8824%)">
<g transform="translate(43.4106, 13.8206)">
<text font-family="sans-serif" font-size="1.3859" text-anchor="start" fill="currentColor">
<tspan>m3</tspan>
</text>
</g>
</g>
<g transform="translate(47.1434, 5.9032)">
<rect x="-0.0551" y="-2.0000" width="0.1103" height="3.3133" ry="0.0308" fill="currentColor"/>
</g>
<g transform="scale(1.0000, 1.0000)">
<g transform="translate(49.9663, 6.6532)">
<path stroke-width="0.0001" stroke-linejoin="round" stroke-linecap="round" stroke="currentColor" fill="currentColor" d="M1.0162 -0.5005C1.1901 -0.4580 1.3000 -0.3601 1.3267 -0.2237C1.3473 -0.1188 1.3091 0.0324 1.2347 0.1410C1.1037 0.3322 0.8787 0.4644 0.6176 0.5036C0.5244 0.5176 0.3659 0.5121 0.2884 0.4921C-0.0297 0.4098 -0.0964 0.0918 0.1475 -0.1799C0.2984 -0.3479 0.5439 -0.4756 0.7758 -0.5066C0.8400 -0.5151 0.9696 -0.5119 1.0162 -0.5005z"/>
</g>
</g>
<g color="rgb(18.0392%, 54.5098%, 34.1176%)">
<g transform="translate(47.9177, 13.8206)">
<text font-family="sans-serif" font-size="1.3859" text-anchor="start" fill="currentColor">
<tspan>W</tspan>
</text>
</g>
</g>
<g transform="translate(51.2434, 5.9032)">
<rect x="-0.0551" y="-2.7500" width="0.1103" height="3.3133" ry="0.0308" fill="currentColor"/>
</g>
<g transform="scale(1.0000, 1.0000)">
<g transform="translate(54.0663, 5.5282)">
<path stroke-width="0.0001" stroke-linejoin="round" stroke-linecap="round" stroke="currentColor" fill="currentColor" d="M1.0265 -0.4999C1.2152 -0.4618 1.3372 -0.3515 1.3549 -0.2025C1.3692 -0.0828 1.3124 0.0767 1.2094 0.2063C1.0774 0.3724 0.8892 0.4721 0.6459 0.5049C0.5851 0.5131 0.5489 0.5134 0.4433 0.5068C0.3289 0.4996 0.3088 0.4966 0.2606 0.4798C0.1181 0.4300 0.0248 0.3354 0.0042 0.2196C-0.0154 0.1092 0.0352 -0.0503 0.1321 -0.1828C0.2682 -0.3692 0.4766 -0.4818 0.7307 -0.5063C0.8236 -0.5152 0.9655 -0.5122 1.0265 -0.4999zM0.8920 -0.3272C0.8019 -0.3059 0.6744 -0.2509 0.5172 -0.1656C0.1997 0.0069 0.1097 0.0977 0.1513 0.2039C0.1688 0.2487 0.1917 0.2776 0.2265 0.2986C0.3097 0.3488 0.4220 0.3375 0.6348 0.2572C0.9775 0.1280 1.2160 -0.0339 1.2240 -0.1427C1.2287 -0.2070 1.1849 -0.2813 1.1220 -0.3156C1.0837 -0.3365 1.0773 -0.3379 1.0151 -0.3393C0.9699 -0.3403 0.9308 -0.3364 0.8920 -0.3272z"/>
</g>
</g>
<g color="rgb(57.6471%, 43.9216%, 85.8824%)">
<g transform="translate(51.6106, 13.8206)">
<text font-family="sans-serif" font-size="1.3859" text-anchor="start" fill="currentColor">
<tspan>m3</tspan>
</text>
</g>
</g>
<g transform="translate(54.1214, 5.9032)">
<rect x="-0.0551" y="-0.1883" width="0.1103" height="3.3133" ry="0.0308" fill="currentColor"/>
</g>
<g color="rgb(50.0000%, 50.0000%, 50.0000%)">
<g transform="translate(31.5663, 2.1381)">
<text font-family="sans-serif" font-size="1.2350" text-anchor="start" fill="currentColor">
<tspan>C Sharp Major Pentatonic</tspan>
</text>
</g>
</g>
<g transform="scale(1.0000, 1.0000)">
<g transform="translate(33.5663, 10.0282)">
<path stroke-width="0.0001" stroke-linejoin="round" stroke-linecap="round" stroke="currentColor" fill="currentColor" d="M1.0265 -0.4999C1.2152 -0.4618 1.3372 -0.3515 1.3549 -0.2025C1.3692 -0.0828 1.3124 0.0767 1.2094 0.2063C1.0774 0.3724 0.8892 0.4721 0.6459 0.5049C0.5851 0.5131 0.5489 0.5134 0.4433 0.5068C0.3289 0.4996 0.3088 0.4966 0.2606 0.4798C0.1181 0.4300 0.0248 0.3354 0.0042 0.2196C-0.0154 0.1092 0.0352 -0.0503 0.1321 -0.1828C0.2682 -0.3692 0.4766 -0.4818 0.7307 -0.5063C0.8236 -0.5152 0.9655 -0.5122 1.0265 -0.4999zM0.8920 -0.3272C0.8019 -0.3059 0.6744 -0.2509 0.5172 -0.1656C0.1997 0.0069 0.1097 0.0977 0.1513 0.2039C0.1688 0.2487 0.1917 0.2776 0.2265 0.2986C0.3097 0.3488 0.4220 0.3375 0.6348 0.2572C0.9775 0.1280 1.2160 -0.0339 1.2240 -0.1427C1.2287 -0.2070 1.1849 -0.2813 1.1220 -0.3156C1.0837 -0.3365 1.0773 -0.3379 1.0151 -0.3393C0.9699 -0.3403 0.9308 -0.3364 0.8920 -0.3272z"/>
</g>
</g>
<g transform="translate(34.8683, 5.9032)">
<rect x="-0.0551" y="0.6250" width="0.1103" height="3.3133" ry="0.0308" fill="currentColor"/>
</g>
<g transform="scale(1.0000, 1.0000)">
<g transform="translate(37.6663, 9.2782)">
<path stroke-width="0.0001" stroke-linejoin="round" stroke-linecap="round" stroke="currentColor" fill="currentColor" d="M1.0265 -0.4999C1.2152 -0.4618 1.3372 -0.3515 1.3549 -0.2025C1.3692 -0.0828 1.3124 0.0767 1.2094 0.2063C1.0774 0.3724 0.8892 0.4721 0.6459 0.5049C0.5851 0.5131 0.5489 0.5134 0.4433 0.5068C0.3289 0.4996 0.3088 0.4966 0.2606 0.4798C0.1181 0.4300 0.0248 0.3354 0.0042 0.2196C-0.0154 0.1092 0.0352 -0.0503 0.1321 -0.1828C0.2682 -0.3692 0.4766 -0.4818 0.7307 -0.5063C0.8236 -0.5152 0.9655 -0.5122 1.0265 -0.4999zM0.8920 -0.3272C0.8019 -0.3059 0.6744 -0.2509 0.5172 -0.1656C0.1997 0.0069 0.1097 0.0977 0.1513 0.2039C0.1688 0.2487 0.1917 0.2776 0.2265 0.2986C0.3097 0.3488 0.4220 0.3375 0.6348 0.2572C0.9775 0.1280 1.2160 -0.0339 1.2240 -0.1427C1.2287 -0.2070 1.1849 -0.2813 1.1220 -0.3156C1.0837 -0.3365 1.0773 -0.3379 1.0151 -0.3393C0.9699 -0.3403 0.9308 -0.3364 0.8920 -0.3272z"/>
</g>
</g>
<g color="rgb(18.0392%, 54.5098%, 34.1176%)">
<g transform="translate(35.6177, 13.8206)">
<text font-family="sans-serif" font-size="1.3859" text-anchor="start" fill="currentColor">
<tspan>W</tspan>
</text>
</g>
</g>
<g transform="translate(38.9683, 5.9032)">
<rect x="-0.0551" y="-0.1250" width="0.1103" height="3.3133" ry="0.0308" fill="currentColor"/>
</g>
<g transform="translate(31.0663, 18.5312)">
<line stroke-linejoin="round" stroke-linecap="round" stroke-width="0.0848" stroke="currentColor" x1="0.0424" y1="0" x2="26.7147" y2="0"/>
</g>
<g transform="translate(31.0663, 20.0312)">
<line stroke-linejoin="round" stroke-linecap="round" stroke-width="0.0848" stroke="currentColor" x1="0.0424" y1="0" x2="26.7147" y2="0"/>
</g>
<g transform="translate(31.0663, 23.0312)">
<line stroke-linejoin="round" stroke-linecap="round" stroke-width="0.0848" stroke="currentColor" x1="0.0424" y1="0" x2="26.7147" y2="0"/>
</g>
<g transform="translate(31.0663, 24.5312)">
<line stroke-linejoin="round" stroke-linecap="round" stroke-width="0.0848" stroke="currentColor" x1="0.0424" y1="0" x2="26.7147" y2="0"/>
</g>
<g transform="translate(26.6889, 21.5312)">
<rect x="22.6778" y="-0.0799" width="2.5313" height="0.1598" ry="0.0799" fill="currentColor"/>
</g>
<g transform="translate(26.6889, 21.5312)">
<rect x="18.5778" y="-0.0799" width="2.5313" height="0.1598" ry="0.0799" fill="currentColor"/>
</g>
<g transform="scale(1.0000, 1.0000)">
<g transform="translate(41.7663, 23.4062)">
<path stroke-width="0.0001" stroke-linejoin="round" stroke-linecap="round" stroke="currentColor" fill="currentColor" d="M1.0265 -0.4999C1.2152 -0.4618 1.3372 -0.3515 1.3549 -0.2025C1.3692 -0.0828 1.3124 0.0767 1.2094 0.2063C1.0774 0.3724 0.8892 0.4721 0.6459 0.5049C0.5851 0.5131 0.5489 0.5134 0.4433 0.5068C0.3289 0.4996 0.3088 0.4966 0.2606 0.4798C0.1181 0.4300 0.0248 0.3354 0.0042 0.2196C-0.0154 0.1092 0.0352 -0.0503 0.1321 -0.1828C0.2682 -0.3692 0.4766 -0.4818 0.7307 -0.5063C0.8236 -0.5152 0.9655 -0.5122 1.0265 -0.4999zM0.8920 -0.3272C0.8019 -0.3059 0.6744 -0.2509 0.5172 -0.1656C0.1997 0.0069 0.1097 0.0977 0.1513 0.2039C0.1688 0.2487 0.1917 0.2776 0.2265 0.2986C0.3097 0.3488 0.4220 0.3375 0.6348 0.2572C0.9775 0.1280 1.2160 -0.0339 1.2240 -0.1427C1.2287 -0.2070 1.1849 -0.2813 1.1220 -0.3156C1.0837 -0.3365 1.0773 -0.3379 1.0151 -0.3393C0.9699 -0.3403 0.9308 -0.3364 0.8920 -0.3272z"/>
</g>
</g>
<g transform="translate(43.0683, 21.5312)">
<rect x="-0.0551" y="-1.6250" width="0.1103" height="3.3133" ry="0.0308" fill="currentColor"/>
</g>
<g color="rgb(18.0392%, 54.5098%, 34.1176%)">
<g transform="translate(39.7177, 28.9486)">
<text font-family="sans-serif" font-size="1.3859" text-anchor="start" fill="currentColor">
<tspan>W</tspan>
</text>
</g>
</g>
<g transform="scale(1.0000, 1.0000)">
<g transform="translate(45.8663, 22.2812)">
<path stroke-width="0.0001" stroke-linejoin="round" stroke-linecap="round" stroke="currentColor" fill="currentColor" d="M1.0162 -0.5005C1.1901 -0.4580 1.3000 -0.3601 1.3267 -0.2237C1.3473 -0.1188 1.3091 0.0324 1.2347 0.1410C1.1037 0.3322 0.8787 0.4644 0.6176 0.5036C0.5244 0.5176 0.3659 0.5121 0.2884 0.4921C-0.0297 0.4098 -0.0964 0.0918 0.1475 -0.1799C0.2984 -0.3479 0.5439 -0.4756 0.7758 -0.5066C0.8400 -0.5151 0.9696 -0.5119 1.0162 -0.5005z"/>
</g>
</g>
<g color="rgb(57.6471%, 43.9216%, 85.8824%)">
<g transform="translate(43.4106, 28.9486)">
<text font-family="sans-serif" font-size="1.3859" text-anchor="start" fill="currentColor">
<tspan>m3</tspan>
</text>
</g>
</g>
<g transform="translate(47.1434, 21.5312)">
<rect x="-0.0551" y="-2.7500" width="0.1103" height="3.3133" ry="0.0308" fill="currentColor"/>
</g>
<g transform="scale(1.0000, 1.0000)">
<g transform="translate(49.9663, 21.5312)">
<path stroke-width="0.0001" stroke-linejoin="round" stroke-linecap="round" stroke="currentColor" fill="currentColor" d="M1.0162 -0.5005C1.1901 -0.4580 1.3000 -0.3601 1.3267 -0.2237C1.3473 -0.1188 1.3091 0.0324 1.2347 0.1410C1.1037 0.3322 0.8787 0.4644 0.6176 0.5036C0.5244 0.5176 0.3659 0.5121 0.2884 0.4921C-0.0297 0.4098 -0.0964 0.0918 0.1475 -0.1799C0.2984 -0.3479 0.5439 -0.4756 0.7758 -0.5066C0.8400 -0.5151 0.9696 -0.5119 1.0162 -0.5005z"/>
</g>
</g>
<g color="rgb(18.0392%, 54.5098%, 34.1176%)">
<g transform="translate(47.9177, 28.9486)">
<text font-family="sans-serif" font-size="1.3859" text-anchor="start" fill="currentColor">
<tspan>W</tspan>
</text>
</g>
</g>
<g transform="translate(50.0214, 21.5312)">
<rect x="-0.0551" y="0.1867" width="0.1103" height="3.3133" ry="0.0308" fill="currentColor"/>
</g>
<g transform="scale(1.0000, 1.0000)">
<g transform="translate(54.0663, 20.4062)">
<path stroke-width="0.0001" stroke-linejoin="round" stroke-linecap="round" stroke="currentColor" fill="currentColor" d="M1.0265 -0.4999C1.2152 -0.4618 1.3372 -0.3515 1.3549 -0.2025C1.3692 -0.0828 1.3124 0.0767 1.2094 0.2063C1.0774 0.3724 0.8892 0.4721 0.6459 0.5049C0.5851 0.5131 0.5489 0.5134 0.4433 0.5068C0.3289 0.4996 0.3088 0.4966 0.2606 0.4798C0.1181 0.4300 0.0248 0.3354 0.0042 0.2196C-0.0154 0.1092 0.0352 -0.0503 0.1321 -0.1828C0.2682 -0.3692 0.4766 -0.4818 0.7307 -0.5063C0.8236 -0.5152 0.9655 -0.5122 1.0265 -0.4999zM0.8920 -0.3272C0.8019 -0.3059 0.6744 -0.2509 0.5172 -0.1656C0.1997 0.0069 0.1097 0.0977 0.1513 0.2039C0.1688 0.2487 0.1917 0.2776 0.2265 0.2986C0.3097 0.3488 0.4220 0.3375 0.6348 0.2572C0.9775 0.1280 1.2160 -0.0339 1.2240 -0.1427C1.2287 -0.2070 1.1849 -0.2813 1.1220 -0.3156C1.0837 -0.3365 1.0773 -0.3379 1.0151 -0.3393C0.9699 -0.3403 0.9308 -0.3364 0.8920 -0.3272z"/>
</g>
</g>
<g color="rgb(57.6471%, 43.9216%, 85.8824%)">
<g transform="translate(51.6106, 28.9486)">
<text font-family="sans-serif" font-size="1.3859" text-anchor="start" fill="currentColor">
<tspan>m3</tspan>
</text>
</g>
</g>
<g transform="translate(54.1214, 21.5312)">
<rect x="-0.0551" y="-0.9383" width="0.1103" height="3.3133" ry="0.0308" fill="currentColor"/>
</g>
<g color="rgb(50.0000%, 50.0000%, 50.0000%)">
<g transform="translate(31.5663, 17.7661)">
<text font-family="sans-serif" font-size="1.2350" text-anchor="start" fill="currentColor">
<tspan>E Flat Major Pentatonic</tspan>
</text>
</g>
</g>
<g transform="scale(1.0000, 1.0000)">
<g transform="translate(33.5663, 24.9062)">
<path stroke-width="0.0001" stroke-linejoin="round" stroke-linecap="round" stroke="currentColor" fill="currentColor" d="M1.0265 -0.4999C1.2152 -0.4618 1.3372 -0.3515 1.3549 -0.2025C1.3692 -0.0828 1.3124 0.0767 1.2094 0.2063C1.0774 0.3724 0.8892 0.4721 0.6459 0.5049C0.5851 0.5131 0.5489 0.5134 0.4433 0.5068C0.3289 0.4996 0.3088 0.4966 0.2606 0.4798C0.1181 0.4300 0.0248 0.3354 0.0042 0.2196C-0.0154 0.1092 0.0352 -0.0503 0.1321 -0.1828C0.2682 -0.3692 0.4766 -0.4818 0.7307 -0.5063C0.8236 -0.5152 0.9655 -0.5122 1.0265 -0.4999zM0.8920 -0.3272C0.8019 -0.3059 0.6744 -0.2509 0.5172 -0.1656C0.1997 0.0069 0.1097 0.0977 0.1513 0.2039C0.1688 0.2487 0.1917 0.2776 0.2265 0.2986C0.3097 0.3488 0.4220 0.3375 0.6348 0.2572C0.9775 0.1280 1.2160 -0.0339 1.2240 -0.1427C1.2287 -0.2070 1.1849 -0.2813 1.1220 -0.3156C1.0837 -0.3365 1.0773 -0.3379 1.0151 -0.3393C0.9699 -0.3403 0.9308 -0.3364 0.8920 -0.3272z"/>
</g>
</g>
<g transform="translate(34.8683, 21.5312)">
<rect x="-0.0551" y="-0.1250" width="0.1103" height="3.3133" ry="0.0308" fill="currentColor"/>
</g>
<g transform="scale(1.0000, 1.0000)">
<g transform="translate(37.6663, 24.1562)">
<path stroke-width="0.0001" stroke-linejoin="round" stroke-linecap="round" stroke="currentColor" fill="currentColor" d="M1.0265 -0.4999C1.2152 -0.4618 1.3372 -0.3515 1.3549 -0.2025C1.3692 -0.0828 1.3124 0.0767 1.2094 0.2063C1.0774 0.3724 0.8892 0.4721 0.6459 0.5049C0.5851 0.5131 0.5489 0.5134 0.4433 0.5068C0.3289 0.4996 0.3088 0.4966 0.2606 0.4798C0.1181 0.4300 0.0248 0.3354 0.0042 0.2196C-0.0154 0.1092 0.0352 -0.0503 0.1321 -0.1828C0.2682 -0.3692 0.4766 -0.4818 0.7307 -0.5063C0.8236 -0.5152 0.9655 -0.5122 1.0265 -0.4999zM0.8920 -0.3272C0.8019 -0.3059 0.6744 -0.2509 0.5172 -0.1656C0.1997 0.0069 0.1097 0.0977 0.1513 0.2039C0.1688 0.2487 0.1917 0.2776 0.2265 0.2986C0.3097 0.3488 0.4220 0.3375 0.6348 0.2572C0.9775 0.1280 1.2160 -0.0339 1.2240 -0.1427C1.2287 -0.2070 1.1849 -0.2813 1.1220 -0.3156C1.0837 -0.3365 1.0773 -0.3379 1.0151 -0.3393C0.9699 -0.3403 0.9308 -0.3364 0.8920 -0.3272z"/>
</g>
</g>
<g color="rgb(18.0392%, 54.5098%, 34.1176%)">
<g transform="translate(35.6177, 28.9486)">
<text font-family="sans-serif" font-size="1.3859" text-anchor="start" fill="currentColor">
<tspan>W</tspan>
</text>
</g>
</g>
<g transform="translate(38.9683, 21.5312)">
<rect x="-0.0551" y="-0.8750" width="0.1103" height="3.3133" ry="0.0308" fill="currentColor"/>
</g>
<g transform="translate(31.0663, 33.6591)">
<line stroke-linejoin="round" stroke-linecap="round" stroke-width="0.0848" stroke="currentColor" x1="0.0424" y1="0" x2="26.7147" y2="0"/>
</g>
<g transform="translate(31.0663, 35.1591)">
<line stroke-linejoin="round" stroke-linecap="round" stroke-width="0.0848" stroke="currentColor" x1="0.0424" y1="0" x2="26.7147" y2="0"/>
</g>
<g transform="translate(31.0663, 38.1591)">
<line stroke-linejoin="round" stroke-linecap="round" stroke-width="0.0848" stroke="currentColor" x1="0.0424" y1="0" x2="26.7147" y2="0"/>
</g>
<g transform="translate(31.0663, 39.6591)">
<line stroke-linejoin="round" stroke-linecap="round" stroke-width="0.0848" stroke="currentColor" x1="0.0424" y1="0" x2="26.7147" y2="0"/>
</g>
<g transform="translate(26.6889, 36.6591)">
<rect x="22.6778" y="-0.0799" width="2.5313" height="0.1598" ry="0.0799" fill="currentColor"/>
</g>
<g transform="translate(26.6889, 36.6591)">
<rect x="18.5778" y="-0.0799" width="2.5313" height="0.1598" ry="0.0799" fill="currentColor"/>
</g>
<g transform="scale(1.0000, 1.0000)">
<g transform="translate(41.7663, 37.7841)">
<path stroke-width="0.0001" stroke-linejoin="round" stroke-linecap="round" stroke="currentColor" fill="currentColor" d="M1.0265 -0.4999C1.2152 -0.4618 1.3372 -0.3515 1.3549 -0.2025C1.3692 -0.0828 1.3124 0.0767 1.2094 0.2063C1.0774 0.3724 0.8892 0.4721 0.6459 0.5049C0.5851 0.5131 0.5489 0.5134 0.4433 0.5068C0.3289 0.4996 0.3088 0.4966 0.2606 0.4798C0.1181 0.4300 0.0248 0.3354 0.0042 0.2196C-0.0154 0.1092 0.0352 -0.0503 0.1321 -0.1828C0.2682 -0.3692 0.4766 -0.4818 0.7307 -0.5063C0.8236 -0.5152 0.9655 -0.5122 1.0265 -0.4999zM0.8920 -0.3272C0.8019 -0.3059 0.6744 -0.2509 0.5172 -0.1656C0.1997 0.0069 0.1097 0.0977 0.1513 0.2039C0.1688 0.2487 0.1917 0.2776 0.2265 0.2986C0.3097 0.3488 0.4220 0.3375 0.6348 0.2572C0.9775 0.1280 1.2160 -0.0339 1.2240 -0.1427C1.2287 -0.2070 1.1849 -0.2813 1.1220 -0.3156C1.0837 -0.3365 1.0773 -0.3379 1.0151 -0.3393C0.9699 -0.3403 0.9308 -0.3364 0.8920 -0.3272z"/>
</g>
</g>
<g transform="translate(43.0683, 36.6591)">
<rect x="-0.0551" y="-2.3750" width="0.1103" height="3.3133" ry="0.0308" fill="currentColor"/>
</g>
<g color="rgb(18.0392%, 54.5098%, 34.1176%)">
<g transform="translate(39.7177, 43.0766)">
<text font-family="sans-serif" font-size="1.3859" text-anchor="start" fill="currentColor">
<tspan>W</tspan>
</text>
</g>
</g>
<g transform="scale(1.0000, 1.0000)">
<g transform="translate(45.8663, 36.6591)">
<path stroke-width="0.0001" stroke-linejoin="round" stroke-linecap="round" stroke="currentColor" fill="currentColor" d="M1.0162 -0.5005C1.1901 -0.4580 1.3000 -0.3601 1.3267 -0.2237C1.3473 -0.1188 1.3091 0.0324 1.2347 0.1410C1.1037 0.3322 0.8787 0.4644 0.6176 0.5036C0.5244 0.5176 0.3659 0.5121 0.2884 0.4921C-0.0297 0.4098 -0.0964 0.0918 0.1475 -0.1799C0.2984 -0.3479 0.5439 -0.4756 0.7758 -0.5066C0.8400 -0.5151 0.9696 -0.5119 1.0162 -0.5005z"/>
</g>
</g>
<g color="rgb(57.6471%, 43.9216%, 85.8824%)">
<g transform="translate(43.4106, 43.0766)">
<text font-family="sans-serif" font-size="1.3859" text-anchor="start" fill="currentColor">
<tspan>m3</tspan>
</text>
</g>
</g>
<g transform="translate(45.9214, 36.6591)">
<rect x="-0.0551" y="0.1867" width="0.1103" height="3.3133" ry="0.0308" fill="currentColor"/>
</g>
<g transform="scale(1.0000, 1.0000)">
<g transform="translate(49.9663, 35.9091)">
<path stroke-width="0.0001" stroke-linejoin="round" stroke-linecap="round" stroke="currentColor" fill="currentColor" d="M1.0162 -0.5005C1.1901 -0.4580 1.3000 -0.3601 1.3267 -0.2237C1.3473 -0.1188 1.3091 0.0324 1.2347 0.1410C1.1037 0.3322 0.8787 0.4644 0.6176 0.5036C0.5244 0.5176 0.3659 0.5121 0.2884 0.4921C-0.0297 0.4098 -0.0964 0.0918 0.1475 -0.1799C0.2984 -0.3479 0.5439 -0.4756 0.7758 -0.5066C0.8400 -0.5151 0.9696 -0.5119 1.0162 -0.5005z"/>
</g>
</g>
<g color="rgb(18.0392%, 54.5098%, 34.1176%)">
<g transform="translate(47.9177, 43.0766)">
<text font-family="sans-serif" font-size="1.3859" text-anchor="start" fill="currentColor">
<tspan>W</tspan>
</text>
</g>
</g>
<g transform="translate(50.0214, 36.6591)">
<rect x="-0.0551" y="-0.5633" width="0.1103" height="3.3133" ry="0.0308" fill="currentColor"/>
</g>
<g transform="scale(1.0000, 1.0000)">
<g transform="translate(54.0663, 34.7841)">
<path stroke-width="0.0001" stroke-linejoin="round" stroke-linecap="round" stroke="currentColor" fill="currentColor" d="M1.0265 -0.4999C1.2152 -0.4618 1.3372 -0.3515 1.3549 -0.2025C1.3692 -0.0828 1.3124 0.0767 1.2094 0.2063C1.0774 0.3724 0.8892 0.4721 0.6459 0.5049C0.5851 0.5131 0.5489 0.5134 0.4433 0.5068C0.3289 0.4996 0.3088 0.4966 0.2606 0.4798C0.1181 0.4300 0.0248 0.3354 0.0042 0.2196C-0.0154 0.1092 0.0352 -0.0503 0.1321 -0.1828C0.2682 -0.3692 0.4766 -0.4818 0.7307 -0.5063C0.8236 -0.5152 0.9655 -0.5122 1.0265 -0.4999zM0.8920 -0.3272C0.8019 -0.3059 0.6744 -0.2509 0.5172 -0.1656C0.1997 0.0069 0.1097 0.0977 0.1513 0.2039C0.1688 0.2487 0.1917 0.2776 0.2265 0.2986C0.3097 0.3488 0.4220 0.3375 0.6348 0.2572C0.9775 0.1280 1.2160 -0.0339 1.2240 -0.1427C1.2287 -0.2070 1.1849 -0.2813 1.1220 -0.3156C1.0837 -0.3365 1.0773 -0.3379 1.0151 -0.3393C0.9699 -0.3403 0.9308 -0.3364 0.8920 -0.3272z"/>
</g>
</g>
<g color="rgb(57.6471%, 43.9216%, 85.8824%)">
<g transform="translate(51.6106, 43.0766)">
<text font-family="sans-serif" font-size="1.3859" text-anchor="start" fill="currentColor">
<tspan>m3</tspan>
</text>
</g>
</g>
<g transform="translate(54.1214, 36.6591)">
<rect x="-0.0551" y="-1.6883" width="0.1103" height="3.3133" ry="0.0308" fill="currentColor"/>
</g>
<g color="rgb(50.0000%, 50.0000%, 50.0000%)">
<g transform="translate(31.5663, 32.8941)">
<text font-family="sans-serif" font-size="1.2350" text-anchor="start" fill="currentColor">
<tspan>F Major Pentatonic</tspan>
</text>
</g>
</g>
<g transform="scale(1.0000, 1.0000)">
<g transform="translate(33.5663, 39.2841)">
<path stroke-width="0.0001" stroke-linejoin="round" stroke-linecap="round" stroke="currentColor" fill="currentColor" d="M1.0265 -0.4999C1.2152 -0.4618 1.3372 -0.3515 1.3549 -0.2025C1.3692 -0.0828 1.3124 0.0767 1.2094 0.2063C1.0774 0.3724 0.8892 0.4721 0.6459 0.5049C0.5851 0.5131 0.5489 0.5134 0.4433 0.5068C0.3289 0.4996 0.3088 0.4966 0.2606 0.4798C0.1181 0.4300 0.0248 0.3354 0.0042 0.2196C-0.0154 0.1092 0.0352 -0.0503 0.1321 -0.1828C0.2682 -0.3692 0.4766 -0.4818 0.7307 -0.5063C0.8236 -0.5152 0.9655 -0.5122 1.0265 -0.4999zM0.8920 -0.3272C0.8019 -0.3059 0.6744 -0.2509 0.5172 -0.1656C0.1997 0.0069 0.1097 0.0977 0.1513 0.2039C0.1688 0.2487 0.1917 0.2776 0.2265 0.2986C0.3097 0.3488 0.4220 0.3375 0.6348 0.2572C0.9775 0.1280 1.2160 -0.0339 1.2240 -0.1427C1.2287 -0.2070 1.1849 -0.2813 1.1220 -0.3156C1.0837 -0.3365 1.0773 -0.3379 1.0151 -0.3393C0.9699 -0.3403 0.9308 -0.3364 0.8920 -0.3272z"/>
</g>
</g>
<g transform="translate(34.8683, 36.6591)">
<rect x="-0.0551" y="-0.8750" width="0.1103" height="3.3133" ry="0.0308" fill="currentColor"/>
</g>
<g transform="scale(1.0000, 1.0000)">
<g transform="translate(37.6663, 38.5341)">
<path stroke-width="0.0001" stroke-linejoin="round" stroke-linecap="round" stroke="currentColor" fill="currentColor" d="M1.0265 -0.4999C1.2152 -0.4618 1.3372 -0.3515 1.3549 -0.2025C1.3692 -0.0828 1.3124 0.0767 1.2094 0.2063C1.0774 0.3724 0.8892 0.4721 0.6459 0.5049C0.5851 0.5131 0.5489 0.5134 0.4433 0.5068C0.3289 0.4996 0.3088 0.4966 0.2606 0.4798C0.1181 0.4300 0.0248 0.3354 0.0042 0.2196C-0.0154 0.1092 0.0352 -0.0503 0.1321 -0.1828C0.2682 -0.3692 0.4766 -0.4818 0.7307 -0.5063C0.8236 -0.5152 0.9655 -0.5122 1.0265 -0.4999zM0.8920 -0.3272C0.8019 -0.3059 0.6744 -0.2509 0.5172 -0.1656C0.1997 0.0069 0.1097 0.0977 0.1513 0.2039C0.1688 0.2487 0.1917 0.2776 0.2265 0.2986C0.3097 0.3488 0.4220 0.3375 0.6348 0.2572C0.9775 0.1280 1.2160 -0.0339 1.2240 -0.1427C1.2287 -0.2070 1.1849 -0.2813 1.1220 -0.3156C1.0837 -0.3365 1.0773 -0.3379 1.0151 -0.3393C0.9699 -0.3403 0.9308 -0.3364 0.8920 -0.3272z"/>
</g>
</g>
<g color="rgb(18.0392%, 54.5098%, 34.1176%)">
<g transform="translate(35.6177, 43.0766)">
<text font-family="sans-serif" font-size="1.3859" text-anchor="start" fill="currentColor">
<tspan>W</tspan>
</text>
</g>
</g>
<g transform="translate(38.9683, 36.6591)">
<rect x="-0.0551" y="-1.6250" width="0.1103" height="3.3133" ry="0.0308" fill="currentColor"/>
</g>
<g transform="translate(31.0663, 47.7871)">
<line stroke-linejoin="round" stroke-linecap="round" stroke-width="0.0848" stroke="currentColor" x1="0.0424" y1="0" x2="26.7147" y2="0"/>
</g>
<g transform="translate(31.0663, 49.2871)">
<line stroke-linejoin="round" stroke-linecap="round" stroke-width="0.0848" stroke="currentColor" x1="0.0424" y1="0" x2="26.7147" y2="0"/>
</g>
<g transform="translate(31.0663, 52.2871)">
<line stroke-linejoin="round" stroke-linecap="round" stroke-width="0.0848" stroke="currentColor" x1="0.0424" y1="0" x2="26.7147" y2="0"/>
</g>
<g transform="translate(31.0663, 53.7871)">
<line stroke-linejoin="round" stroke-linecap="round" stroke-width="0.0848" stroke="currentColor" x1="0.0424" y1="0" x2="26.7147" y2="0"/>
</g>
<g transform="translate(26.6889, 50.7871)">
<rect x="18.5778" y="-0.0799" width="2.5313" height="0.1598" ry="0.0799" fill="currentColor"/>
</g>
<g transform="translate(26.6889, 50.7871)">
<rect x="14.4666" y="-0.0799" width="2.5786" height="0.1598" ry="0.0799" fill="currentColor"/>
</g>
<g transform="scale(1.0000, 1.0000)">
<g transform="translate(41.7663, 51.1621)">
<path stroke-width="0.0001" stroke-linejoin="round" stroke-linecap="round" stroke="currentColor" fill="currentColor" d="M1.0265 -0.4999C1.2152 -0.4618 1.3372 -0.3515 1.3549 -0.2025C1.3692 -0.0828 1.3124 0.0767 1.2094 0.2063C1.0774 0.3724 0.8892 0.4721 0.6459 0.5049C0.5851 0.5131 0.5489 0.5134 0.4433 0.5068C0.3289 0.4996 0.3088 0.4966 0.2606 0.4798C0.1181 0.4300 0.0248 0.3354 0.0042 0.2196C-0.0154 0.1092 0.0352 -0.0503 0.1321 -0.1828C0.2682 -0.3692 0.4766 -0.4818 0.7307 -0.5063C0.8236 -0.5152 0.9655 -0.5122 1.0265 -0.4999zM0.8920 -0.3272C0.8019 -0.3059 0.6744 -0.2509 0.5172 -0.1656C0.1997 0.0069 0.1097 0.0977 0.1513 0.2039C0.1688 0.2487 0.1917 0.2776 0.2265 0.2986C0.3097 0.3488 0.4220 0.3375 0.6348 0.2572C0.9775 0.1280 1.2160 -0.0339 1.2240 -0.1427C1.2287 -0.2070 1.1849 -0.2813 1.1220 -0.3156C1.0837 -0.3365 1.0773 -0.3379 1.0151 -0.3393C0.9699 -0.3403 0.9308 -0.3364 0.8920 -0.3272z"/>
</g>
</g>
<g transform="translate(43.0683, 50.7871)">
<rect x="-0.0551" y="-3.1250" width="0.1103" height="3.3133" ry="0.0308" fill="currentColor"/>
</g>
<g color="rgb(18.0392%, 54.5098%, 34.1176%)">
<g transform="translate(39.7177, 57.2045)">
<text font-family="sans-serif" font-size="1.3859" text-anchor="start" fill="currentColor">
<tspan>W</tspan>
</text>
</g>
</g>
<g transform="scale(1.0000, 1.0000)">
<g transform="translate(45.8663, 50.0371)">
<path stroke-width="0.0001" stroke-linejoin="round" stroke-linecap="round" stroke="currentColor" fill="currentColor" d="M1.0162 -0.5005C1.1901 -0.4580 1.3000 -0.3601 1.3267 -0.2237C1.3473 -0.1188 1.3091 0.0324 1.2347 0.1410C1.1037 0.3322 0.8787 0.4644 0.6176 0.5036C0.5244 0.5176 0.3659 0.5121 0.2884 0.4921C-0.0297 0.4098 -0.0964 0.0918 0.1475 -0.1799C0.2984 -0.3479 0.5439 -0.4756 0.7758 -0.5066C0.8400 -0.5151 0.9696 -0.5119 1.0162 -0.5005z"/>
</g>
</g>
<g color="rgb(57.6471%, 43.9216%, 85.8824%)">
<g transform="translate(43.4106, 57.2045)">
<text font-family="sans-serif" font-size="1.3859" text-anchor="start" fill="currentColor">
<tspan>m3</tspan>
</text>
</g>
</g>
<g transform="translate(45.9214, 50.7871)">
<rect x="-0.0551" y="-0.5633" width="0.1103" height="3.3133" ry="0.0308" fill="currentColor"/>
</g>
<g transform="scale(1.0000, 1.0000)">
<g transform="translate(49.9663, 49.2871)">
<path stroke-width="0.0001" stroke-linejoin="round" stroke-linecap="round" stroke="currentColor" fill="currentColor" d="M1.0162 -0.5005C1.1901 -0.4580 1.3000 -0.3601 1.3267 -0.2237C1.3473 -0.1188 1.3091 0.0324 1.2347 0.1410C1.1037 0.3322 0.8787 0.4644 0.6176 0.5036C0.5244 0.5176 0.3659 0.5121 0.2884 0.4921C-0.0297 0.4098 -0.0964 0.0918 0.1475 -0.1799C0.2984 -0.3479 0.5439 -0.4756 0.7758 -0.5066C0.8400 -0.5151 0.9696 -0.5119 1.0162 -0.5005z"/>
</g>
</g>
<g color="rgb(18.0392%, 54.5098%, 34.1176%)">
<g transform="translate(47.9177, 57.2045)">
<text font-family="sans-serif" font-size="1.3859" text-anchor="start" fill="currentColor">
<tspan>W</tspan>
</text>
</g>
</g>
<g transform="translate(50.0214, 50.7871)">
<rect x="-0.0551" y="-1.3133" width="0.1103" height="3.3133" ry="0.0308" fill="currentColor"/>
</g>
<g transform="scale(1.0000, 1.0000)">
<g transform="translate(54.0663, 48.1621)">
<path stroke-width="0.0001" stroke-linejoin="round" stroke-linecap="round" stroke="currentColor" fill="currentColor" d="M1.0265 -0.4999C1.2152 -0.4618 1.3372 -0.3515 1.3549 -0.2025C1.3692 -0.0828 1.3124 0.0767 1.2094 0.2063C1.0774 0.3724 0.8892 0.4721 0.6459 0.5049C0.5851 0.5131 0.5489 0.5134 0.4433 0.5068C0.3289 0.4996 0.3088 0.4966 0.2606 0.4798C0.1181 0.4300 0.0248 0.3354 0.0042 0.2196C-0.0154 0.1092 0.0352 -0.0503 0.1321 -0.1828C0.2682 -0.3692 0.4766 -0.4818 0.7307 -0.5063C0.8236 -0.5152 0.9655 -0.5122 1.0265 -0.4999zM0.8920 -0.3272C0.8019 -0.3059 0.6744 -0.2509 0.5172 -0.1656C0.1997 0.0069 0.1097 0.0977 0.1513 0.2039C0.1688 0.2487 0.1917 0.2776 0.2265 0.2986C0.3097 0.3488 0.4220 0.3375 0.6348 0.2572C0.9775 0.1280 1.2160 -0.0339 1.2240 -0.1427C1.2287 -0.2070 1.1849 -0.2813 1.1220 -0.3156C1.0837 -0.3365 1.0773 -0.3379 1.0151 -0.3393C0.9699 -0.3403 0.9308 -0.3364 0.8920 -0.3272z"/>
</g>
</g>
<g color="rgb(57.6471%, 43.9216%, 85.8824%)">
<g transform="translate(51.6106, 57.2045)">
<text font-family="sans-serif" font-size="1.3859" text-anchor="start" fill="currentColor">
<tspan>m3</tspan>
</text>
</g>
</g>
<g transform="translate(54.1214, 50.7871)">
<rect x="-0.0551" y="-2.4383" width="0.1103" height="3.3133" ry="0.0308" fill="currentColor"/>
</g>
<g color="rgb(50.0000%, 50.0000%, 50.0000%)">
<g transform="translate(31.5663, 47.0221)">
<text font-family="sans-serif" font-size="1.2350" text-anchor="start" fill="currentColor">
<tspan>G Major Pentatonic</tspan>
</text>
</g>
</g>
<g transform="scale(1.0000, 1.0000)">
<g transform="translate(33.5663, 52.6621)">
<path stroke-width="0.0001" stroke-linejoin="round" stroke-linecap="round" stroke="currentColor" fill="currentColor" d="M1.0265 -0.4999C1.2152 -0.4618 1.3372 -0.3515 1.3549 -0.2025C1.3692 -0.0828 1.3124 0.0767 1.2094 0.2063C1.0774 0.3724 0.8892 0.4721 0.6459 0.5049C0.5851 0.5131 0.5489 0.5134 0.4433 0.5068C0.3289 0.4996 0.3088 0.4966 0.2606 0.4798C0.1181 0.4300 0.0248 0.3354 0.0042 0.2196C-0.0154 0.1092 0.0352 -0.0503 0.1321 -0.1828C0.2682 -0.3692 0.4766 -0.4818 0.7307 -0.5063C0.8236 -0.5152 0.9655 -0.5122 1.0265 -0.4999zM0.8920 -0.3272C0.8019 -0.3059 0.6744 -0.2509 0.5172 -0.1656C0.1997 0.0069 0.1097 0.0977 0.1513 0.2039C0.1688 0.2487 0.1917 0.2776 0.2265 0.2986C0.3097 0.3488 0.4220 0.3375 0.6348 0.2572C0.9775 0.1280 1.2160 -0.0339 1.2240 -0.1427C1.2287 -0.2070 1.1849 -0.2813 1.1220 -0.3156C1.0837 -0.3365 1.0773 -0.3379 1.0151 -0.3393C0.9699 -0.3403 0.9308 -0.3364 0.8920 -0.3272z"/>
</g>
</g>
<g transform="translate(34.8683, 50.7871)">
<rect x="-0.0551" y="-1.6250" width="0.1103" height="3.3133" ry="0.0308" fill="currentColor"/>
</g>
<g transform="scale(1.0000, 1.0000)">
<g transform="translate(37.6663, 51.9121)">
<path stroke-width="0.0001" stroke-linejoin="round" stroke-linecap="round" stroke="currentColor" fill="currentColor" d="M1.0265 -0.4999C1.2152 -0.4618 1.3372 -0.3515 1.3549 -0.2025C1.3692 -0.0828 1.3124 0.0767 1.2094 0.2063C1.0774 0.3724 0.8892 0.4721 0.6459 0.5049C0.5851 0.5131 0.5489 0.5134 0.4433 0.5068C0.3289 0.4996 0.3088 0.4966 0.2606 0.4798C0.1181 0.4300 0.0248 0.3354 0.0042 0.2196C-0.0154 0.1092 0.0352 -0.0503 0.1321 -0.1828C0.2682 -0.3692 0.4766 -0.4818 0.7307 -0.5063C0.8236 -0.5152 0.9655 -0.5122 1.0265 -0.4999zM0.8920 -0.3272C0.8019 -0.3059 0.6744 -0.2509 0.5172 -0.1656C0.1997 0.0069 0.1097 0.0977 0.1513 0.2039C0.1688 0.2487 0.1917 0.2776 0.2265 0.2986C0.3097 0.3488 0.4220 0.3375 0.6348 0.2572C0.9775 0.1280 1.2160 -0.0339 1.2240 -0.1427C1.2287 -0.2070 1.1849 -0.2813 1.1220 -0.3156C1.0837 -0.3365 1.0773 -0.3379 1.0151 -0.3393C0.9699 -0.3403 0.9308 -0.3364 0.8920 -0.3272z"/>
</g>
</g>
<g color="rgb(18.0392%, 54.5098%, 34.1176%)">
<g transform="translate(35.6177, 57.2045)">
<text font-family="sans-serif" font-size="1.3859" text-anchor="start" fill="currentColor">
<tspan>W</tspan>
</text>
</g>
</g>
<g transform="translate(38.9683, 50.7871)">
<rect x="-0.0551" y="-2.3750" width="0.1103" height="3.3133" ry="0.0308" fill="currentColor"/>
</g>
<g transform="translate(31.0663, 61.9151)">
<line stroke-linejoin="round" stroke-linecap="round" stroke-width="0.0848" stroke="currentColor" x1="0.0424" y1="0" x2="26.7147" y2="0"/>
</g>
<g transform="translate(31.0663, 63.4151)">
<line stroke-linejoin="round" stroke-linecap="round" stroke-width="0.0848" stroke="currentColor" x1="0.0424" y1="0" x2="26.7147" y2="0"/>
</g>
<g transform="translate(31.0663, 66.4151)">
<line stroke-linejoin="round" stroke-linecap="round" stroke-width="0.0848" stroke="currentColor" x1="0.0424" y1="0" x2="26.7147" y2="0"/>
</g>
<g transform="translate(31.0663, 67.9151)">
<line stroke-linejoin="round" stroke-linecap="round" stroke-width="0.0848" stroke="currentColor" x1="0.0424" y1="0" x2="26.7147" y2="0"/>
</g>
<g transform="translate(26.6889, 64.9151)">
<rect x="14.4666" y="-0.0799" width="2.5786" height="0.1598" ry="0.0799" fill="currentColor"/>
</g>
<g transform="translate(26.6889, 64.9151)">
<rect x="10.3666" y="-0.0799" width="2.5786" height="0.1598" ry="0.0799" fill="currentColor"/>
</g>
<g transform="scale(1.0000, 1.0000)">
<g transform="translate(41.7663, 64.5401)">
<path stroke-width="0.0001" stroke-linejoin="round" stroke-linecap="round" stroke="currentColor" fill="currentColor" d="M1.0265 -0.4999C1.2152 -0.4618 1.3372 -0.3515 1.3549 -0.2025C1.3692 -0.0828 1.3124 0.0767 1.2094 0.2063C1.0774 0.3724 0.8892 0.4721 0.6459 0.5049C0.5851 0.5131 0.5489 0.5134 0.4433 0.5068C0.3289 0.4996 0.3088 0.4966 0.2606 0.4798C0.1181 0.4300 0.0248 0.3354 0.0042 0.2196C-0.0154 0.1092 0.0352 -0.0503 0.1321 -0.1828C0.2682 -0.3692 0.4766 -0.4818 0.7307 -0.5063C0.8236 -0.5152 0.9655 -0.5122 1.0265 -0.4999zM0.8920 -0.3272C0.8019 -0.3059 0.6744 -0.2509 0.5172 -0.1656C0.1997 0.0069 0.1097 0.0977 0.1513 0.2039C0.1688 0.2487 0.1917 0.2776 0.2265 0.2986C0.3097 0.3488 0.4220 0.3375 0.6348 0.2572C0.9775 0.1280 1.2160 -0.0339 1.2240 -0.1427C1.2287 -0.2070 1.1849 -0.2813 1.1220 -0.3156C1.0837 -0.3365 1.0773 -0.3379 1.0151 -0.3393C0.9699 -0.3403 0.9308 -0.3364 0.8920 -0.3272z"/>
</g>
</g>
<g transform="translate(41.8214, 64.9151)">
<rect x="-0.0551" y="-0.1883" width="0.1103" height="3.3133" ry="0.0308" fill="currentColor"/>
</g>
<g color="rgb(18.0392%, 54.5098%, 34.1176%)">
<g transform="translate(39.7177, 71.3325)">
<text font-family="sans-serif" font-size="1.3859" text-anchor="start" fill="currentColor">
<tspan>W</tspan>
</text>
</g>
</g>
<g transform="scale(1.0000, 1.0000)">
<g transform="translate(45.8663, 63.4151)">
<path stroke-width="0.0001" stroke-linejoin="round" stroke-linecap="round" stroke="currentColor" fill="currentColor" d="M1.0162 -0.5005C1.1901 -0.4580 1.3000 -0.3601 1.3267 -0.2237C1.3473 -0.1188 1.3091 0.0324 1.2347 0.1410C1.1037 0.3322 0.8787 0.4644 0.6176 0.5036C0.5244 0.5176 0.3659 0.5121 0.2884 0.4921C-0.0297 0.4098 -0.0964 0.0918 0.1475 -0.1799C0.2984 -0.3479 0.5439 -0.4756 0.7758 -0.5066C0.8400 -0.5151 0.9696 -0.5119 1.0162 -0.5005z"/>
</g>
</g>
<g color="rgb(57.6471%, 43.9216%, 85.8824%)">
<g transform="translate(43.4106, 71.3325)">
<text font-family="sans-serif" font-size="1.3859" text-anchor="start" fill="currentColor">
<tspan>m3</tspan>
</text>
</g>
</g>
<g transform="translate(45.9214, 64.9151)">
<rect x="-0.0551" y="-1.3133" width="0.1103" height="3.3133" ry="0.0308" fill="currentColor"/>
</g>
<g transform="scale(1.0000, 1.0000)">
<g transform="translate(49.9663, 62.6651)">
<path stroke-width="0.0001" stroke-linejoin="round" stroke-linecap="round" stroke="currentColor" fill="currentColor" d="M1.0162 -0.5005C1.1901 -0.4580 1.3000 -0.3601 1.3267 -0.2237C1.3473 -0.1188 1.3091 0.0324 1.2347 0.1410C1.1037 0.3322 0.8787 0.4644 0.6176 0.5036C0.5244 0.5176 0.3659 0.5121 0.2884 0.4921C-0.0297 0.4098 -0.0964 0.0918 0.1475 -0.1799C0.2984 -0.3479 0.5439 -0.4756 0.7758 -0.5066C0.8400 -0.5151 0.9696 -0.5119 1.0162 -0.5005z"/>
</g>
</g>
<g color="rgb(18.0392%, 54.5098%, 34.1176%)">
<g transform="translate(47.9177, 71.3325)">
<text font-family="sans-serif" font-size="1.3859" text-anchor="start" fill="currentColor">
<tspan>W</tspan>
</text>
</g>
</g>
<g transform="translate(50.0214, 64.9151)">
<rect x="-0.0551" y="-2.0633" width="0.1103" height="3.3133" ry="0.0308" fill="currentColor"/>
</g>
<g transform="scale(1.0000, 1.0000)">
<g transform="translate(54.0663, 61.5401)">
<path stroke-width="0.0001" stroke-linejoin="round" stroke-linecap="round" stroke="currentColor" fill="currentColor" d="M1.0265 -0.4999C1.2152 -0.4618 1.3372 -0.3515 1.3549 -0.2025C1.3692 -0.0828 1.3124 0.0767 1.2094 0.2063C1.0774 0.3724 0.8892 0.4721 0.6459 0.5049C0.5851 0.5131 0.5489 0.5134 0.4433 0.5068C0.3289 0.4996 0.3088 0.4966 0.2606 0.4798C0.1181 0.4300 0.0248 0.3354 0.0042 0.2196C-0.0154 0.1092 0.0352 -0.0503 0.1321 -0.1828C0.2682 -0.3692 0.4766 -0.4818 0.7307 -0.5063C0.8236 -0.5152 0.9655 -0.5122 1.0265 -0.4999zM0.8920 -0.3272C0.8019 -0.3059 0.6744 -0.2509 0.5172 -0.1656C0.1997 0.0069 0.1097 0.0977 0.1513 0.2039C0.1688 0.2487 0.1917 0.2776 0.2265 0.2986C0.3097 0.3488 0.4220 0.3375 0.6348 0.2572C0.9775 0.1280 1.2160 -0.0339 1.2240 -0.1427C1.2287 -0.2070 1.1849 -0.2813 1.1220 -0.3156C1.0837 -0.3365 1.0773 -0.3379 1.0151 -0.3393C0.9699 -0.3403 0.9308 -0.3364 0.8920 -0.3272z"/>
</g>
</g>
<g color="rgb(57.6471%, 43.9216%, 85.8824%)">
<g transform="translate(51.6106, 71.3325)">
<text font-family="sans-serif" font-size="1.3859" text-anchor="start" fill="currentColor">
<tspan>m3</tspan>
</text>
</g>
</g>
<g transform="translate(54.1214, 64.9151)">
<rect x="-0.0551" y="-3.1883" width="0.1103" height="3.3133" ry="0.0308" fill="currentColor"/>
</g>
<g color="rgb(50.0000%, 50.0000%, 50.0000%)">
<g transform="translate(31.5663, 61.1500)">
<text font-family="sans-serif" font-size="1.2350" text-anchor="start" fill="currentColor">
<tspan>A Major Pentatonic</tspan>
</text>
</g>
</g>
<g transform="scale(1.0000, 1.0000)">
<g transform="translate(33.5663, 66.0401)">
<path stroke-width="0.0001" stroke-linejoin="round" stroke-linecap="round" stroke="currentColor" fill="currentColor" d="M1.0265 -0.4999C1.2152 -0.4618 1.3372 -0.3515 1.3549 -0.2025C1.3692 -0.0828 1.3124 0.0767 1.2094 0.2063C1.0774 0.3724 0.8892 0.4721 0.6459 0.5049C0.5851 0.5131 0.5489 0.5134 0.4433 0.5068C0.3289 0.4996 0.3088 0.4966 0.2606 0.4798C0.1181 0.4300 0.0248 0.3354 0.0042 0.2196C-0.0154 0.1092 0.0352 -0.0503 0.1321 -0.1828C0.2682 -0.3692 0.4766 -0.4818 0.7307 -0.5063C0.8236 -0.5152 0.9655 -0.5122 1.0265 -0.4999zM0.8920 -0.3272C0.8019 -0.3059 0.6744 -0.2509 0.5172 -0.1656C0.1997 0.0069 0.1097 0.0977 0.1513 0.2039C0.1688 0.2487 0.1917 0.2776 0.2265 0.2986C0.3097 0.3488 0.4220 0.3375 0.6348 0.2572C0.9775 0.1280 1.2160 -0.0339 1.2240 -0.1427C1.2287 -0.2070 1.1849 -0.2813 1.1220 -0.3156C1.0837 -0.3365 1.0773 -0.3379 1.0151 -0.3393C0.9699 -0.3403 0.9308 -0.3364 0.8920 -0.3272z"/>
</g>
</g>
<g transform="translate(34.8683, 64.9151)">
<rect x="-0.0551" y="-2.3750" width="0.1103" height="3.3133" ry="0.0308" fill="currentColor"/>
</g>
<g transform="scale(1.0000, 1.0000)">
<g transform="translate(37.6663, 65.2901)">
<path stroke-width="0.0001" stroke-linejoin="round" stroke-linecap="round" stroke="currentColor" fill="currentColor" d="M1.0265 -0.4999C1.2152 -0.4618 1.3372 -0.3515 1.3549 -0.2025C1.3692 -0.0828 1.3124 0.0767 1.2094 0.2063C1.0774 0.3724 0.8892 0.4721 0.6459 0.5049C0.5851 0.5131 0.5489 0.5134 0.4433 0.5068C0.3289 0.4996 0.3088 0.4966 0.2606 0.4798C0.1181 0.4300 0.0248 0.3354 0.0042 0.2196C-0.0154 0.1092 0.0352 -0.0503 0.1321 -0.1828C0.2682 -0.3692 0.4766 -0.4818 0.7307 -0.5063C0.8236 -0.5152 0.9655 -0.5122 1.0265 -0.4999zM0.8920 -0.3272C0.8019 -0.3059 0.6744 -0.2509 0.5172 -0.1656C0.1997 0.0069 0.1097 0.0977 0.1513 0.2039C0.1688 0.2487 0.1917 0.2776 0.2265 0.2986C0.3097 0.3488 0.4220 0.3375 0.6348 0.2572C0.9775 0.1280 1.2160 -0.0339 1.2240 -0.1427C1.2287 -0.2070 1.1849 -0.2813 1.1220 -0.3156C1.0837 -0.3365 1.0773 -0.3379 1.0151 -0.3393C0.9699 -0.3403 0.9308 -0.3364 0.8920 -0.3272z"/>
</g>
</g>
<g color="rgb(18.0392%, 54.5098%, 34.1176%)">
<g transform="translate(35.6177, 71.3325)">
<text font-family="sans-serif" font-size="1.3859" text-anchor="start" fill="currentColor">
<tspan>W</tspan>
</text>
</g>
</g>
<g transform="translate(38.9683, 64.9151)">
<rect x="-0.0551" y="-3.1250" width="0.1103" height="3.3133" ry="0.0308" fill="currentColor"/>
</g>
<g transform="translate(31.0663, 76.1257)">
<line stroke-linejoin="round" stroke-linecap="round" stroke-width="0.0848" stroke="currentColor" x1="0.0424" y1="0" x2="26.7147" y2="0"/>
</g>
<g transform="translate(31.0663, 77.6257)">
<line stroke-linejoin="round" stroke-linecap="round" stroke-width="0.0848" stroke="currentColor" x1="0.0424" y1="0" x2="26.7147" y2="0"/>
</g>
<g transform="translate(31.0663, 80.6257)">
<line stroke-linejoin="round" stroke-linecap="round" stroke-width="0.0848" stroke="currentColor" x1="0.0424" y1="0" x2="26.7147" y2="0"/>
</g>
<g transform="translate(31.0663, 82.1257)">
<line stroke-linejoin="round" stroke-linecap="round" stroke-width="0.0848" stroke="currentColor" x1="0.0424" y1="0" x2="26.7147" y2="0"/>
</g>
<g transform="translate(26.6889, 74.6257)">
<rect x="26.7666" y="-0.0799" width="2.5786" height="0.1598" ry="0.0799" fill="currentColor"/>
</g>
<g transform="translate(26.6889, 79.1257)">
<rect x="10.3666" y="-0.0799" width="2.5786" height="0.1598" ry="0.0799" fill="currentColor"/>
</g>
<g transform="translate(26.6889, 79.1257)">
<rect x="6.2666" y="-0.0799" width="2.5786" height="0.1598" ry="0.0799" fill="currentColor"/>
</g>
<g transform="scale(1.0000, 1.0000)">
<g transform="translate(41.7663, 78.0007)">
<path stroke-width="0.0001" stroke-linejoin="round" stroke-linecap="round" stroke="currentColor" fill="currentColor" d="M1.0265 -0.4999C1.2152 -0.4618 1.3372 -0.3515 1.3549 -0.2025C1.3692 -0.0828 1.3124 0.0767 1.2094 0.2063C1.0774 0.3724 0.8892 0.4721 0.6459 0.5049C0.5851 0.5131 0.5489 0.5134 0.4433 0.5068C0.3289 0.4996 0.3088 0.4966 0.2606 0.4798C0.1181 0.4300 0.0248 0.3354 0.0042 0.2196C-0.0154 0.1092 0.0352 -0.0503 0.1321 -0.1828C0.2682 -0.3692 0.4766 -0.4818 0.7307 -0.5063C0.8236 -0.5152 0.9655 -0.5122 1.0265 -0.4999zM0.8920 -0.3272C0.8019 -0.3059 0.6744 -0.2509 0.5172 -0.1656C0.1997 0.0069 0.1097 0.0977 0.1513 0.2039C0.1688 0.2487 0.1917 0.2776 0.2265 0.2986C0.3097 0.3488 0.4220 0.3375 0.6348 0.2572C0.9775 0.1280 1.2160 -0.0339 1.2240 -0.1427C1.2287 -0.2070 1.1849 -0.2813 1.1220 -0.3156C1.0837 -0.3365 1.0773 -0.3379 1.0151 -0.3393C0.9699 -0.3403 0.9308 -0.3364 0.8920 -0.3272z"/>
</g>
</g>
<g transform="translate(41.8214, 79.1257)">
<rect x="-0.0551" y="-0.9383" width="0.1103" height="3.3133" ry="0.0308" fill="currentColor"/>
</g>
<g color="rgb(18.0392%, 54.5098%, 34.1176%)">
<g transform="translate(39.7177, 85.5431)">
<text font-family="sans-serif" font-size="1.3859" text-anchor="start" fill="currentColor">
<tspan>W</tspan>
</text>
</g>
</g>
<g transform="scale(1.0000, 1.0000)">
<g transform="translate(45.8663, 76.8757)">
<path stroke-width="0.0001" stroke-linejoin="round" stroke-linecap="round" stroke="currentColor" fill="currentColor" d="M1.0162 -0.5005C1.1901 -0.4580 1.3000 -0.3601 1.3267 -0.2237C1.3473 -0.1188 1.3091 0.0324 1.2347 0.1410C1.1037 0.3322 0.8787 0.4644 0.6176 0.5036C0.5244 0.5176 0.3659 0.5121 0.2884 0.4921C-0.0297 0.4098 -0.0964 0.0918 0.1475 -0.1799C0.2984 -0.3479 0.5439 -0.4756 0.7758 -0.5066C0.8400 -0.5151 0.9696 -0.5119 1.0162 -0.5005z"/>
</g>
</g>
<g color="rgb(57.6471%, 43.9216%, 85.8824%)">
<g transform="translate(43.4106, 85.5431)">
<text font-family="sans-serif" font-size="1.3859" text-anchor="start" fill="currentColor">
<tspan>m3</tspan>
</text>
</g>
</g>
<g transform="translate(45.9214, 79.1257)">
<rect x="-0.0551" y="-2.0633" width="0.1103" height="3.3133" ry="0.0308" fill="currentColor"/>
</g>
<g transform="scale(1.0000, 1.0000)">
<g transform="translate(49.9663, 76.1257)">
<path stroke-width="0.0001" stroke-linejoin="round" stroke-linecap="round" stroke="currentColor" fill="currentColor" d="M1.0162 -0.5005C1.1901 -0.4580 1.3000 -0.3601 1.3267 -0.2237C1.3473 -0.1188 1.3091 0.0324 1.2347 0.1410C1.1037 0.3322 0.8787 0.4644 0.6176 0.5036C0.5244 0.5176 0.3659 0.5121 0.2884 0.4921C-0.0297 0.4098 -0.0964 0.0918 0.1475 -0.1799C0.2984 -0.3479 0.5439 -0.4756 0.7758 -0.5066C0.8400 -0.5151 0.9696 -0.5119 1.0162 -0.5005z"/>
</g>
</g>
<g color="rgb(18.0392%, 54.5098%, 34.1176%)">
<g transform="translate(47.9177, 85.5431)">
<text font-family="sans-serif" font-size="1.3859" text-anchor="start" fill="currentColor">
<tspan>W</tspan>
</text>
</g>
</g>
<g transform="translate(50.0214, 79.1257)">
<rect x="-0.0551" y="-2.8133" width="0.1103" height="3.3133" ry="0.0308" fill="currentColor"/>
</g>
<g transform="scale(1.0000, 1.0000)">
<g transform="translate(54.0663, 75.0007)">
<path stroke-width="0.0001" stroke-linejoin="round" stroke-linecap="round" stroke="currentColor" fill="currentColor" d="M1.0265 -0.4999C1.2152 -0.4618 1.3372 -0.3515 1.3549 -0.2025C1.3692 -0.0828 1.3124 0.0767 1.2094 0.2063C1.0774 0.3724 0.8892 0.4721 0.6459 0.5049C0.5851 0.5131 0.5489 0.5134 0.4433 0.5068C0.3289 0.4996 0.3088 0.4966 0.2606 0.4798C0.1181 0.4300 0.0248 0.3354 0.0042 0.2196C-0.0154 0.1092 0.0352 -0.0503 0.1321 -0.1828C0.2682 -0.3692 0.4766 -0.4818 0.7307 -0.5063C0.8236 -0.5152 0.9655 -0.5122 1.0265 -0.4999zM0.8920 -0.3272C0.8019 -0.3059 0.6744 -0.2509 0.5172 -0.1656C0.1997 0.0069 0.1097 0.0977 0.1513 0.2039C0.1688 0.2487 0.1917 0.2776 0.2265 0.2986C0.3097 0.3488 0.4220 0.3375 0.6348 0.2572C0.9775 0.1280 1.2160 -0.0339 1.2240 -0.1427C1.2287 -0.2070 1.1849 -0.2813 1.1220 -0.3156C1.0837 -0.3365 1.0773 -0.3379 1.0151 -0.3393C0.9699 -0.3403 0.9308 -0.3364 0.8920 -0.3272z"/>
</g>
</g>
<g color="rgb(57.6471%, 43.9216%, 85.8824%)">
<g transform="translate(51.6106, 85.5431)">
<text font-family="sans-serif" font-size="1.3859" text-anchor="start" fill="currentColor">
<tspan>m3</tspan>
</text>
</g>
</g>
<g transform="translate(54.1214, 79.1257)">
<rect x="-0.0551" y="-3.9383" width="0.1103" height="3.3133" ry="0.0308" fill="currentColor"/>
</g>
<g color="rgb(50.0000%, 50.0000%, 50.0000%)">
<g transform="translate(31.5663, 75.2780)">
<text font-family="sans-serif" font-size="1.2350" text-anchor="start" fill="currentColor">
<tspan>B Major Pentatonic</tspan>
</text>
</g>
</g>
<g transform="scale(1.0000, 1.0000)">
<g transform="translate(33.5663, 79.5007)">
<path stroke-width="0.0001" stroke-linejoin="round" stroke-linecap="round" stroke="currentColor" fill="currentColor" d="M1.0265 -0.4999C1.2152 -0.4618 1.3372 -0.3515 1.3549 -0.2025C1.3692 -0.0828 1.3124 0.0767 1.2094 0.2063C1.0774 0.3724 0.8892 0.4721 0.6459 0.5049C0.5851 0.5131 0.5489 0.5134 0.4433 0.5068C0.3289 0.4996 0.3088 0.4966 0.2606 0.4798C0.1181 0.4300 0.0248 0.3354 0.0042 0.2196C-0.0154 0.1092 0.0352 -0.0503 0.1321 -0.1828C0.2682 -0.3692 0.4766 -0.4818 0.7307 -0.5063C0.8236 -0.5152 0.9655 -0.5122 1.0265 -0.4999zM0.8920 -0.3272C0.8019 -0.3059 0.6744 -0.2509 0.5172 -0.1656C0.1997 0.0069 0.1097 0.0977 0.1513 0.2039C0.1688 0.2487 0.1917 0.2776 0.2265 0.2986C0.3097 0.3488 0.4220 0.3375 0.6348 0.2572C0.9775 0.1280 1.2160 -0.0339 1.2240 -0.1427C1.2287 -0.2070 1.1849 -0.2813 1.1220 -0.3156C1.0837 -0.3365 1.0773 -0.3379 1.0151 -0.3393C0.9699 -0.3403 0.9308 -0.3364 0.8920 -0.3272z"/>
</g>
</g>
<g transform="translate(34.8683, 79.1257)">
<rect x="-0.0551" y="-3.1250" width="0.1103" height="3.3133" ry="0.0308" fill="currentColor"/>
</g>
<g transform="scale(1.0000, 1.0000)">
<g transform="translate(37.6663, 78.7507)">
<path stroke-width="0.0001" stroke-linejoin="round" stroke-linecap="round" stroke="currentColor" fill="currentColor" d="M1.0265 -0.4999C1.2152 -0.4618 1.3372 -0.3515 1.3549 -0.2025C1.3692 -0.0828 1.3124 0.0767 1.2094 0.2063C1.0774 0.3724 0.8892 0.4721 0.6459 0.5049C0.5851 0.5131 0.5489 0.5134 0.4433 0.5068C0.3289 0.4996 0.3088 0.4966 0.2606 0.4798C0.1181 0.4300 0.0248 0.3354 0.0042 0.2196C-0.0154 0.1092 0.0352 -0.0503 0.1321 -0.1828C0.2682 -0.3692 0.4766 -0.4818 0.7307 -0.5063C0.8236 -0.5152 0.9655 -0.5122 1.0265 -0.4999zM0.8920 -0.3272C0.8019 -0.3059 0.6744 -0.2509 0.5172 -0.1656C0.1997 0.0069 0.1097 0.0977 0.1513 0.2039C0.1688 0.2487 0.1917 0.2776 0.2265 0.2986C0.3097 0.3488 0.4220 0.3375 0.6348 0.2572C0.9775 0.1280 1.2160 -0.0339 1.2240 -0.1427C1.2287 -0.2070 1.1849 -0.2813 1.1220 -0.3156C1.0837 -0.3365 1.0773 -0.3379 1.0151 -0.3393C0.9699 -0.3403 0.9308 -0.3364 0.8920 -0.3272z"/>
</g>
</g>
<g color="rgb(18.0392%, 54.5098%, 34.1176%)">
<g transform="translate(35.6177, 85.5431)">
<text font-family="sans-serif" font-size="1.3859" text-anchor="start" fill="currentColor">
<tspan>W</tspan>
</text>
</g>
</g>
<g transform="translate(37.7214, 79.1257)">
<rect x="-0.0551" y="-0.1883" width="0.1103" height="3.3133" ry="0.0308" fill="currentColor"/>
</g>
</svg>
