<svg xmlns="http://www.w3.org/2000/svg" xmlns:xlink="http://www.w3.org/1999/xlink" version="1.2" width="133.64mm" height="59.75mm" viewBox="0.0000 -0.0000 44.7339 20.0023">
<style type="text/css">
<![CDATA[
tspan { white-space: pre; }
]]>
</style>
<g transform="translate(0.3347, 0.3712)">
<line stroke-linejoin="round" stroke-linecap="round" stroke-width="0.0729" stroke="currentColor" x1="0.0365" y1="0" x2="44.0644" y2="0"/>
</g>
<g transform="translate(0.3347, 1.8712)">
<line stroke-linejoin="round" stroke-linecap="round" stroke-width="0.0729" stroke="currentColor" x1="0.0365" y1="0" x2="44.0644" y2="0"/>
</g>
<g transform="translate(0.3347, 4.8712)">
<line stroke-linejoin="round" stroke-linecap="round" stroke-width="0.0729" stroke="currentColor" x1="0.0365" y1="0" x2="44.0644" y2="0"/>
</g>
<g transform="translate(0.3347, 6.3712)">
<line stroke-linejoin="round" stroke-linecap="round" stroke-width="0.0729" stroke="currentColor" x1="0.0365" y1="0" x2="44.0644" y2="0"/>
</g>
<g transform="translate(0.3347, 14.3712)">
<line stroke-linejoin="round" stroke-linecap="round" stroke-width="0.0729" stroke="currentColor" x1="0.0365" y1="0" x2="44.0644" y2="0"/>
</g>
<g transform="translate(0.3347, 13.3712)">
<line stroke-linejoin="round" stroke-linecap="round" stroke-width="0.0729" stroke="currentColor" x1="0.0365" y1="0" x2="44.0644" y2="0"/>
</g>
<g transform="translate(0.3347, 12.3712)">
<line stroke-linejoin="round" stroke-linecap="round" stroke-width="0.0729" stroke="currentColor" x1="0.0365" y1="0" x2="44.0644" y2="0"/>
</g>
<g transform="translate(0.3347, 11.3712)">
<line stroke-linejoin="round" stroke-linecap="round" stroke-width="0.0729" stroke="currentColor" x1="0.0365" y1="0" x2="44.0644" y2="0"/>
</g>
<g transform="translate(0.3347, 10.3712)">
<line stroke-linejoin="round" stroke-linecap="round" stroke-width="0.0729" stroke="currentColor" x1="0.0365" y1="0" x2="44.0644" y2="0"/>
</g>
<g transform="scale(1.0000, 1.0000)">
<g transform="translate(33.6092, 5.9962)">
<path stroke-width="0.2000" stroke-linejoin="round" stroke-linecap="round" stroke="currentColor" fill="none" d="M0 0.5000L0 -0.5000"/>
</g>
<g transform="translate(33.6092, 6.4962)">
<circle stroke-linejoin="round" stroke-linecap="round" fill="currentColor" stroke="currentColor" stroke-width="0.0100" r="0.2400"/>
</g>
<g transform="translate(34.1092, 5.9962)">
<path stroke-width="0.2000" stroke-linejoin="round" stroke-linecap="round" stroke="currentColor" fill="none" d="M0 0.5000L0 -0.5000"/>
</g>
<g transform="translate(34.1092, 6.4962)">
<circle stroke-linejoin="round" stroke-linecap="round" fill="currentColor" stroke="currentColor" stroke-width="0.0100" r="0.2400"/>
</g>
</g>
<g color="rgb(50.0000%, 50.0000%, 50.0000%)">
<g transform="translate(25.3042, 17.8712)">
<text font-family="sans-serif" font-size="1.2347" text-anchor="start" fill="currentColor">
<tspan>F</tspan>
</text>
</g>
</g>
<g transform="translate(36.0139, 3.3712)">
<rect x="-0.0474" y="-0.8750" width="0.0948" height="3.3133" ry="0.0235" fill="currentColor"/>
</g>
<g color="rgb(50.0000%, 50.0000%, 50.0000%)">
<g transform="translate(32.7160, 17.8712)">
<text font-family="sans-serif" font-size="1.2347" text-anchor="start" fill="currentColor">
<tspan>G double</tspan>
</text>
</g>
<g transform="translate(34.4231, 19.3712)">
<text font-family="sans-serif" font-size="1.2347" text-anchor="start" fill="currentColor">
<tspan>flat</tspan>
</text>
</g>
</g>
<g transform="translate(34.7042, 13.3712)">
<path transform="scale(0.0040, -0.0040)" d="M222 135c53 0 104 -27 104 -86c0 -71 -56 -120 -103 -148c-36 -22 -76 -36 -118 -36c-53 0 -105 27 -105 86c0 71 57 120 104 148c36 22 76 36 118 36z" fill="currentColor"/>
</g>
<g transform="scale(1.0000, 1.0000)">
<g transform="translate(34.7042, 5.9962)">
<path stroke-width="0.0001" stroke-linejoin="round" stroke-linecap="round" stroke="currentColor" fill="currentColor" d="M1.0265 -0.4999C1.2152 -0.4618 1.3372 -0.3515 1.3549 -0.2025C1.3692 -0.0828 1.3124 0.0767 1.2094 0.2063C1.0774 0.3724 0.8892 0.4721 0.6459 0.5049C0.5851 0.5131 0.5489 0.5134 0.4433 0.5068C0.3289 0.4996 0.3088 0.4966 0.2606 0.4798C0.1181 0.4300 0.0248 0.3354 0.0042 0.2196C-0.0154 0.1092 0.0352 -0.0503 0.1321 -0.1828C0.2682 -0.3692 0.4766 -0.4818 0.7307 -0.5063C0.8236 -0.5152 0.9655 -0.5122 1.0265 -0.4999zM0.8920 -0.3272C0.8019 -0.3059 0.6744 -0.2509 0.5172 -0.1656C0.1997 0.0069 0.1097 0.0977 0.1513 0.2039C0.1688 0.2487 0.1917 0.2776 0.2265 0.2986C0.3097 0.3488 0.4220 0.3375 0.6348 0.2572C0.9775 0.1280 1.2160 -0.0339 1.2240 -0.1427C1.2287 -0.2070 1.1849 -0.2813 1.1220 -0.3156C1.0837 -0.3365 1.0773 -0.3379 1.0151 -0.3393C0.9699 -0.3403 0.9308 -0.3364 0.8920 -0.3272z"/>
</g>
</g>
<g transform="translate(26.2311, 12.3712)">
<rect x="-0.0474" y="-2.0000" width="0.0948" height="3.3033" ry="0.0235" fill="currentColor"/>
</g>
<g transform="translate(26.2824, 3.3712)">
<rect x="-0.0474" y="-0.8750" width="0.0948" height="3.3133" ry="0.0235" fill="currentColor"/>
</g>
<g transform="translate(32.9062, 13.3712)">
<path transform="scale(0.0040, -0.0040)" d="M187 44l-1 -69v-11c0 -22 2 -44 4 -66c45 37 89 81 89 139c0 34 -12 69 -41 69c-30 0 -50 -30 -51 -62zM17 44l-1 -69v-11c0 -23 1 -45 4 -68c40 38 72 86 72 141c0 33 -6 69 -34 69c-27 0 -40 -31 -41 -62zM149 -136l-2 106c-28 -35 -71 -63 -105 -95
c-12 -11 -18 -32 -35 -32c-12 0 -21 9 -21 21l-11 599c8 4 16 7 25 7s17 -3 25 -7l-6 -349c18 19 42 30 68 30c22 0 42 -9 57 -23c-2 114 -5 228 -7 342c8 4 16 7 25 7s18 -3 26 -7l-7 -349c24 19 55 30 86 30c54 0 95 -45 95 -99c0 -82 -90 -118 -153 -170
c-14 -11 -21 -32 -39 -32c-12 0 -21 9 -21 21z" fill="currentColor"/>
</g>
<g transform="translate(35.9626, 12.3712)">
<rect x="-0.0474" y="-2.5000" width="0.0948" height="3.3033" ry="0.0235" fill="currentColor"/>
</g>
<g transform="translate(6.9445, 3.3712)">
<rect x="-0.0474" y="-2.3750" width="0.0948" height="3.3133" ry="0.0235" fill="currentColor"/>
</g>
<g transform="scale(1.0000, 1.0000)">
<g transform="translate(15.3662, 4.4962)">
<path stroke-width="0.0001" stroke-linejoin="round" stroke-linecap="round" stroke="currentColor" fill="currentColor" d="M1.0265 -0.4999C1.2152 -0.4618 1.3372 -0.3515 1.3549 -0.2025C1.3692 -0.0828 1.3124 0.0767 1.2094 0.2063C1.0774 0.3724 0.8892 0.4721 0.6459 0.5049C0.5851 0.5131 0.5489 0.5134 0.4433 0.5068C0.3289 0.4996 0.3088 0.4966 0.2606 0.4798C0.1181 0.4300 0.0248 0.3354 0.0042 0.2196C-0.0154 0.1092 0.0352 -0.0503 0.1321 -0.1828C0.2682 -0.3692 0.4766 -0.4818 0.7307 -0.5063C0.8236 -0.5152 0.9655 -0.5122 1.0265 -0.4999zM0.8920 -0.3272C0.8019 -0.3059 0.6744 -0.2509 0.5172 -0.1656C0.1997 0.0069 0.1097 0.0977 0.1513 0.2039C0.1688 0.2487 0.1917 0.2776 0.2265 0.2986C0.3097 0.3488 0.4220 0.3375 0.6348 0.2572C0.9775 0.1280 1.2160 -0.0339 1.2240 -0.1427C1.2287 -0.2070 1.1849 -0.2813 1.1220 -0.3156C1.0837 -0.3365 1.0773 -0.3379 1.0151 -0.3393C0.9699 -0.3403 0.9308 -0.3364 0.8920 -0.3272z"/>
</g>
</g>
<g transform="translate(24.9727, 13.8712)">
<path transform="scale(0.0040, -0.0040)" d="M222 135c53 0 104 -27 104 -86c0 -71 -56 -120 -103 -148c-36 -22 -76 -36 -118 -36c-53 0 -105 27 -105 86c0 71 57 120 104 148c36 22 76 36 118 36z" fill="currentColor"/>
</g>
<g transform="translate(6.8931, 12.3712)">
<rect x="-0.0474" y="-3.0000" width="0.0948" height="3.3033" ry="0.0235" fill="currentColor"/>
</g>
<g color="rgb(50.0000%, 50.0000%, 50.0000%)">
<g transform="translate(5.8960, 17.8712)">
<text font-family="sans-serif" font-size="1.2347" text-anchor="start" fill="currentColor">
<tspan>A</tspan>
</text>
</g>
</g>
<g transform="translate(5.6347, 12.8712)">
<path transform="scale(0.0040, -0.0040)" d="M222 135c53 0 104 -27 104 -86c0 -71 -56 -120 -103 -148c-36 -22 -76 -36 -118 -36c-53 0 -105 27 -105 86c0 71 57 120 104 148c36 22 76 36 118 36z" fill="currentColor"/>
</g>
<g transform="scale(1.0000, 1.0000)">
<g transform="translate(5.6347, 4.4962)">
<path stroke-width="0.0001" stroke-linejoin="round" stroke-linecap="round" stroke="currentColor" fill="currentColor" d="M1.0265 -0.4999C1.2152 -0.4618 1.3372 -0.3515 1.3549 -0.2025C1.3692 -0.0828 1.3124 0.0767 1.2094 0.2063C1.0774 0.3724 0.8892 0.4721 0.6459 0.5049C0.5851 0.5131 0.5489 0.5134 0.4433 0.5068C0.3289 0.4996 0.3088 0.4966 0.2606 0.4798C0.1181 0.4300 0.0248 0.3354 0.0042 0.2196C-0.0154 0.1092 0.0352 -0.0503 0.1321 -0.1828C0.2682 -0.3692 0.4766 -0.4818 0.7307 -0.5063C0.8236 -0.5152 0.9655 -0.5122 1.0265 -0.4999zM0.8920 -0.3272C0.8019 -0.3059 0.6744 -0.2509 0.5172 -0.1656C0.1997 0.0069 0.1097 0.0977 0.1513 0.2039C0.1688 0.2487 0.1917 0.2776 0.2265 0.2986C0.3097 0.3488 0.4220 0.3375 0.6348 0.2572C0.9775 0.1280 1.2160 -0.0339 1.2240 -0.1427C1.2287 -0.2070 1.1849 -0.2813 1.1220 -0.3156C1.0837 -0.3365 1.0773 -0.3379 1.0151 -0.3393C0.9699 -0.3403 0.9308 -0.3364 0.8920 -0.3272z"/>
</g>
</g>
<g transform="translate(16.6246, 12.3712)">
<rect x="-0.0474" y="-2.5000" width="0.0948" height="3.3033" ry="0.0235" fill="currentColor"/>
</g>
<g transform="scale(1.0000, 1.0000)">
<g transform="translate(24.9727, 5.9962)">
<path stroke-width="0.0001" stroke-linejoin="round" stroke-linecap="round" stroke="currentColor" fill="currentColor" d="M1.0265 -0.4999C1.2152 -0.4618 1.3372 -0.3515 1.3549 -0.2025C1.3692 -0.0828 1.3124 0.0767 1.2094 0.2063C1.0774 0.3724 0.8892 0.4721 0.6459 0.5049C0.5851 0.5131 0.5489 0.5134 0.4433 0.5068C0.3289 0.4996 0.3088 0.4966 0.2606 0.4798C0.1181 0.4300 0.0248 0.3354 0.0042 0.2196C-0.0154 0.1092 0.0352 -0.0503 0.1321 -0.1828C0.2682 -0.3692 0.4766 -0.4818 0.7307 -0.5063C0.8236 -0.5152 0.9655 -0.5122 1.0265 -0.4999zM0.8920 -0.3272C0.8019 -0.3059 0.6744 -0.2509 0.5172 -0.1656C0.1997 0.0069 0.1097 0.0977 0.1513 0.2039C0.1688 0.2487 0.1917 0.2776 0.2265 0.2986C0.3097 0.3488 0.4220 0.3375 0.6348 0.2572C0.9775 0.1280 1.2160 -0.0339 1.2240 -0.1427C1.2287 -0.2070 1.1849 -0.2813 1.1220 -0.3156C1.0837 -0.3365 1.0773 -0.3379 1.0151 -0.3393C0.9699 -0.3403 0.9308 -0.3364 0.8920 -0.3272z"/>
</g>
</g>
<g transform="translate(13.9842, 13.3712)">
<path transform="scale(0.0040, -0.0040)" d="M150 0c23 -23 58 -28 91 -28c4 0 8 -4 8 -8l9 -89c0 -4 -3 -8 -7 -8h-1l-89 9c-4 0 -8 4 -8 8c0 33 -5 68 -28 91c-23 -23 -28 -58 -28 -91c0 -4 -4 -8 -8 -8l-89 -9h-1c-4 0 -7 4 -7 8l9 89c0 4 4 8 8 8c33 0 68 5 91 28c-23 23 -58 28 -91 28c-4 0 -8 4 -8 8l-9 89
c0 4 3 8 7 8h1l89 -9c4 0 8 -4 8 -8c0 -33 5 -68 28 -91c23 23 28 58 28 91c0 4 4 8 8 8l89 9h1c4 0 7 -4 7 -8l-9 -89c0 -4 -4 -8 -8 -8c-33 0 -68 -5 -91 -28z" fill="currentColor"/>
</g>
<g transform="translate(15.3662, 13.3712)">
<path transform="scale(0.0040, -0.0040)" d="M222 135c53 0 104 -27 104 -86c0 -71 -56 -120 -103 -148c-36 -22 -76 -36 -118 -36c-53 0 -105 27 -105 86c0 71 57 120 104 148c36 22 76 36 118 36z" fill="currentColor"/>
</g>
<g transform="scale(1.0000, 1.0000)">
<g transform="translate(14.2712, 4.4962)">
<path stroke-width="0.2000" stroke-linejoin="round" stroke-linecap="round" stroke="currentColor" fill="none" d="M0 0.5000L0 -0.5000"/>
</g>
<g transform="translate(14.2712, 3.9962)">
<circle stroke-linejoin="round" stroke-linecap="round" fill="currentColor" stroke="currentColor" stroke-width="0.0100" r="0.2400"/>
</g>
<g transform="translate(14.7712, 4.4962)">
<path stroke-width="0.2000" stroke-linejoin="round" stroke-linecap="round" stroke="currentColor" fill="none" d="M0 0.5000L0 -0.5000"/>
</g>
<g transform="translate(14.7712, 3.9962)">
<circle stroke-linejoin="round" stroke-linecap="round" fill="currentColor" stroke="currentColor" stroke-width="0.0100" r="0.2400"/>
</g>
</g>
<g transform="translate(16.6759, 3.3712)">
<rect x="-0.0474" y="-2.3750" width="0.0948" height="3.3133" ry="0.0235" fill="currentColor"/>
</g>
<g color="rgb(50.0000%, 50.0000%, 50.0000%)">
<g transform="translate(13.3780, 17.8712)">
<text font-family="sans-serif" font-size="1.2347" text-anchor="start" fill="currentColor">
<tspan>G double</tspan>
</text>
</g>
<g transform="translate(14.3722, 19.3712)">
<text font-family="sans-serif" font-size="1.2347" text-anchor="start" fill="currentColor">
<tspan>sharp</tspan>
</text>
</g>
</g>
</svg>
