<svg xmlns="http://www.w3.org/2000/svg" xmlns:xlink="http://www.w3.org/1999/xlink" version="1.2" width="141.81mm" height="41.01mm" viewBox="0 0 47.4684 13.7260">
<style type="text/css">
<![CDATA[
tspan { white-space: pre; }
]]>
</style>
<!-- Page: 1/1 -->
<g transform="translate(0.3347, 0.3712)">
<line stroke-linejoin="round" stroke-linecap="round" stroke-width="0.0729" stroke="currentColor" x1="0.0365" y1="0" x2="46.8354" y2="0"/>
</g>
<g transform="translate(0.3347, 1.8712)">
<line stroke-linejoin="round" stroke-linecap="round" stroke-width="0.0729" stroke="currentColor" x1="0.0365" y1="0" x2="46.8354" y2="0"/>
</g>
<g transform="translate(0.3347, 4.8712)">
<line stroke-linejoin="round" stroke-linecap="round" stroke-width="0.0729" stroke="currentColor" x1="0.0365" y1="0" x2="46.8354" y2="0"/>
</g>
<g transform="translate(0.3347, 6.3712)">
<line stroke-linejoin="round" stroke-linecap="round" stroke-width="0.0729" stroke="currentColor" x1="0.0365" y1="0" x2="46.8354" y2="0"/>
</g>
<g transform="translate(0.3347, 3.3712)">
<rect x="38.2381" y="-0.0740" width="2.5313" height="0.1479" ry="0.0740" fill="currentColor"/>
</g>
<g transform="translate(0.3347, 7.8712)">
<rect x="5.0403" y="-0.0740" width="2.5786" height="0.1479" ry="0.0740" fill="currentColor"/>
</g>
<g transform="scale(1.0000, 1.0000)">
<g transform="translate(22.6039, 5.6212)">
<path stroke-width="0.0001" stroke-linejoin="round" stroke-linecap="round" stroke="currentColor" fill="currentColor" d="M1.0162 -0.5005C1.1901 -0.4580 1.3000 -0.3601 1.3267 -0.2237C1.3473 -0.1188 1.3091 0.0324 1.2347 0.1410C1.1037 0.3322 0.8787 0.4644 0.6176 0.5036C0.5244 0.5176 0.3659 0.5121 0.2884 0.4921C-0.0297 0.4098 -0.0964 0.0918 0.1475 -0.1799C0.2984 -0.3479 0.5439 -0.4756 0.7758 -0.5066C0.8400 -0.5151 0.9696 -0.5119 1.0162 -0.5005z"/>
</g>
</g>
<g color="rgb(50.0000%, 50.0000%, 50.0000%)">
<g transform="translate(20.9101, 11.3712)">
<text font-family="sans-serif" font-size="1.2347" text-anchor="start" fill="currentColor">
<tspan>F Sharp</tspan>
</text>
</g>
<g transform="translate(21.4424, 13.3712)">
<text font-family="sans-serif" font-size="1.2347" text-anchor="start" fill="currentColor">
<tspan>G Flat</tspan>
</text>
</g>
</g>
<g transform="translate(23.8888, 3.3712)">
<rect x="-0.0474" y="-1.2500" width="0.0948" height="3.3133" ry="0.0235" fill="currentColor"/>
</g>
<g transform="scale(1.0000, 1.0000)">
<g transform="translate(30.8881, 4.8712)">
<path stroke-width="0.0001" stroke-linejoin="round" stroke-linecap="round" stroke="currentColor" fill="currentColor" d="M1.0162 -0.5005C1.1901 -0.4580 1.3000 -0.3601 1.3267 -0.2237C1.3473 -0.1188 1.3091 0.0324 1.2347 0.1410C1.1037 0.3322 0.8787 0.4644 0.6176 0.5036C0.5244 0.5176 0.3659 0.5121 0.2884 0.4921C-0.0297 0.4098 -0.0964 0.0918 0.1475 -0.1799C0.2984 -0.3479 0.5439 -0.4756 0.7758 -0.5066C0.8400 -0.5151 0.9696 -0.5119 1.0162 -0.5005z"/>
</g>
</g>
<g color="rgb(50.0000%, 50.0000%, 50.0000%)">
<g transform="translate(29.0638, 11.3712)">
<text font-family="sans-serif" font-size="1.2347" text-anchor="start" fill="currentColor">
<tspan>G Sharp</tspan>
</text>
</g>
<g transform="translate(29.7869, 13.3712)">
<text font-family="sans-serif" font-size="1.2347" text-anchor="start" fill="currentColor">
<tspan>A Flat</tspan>
</text>
</g>
</g>
<g transform="translate(32.1730, 3.3712)">
<rect x="-0.0474" y="-2.0000" width="0.0948" height="3.3133" ry="0.0235" fill="currentColor"/>
</g>
<g transform="scale(1.0000, 1.0000)">
<g transform="translate(39.1724, 4.1212)">
<path stroke-width="0.0001" stroke-linejoin="round" stroke-linecap="round" stroke="currentColor" fill="currentColor" d="M1.0162 -0.5005C1.1901 -0.4580 1.3000 -0.3601 1.3267 -0.2237C1.3473 -0.1188 1.3091 0.0324 1.2347 0.1410C1.1037 0.3322 0.8787 0.4644 0.6176 0.5036C0.5244 0.5176 0.3659 0.5121 0.2884 0.4921C-0.0297 0.4098 -0.0964 0.0918 0.1475 -0.1799C0.2984 -0.3479 0.5439 -0.4756 0.7758 -0.5066C0.8400 -0.5151 0.9696 -0.5119 1.0162 -0.5005z"/>
</g>
</g>
<g color="rgb(50.0000%, 50.0000%, 50.0000%)">
<g transform="translate(37.4083, 11.3712)">
<text font-family="sans-serif" font-size="1.2347" text-anchor="start" fill="currentColor">
<tspan>A Sharp</tspan>
</text>
</g>
<g transform="translate(38.0711, 13.3712)">
<text font-family="sans-serif" font-size="1.2347" text-anchor="start" fill="currentColor">
<tspan>B Flat</tspan>
</text>
</g>
</g>
<g transform="translate(40.4573, 3.3712)">
<rect x="-0.0474" y="-2.7500" width="0.0948" height="3.3133" ry="0.0235" fill="currentColor"/>
</g>
<g color="rgb(50.0000%, 50.0000%, 50.0000%)">
<g transform="translate(4.2240, 11.3712)">
<text font-family="sans-serif" font-size="1.2347" text-anchor="start" fill="currentColor">
<tspan>C Sharp</tspan>
</text>
</g>
<g transform="translate(4.8467, 13.3712)">
<text font-family="sans-serif" font-size="1.2347" text-anchor="start" fill="currentColor">
<tspan>D Flat</tspan>
</text>
</g>
</g>
<g color="rgb(50.0000%, 50.0000%, 50.0000%)">
</g>
<g transform="scale(1.0000, 1.0000)">
<g transform="translate(5.9857, 7.4962)">
<path stroke-width="0.0001" stroke-linejoin="round" stroke-linecap="round" stroke="currentColor" fill="currentColor" d="M1.0265 -0.4999C1.2152 -0.4618 1.3372 -0.3515 1.3549 -0.2025C1.3692 -0.0828 1.3124 0.0767 1.2094 0.2063C1.0774 0.3724 0.8892 0.4721 0.6459 0.5049C0.5851 0.5131 0.5489 0.5134 0.4433 0.5068C0.3289 0.4996 0.3088 0.4966 0.2606 0.4798C0.1181 0.4300 0.0248 0.3354 0.0042 0.2196C-0.0154 0.1092 0.0352 -0.0503 0.1321 -0.1828C0.2682 -0.3692 0.4766 -0.4818 0.7307 -0.5063C0.8236 -0.5152 0.9655 -0.5122 1.0265 -0.4999zM0.8920 -0.3272C0.8019 -0.3059 0.6744 -0.2509 0.5172 -0.1656C0.1997 0.0069 0.1097 0.0977 0.1513 0.2039C0.1688 0.2487 0.1917 0.2776 0.2265 0.2986C0.3097 0.3488 0.4220 0.3375 0.6348 0.2572C0.9775 0.1280 1.2160 -0.0339 1.2240 -0.1427C1.2287 -0.2070 1.1849 -0.2813 1.1220 -0.3156C1.0837 -0.3365 1.0773 -0.3379 1.0151 -0.3393C0.9699 -0.3403 0.9308 -0.3364 0.8920 -0.3272z"/>
</g>
</g>
<g transform="translate(7.2954, 3.3712)">
<rect x="-0.0474" y="0.6250" width="0.0948" height="3.3133" ry="0.0235" fill="currentColor"/>
</g>
<g transform="scale(1.0000, 1.0000)">
<g transform="translate(14.2948, 6.7462)">
<path stroke-width="0.0001" stroke-linejoin="round" stroke-linecap="round" stroke="currentColor" fill="currentColor" d="M1.0265 -0.4999C1.2152 -0.4618 1.3372 -0.3515 1.3549 -0.2025C1.3692 -0.0828 1.3124 0.0767 1.2094 0.2063C1.0774 0.3724 0.8892 0.4721 0.6459 0.5049C0.5851 0.5131 0.5489 0.5134 0.4433 0.5068C0.3289 0.4996 0.3088 0.4966 0.2606 0.4798C0.1181 0.4300 0.0248 0.3354 0.0042 0.2196C-0.0154 0.1092 0.0352 -0.0503 0.1321 -0.1828C0.2682 -0.3692 0.4766 -0.4818 0.7307 -0.5063C0.8236 -0.5152 0.9655 -0.5122 1.0265 -0.4999zM0.8920 -0.3272C0.8019 -0.3059 0.6744 -0.2509 0.5172 -0.1656C0.1997 0.0069 0.1097 0.0977 0.1513 0.2039C0.1688 0.2487 0.1917 0.2776 0.2265 0.2986C0.3097 0.3488 0.4220 0.3375 0.6348 0.2572C0.9775 0.1280 1.2160 -0.0339 1.2240 -0.1427C1.2287 -0.2070 1.1849 -0.2813 1.1220 -0.3156C1.0837 -0.3365 1.0773 -0.3379 1.0151 -0.3393C0.9699 -0.3403 0.9308 -0.3364 0.8920 -0.3272z"/>
</g>
</g>
<g color="rgb(50.0000%, 50.0000%, 50.0000%)">
<g transform="translate(12.4930, 11.3712)">
<text font-family="sans-serif" font-size="1.2347" text-anchor="start" fill="currentColor">
<tspan>D Sharp</tspan>
</text>
</g>
<g transform="translate(13.2361, 13.3712)">
<text font-family="sans-serif" font-size="1.2347" text-anchor="start" fill="currentColor">
<tspan>E Flat</tspan>
</text>
</g>
</g>
<g transform="translate(15.6045, 3.3712)">
<rect x="-0.0474" y="-0.1250" width="0.0948" height="3.3133" ry="0.0235" fill="currentColor"/>
</g>
</svg>
