<svg xmlns="http://www.w3.org/2000/svg" xmlns:xlink="http://www.w3.org/1999/xlink" version="1.2" width="130.00mm" height="64.18mm" viewBox="0 0 43.5160 21.4827">
<style type="text/css">
<![CDATA[
tspan { white-space: pre; }
]]>
</style>
<!-- Page: 1/1 -->
<g transform="translate(0.3347, 0.3712)">
<line stroke-linejoin="round" stroke-linecap="round" stroke-width="0.0729" stroke="currentColor" x1="0.0365" y1="0" x2="42.6914" y2="0"/>
</g>
<g transform="translate(0.3347, 1.8712)">
<line stroke-linejoin="round" stroke-linecap="round" stroke-width="0.0729" stroke="currentColor" x1="0.0365" y1="0" x2="42.6914" y2="0"/>
</g>
<g transform="translate(0.3347, 4.8712)">
<line stroke-linejoin="round" stroke-linecap="round" stroke-width="0.0729" stroke="currentColor" x1="0.0365" y1="0" x2="42.6914" y2="0"/>
</g>
<g transform="translate(0.3347, 6.3712)">
<line stroke-linejoin="round" stroke-linecap="round" stroke-width="0.0729" stroke="currentColor" x1="0.0365" y1="0" x2="42.6914" y2="0"/>
</g>
<g transform="translate(17.3529, 4.8712)">
<path transform="scale(0.0040, -0.0040)" d="M367 0h-359c-4 0 -8 4 -8 8v140c0 4 4 8 8 8h359c4 0 8 -4 8 -8v-140c0 -4 -4 -8 -8 -8z" fill="currentColor"/>
</g>
<g transform="translate(24.5548, 3.3712)">
<path transform="scale(0.0040, -0.0040)" d="M-23 -113c0 26 10 40 36 40c34 0 85 -15 130 -37l-137 164c-7 8 -10 17 -10 25c0 33 49 64 86 96c26 22 39 54 39 85c0 24 -8 47 -24 67l-39 46c-2 3 -3 6 -3 9c0 7 7 14 14 14c3 0 7 -1 10 -5l152 -182c7 -8 10 -17 10 -25c0 -33 -49 -64 -86 -96
c-26 -22 -39 -54 -39 -85c0 -24 8 -47 24 -67l87 -104c2 -3 3 -5 3 -8c0 -7 -7 -14 -14 -14c-3 0 -7 1 -10 5c-19 22 -66 43 -102 43c-40 0 -52 -29 -52 -70c0 -35 11 -75 28 -96c6 -7 -4 -16 -10 -9c-46 55 -93 150 -93 204z" fill="currentColor"/>
</g>
<g transform="translate(30.5568, 3.3712)">
<path transform="scale(0.0040, -0.0040)" d="M76 -250l116 327c-35 -12 -70 -23 -107 -23c-46 0 -87 34 -87 80c0 39 31 71 71 71c26 0 49 -16 57 -40c10 -28 6 -60 35 -60c17 0 58 54 65 70c5 11 20 10 24 0l-126 -425c-7 -6 -16 -9 -24 -9s-17 3 -24 9z" fill="currentColor"/>
</g>
<g transform="translate(35.3587, 3.3712)">
<path transform="scale(0.0040, -0.0040)" d="M71 -500l100 327c-35 -13 -72 -23 -109 -23c-46 0 -87 34 -87 80c0 39 31 71 71 71c26 0 49 -16 57 -40c10 -28 6 -60 35 -60c17 0 57 53 62 70l47 152c-34 -12 -70 -23 -107 -23c-46 0 -87 34 -87 80c0 39 31 71 71 71c26 0 49 -16 57 -40c10 -28 6 -60 35 -60
c17 0 53 54 60 70c4 11 20 11 24 0l-182 -675c-7 -6 -15 -9 -23 -9s-17 3 -24 9z" fill="currentColor"/>
</g>
<g transform="translate(5.6367, 1.8712)">
<path transform="scale(0.0040, -0.0040)" d="M367 -156h-359c-4 0 -8 4 -8 8v140c0 4 4 8 8 8h359c4 0 8 -4 8 -8v-140c0 -4 -4 -8 -8 -8z" fill="currentColor"/>
</g>
<g transform="translate(0.3347, 14.9077)">
<line stroke-linejoin="round" stroke-linecap="round" stroke-width="0.0729" stroke="currentColor" x1="0.0365" y1="0" x2="42.6914" y2="0"/>
</g>
<g transform="translate(0.3347, 13.9077)">
<line stroke-linejoin="round" stroke-linecap="round" stroke-width="0.0729" stroke="currentColor" x1="0.0365" y1="0" x2="42.6914" y2="0"/>
</g>
<g transform="translate(0.3347, 12.9077)">
<line stroke-linejoin="round" stroke-linecap="round" stroke-width="0.0729" stroke="currentColor" x1="0.0365" y1="0" x2="42.6914" y2="0"/>
</g>
<g transform="translate(0.3347, 11.9077)">
<line stroke-linejoin="round" stroke-linecap="round" stroke-width="0.0729" stroke="currentColor" x1="0.0365" y1="0" x2="42.6914" y2="0"/>
</g>
<g transform="translate(0.3347, 10.9077)">
<line stroke-linejoin="round" stroke-linecap="round" stroke-width="0.0729" stroke="currentColor" x1="0.0365" y1="0" x2="42.6914" y2="0"/>
</g>
<g color="rgb(50.0000%, 50.0000%, 50.0000%)">
<g transform="translate(17.1179, 18.4442)">
<text font-family="sans-serif" font-size="1.2347" text-anchor="start" fill="currentColor">
<tspan>Half</tspan>
</text>
</g>
<g transform="translate(16.6861, 20.1278)">
<text font-family="sans-serif" font-size="1.2347" text-anchor="start" fill="currentColor">
<tspan>Rests</tspan>
</text>
</g>
</g>
<g transform="translate(24.5548, 12.9077)">
<path transform="scale(0.0040, -0.0040)" d="M-23 -113c0 26 10 40 36 40c34 0 85 -15 130 -37l-137 164c-7 8 -10 17 -10 25c0 33 49 64 86 96c26 22 39 54 39 85c0 24 -8 47 -24 67l-39 46c-2 3 -3 6 -3 9c0 7 7 14 14 14c3 0 7 -1 10 -5l152 -182c7 -8 10 -17 10 -25c0 -33 -49 -64 -86 -96
c-26 -22 -39 -54 -39 -85c0 -24 8 -47 24 -67l87 -104c2 -3 3 -5 3 -8c0 -7 -7 -14 -14 -14c-3 0 -7 1 -10 5c-19 22 -66 43 -102 43c-40 0 -52 -29 -52 -70c0 -35 11 -75 28 -96c6 -7 -4 -16 -10 -9c-46 55 -93 150 -93 204z" fill="currentColor"/>
</g>
<g color="rgb(50.0000%, 50.0000%, 50.0000%)">
<g transform="translate(22.8888, 18.4442)">
<text font-family="sans-serif" font-size="1.2347" text-anchor="start" fill="currentColor">
<tspan>Quarter</tspan>
</text>
</g>
<g transform="translate(23.6018, 20.1278)">
<text font-family="sans-serif" font-size="1.2347" text-anchor="start" fill="currentColor">
<tspan>Rests</tspan>
</text>
</g>
</g>
<g transform="translate(30.5568, 12.9077)">
<path transform="scale(0.0040, -0.0040)" d="M76 -250l116 327c-35 -12 -70 -23 -107 -23c-46 0 -87 34 -87 80c0 39 31 71 71 71c26 0 49 -16 57 -40c10 -28 6 -60 35 -60c17 0 58 54 65 70c5 11 20 10 24 0l-126 -425c-7 -6 -16 -9 -24 -9s-17 3 -24 9z" fill="currentColor"/>
</g>
<g color="rgb(50.0000%, 50.0000%, 50.0000%)">
<g transform="translate(30.0326, 18.4442)">
<text font-family="sans-serif" font-size="1.2347" text-anchor="start" fill="currentColor">
<tspan>8th</tspan>
</text>
</g>
<g transform="translate(29.3899, 20.1278)">
<text font-family="sans-serif" font-size="1.2347" text-anchor="start" fill="currentColor">
<tspan>Rests</tspan>
</text>
</g>
</g>
<g transform="translate(35.3587, 12.9077)">
<path transform="scale(0.0040, -0.0040)" d="M71 -500l100 327c-35 -13 -72 -23 -109 -23c-46 0 -87 34 -87 80c0 39 31 71 71 71c26 0 49 -16 57 -40c10 -28 6 -60 35 -60c17 0 57 53 62 70l47 152c-34 -12 -70 -23 -107 -23c-46 0 -87 34 -87 80c0 39 31 71 71 71c26 0 49 -16 57 -40c10 -28 6 -60 35 -60
c17 0 53 54 60 70c4 11 20 11 24 0l-182 -675c-7 -6 -15 -9 -23 -9s-17 3 -24 9z" fill="currentColor"/>
</g>
<g color="rgb(50.0000%, 50.0000%, 50.0000%)">
<g transform="translate(34.7763, 18.4442)">
<text font-family="sans-serif" font-size="1.2347" text-anchor="start" fill="currentColor">
<tspan>16th</tspan>
</text>
</g>
<g transform="translate(34.5252, 20.1278)">
<text font-family="sans-serif" font-size="1.2347" text-anchor="start" fill="currentColor">
<tspan>Rests</tspan>
</text>
</g>
</g>
<g color="rgb(50.0000%, 50.0000%, 50.0000%)">
<g transform="translate(4.8614, 18.4442)">
<text font-family="sans-serif" font-size="1.2347" text-anchor="start" fill="currentColor">
<tspan>Whole</tspan>
</text>
</g>
<g transform="translate(5.1326, 20.1278)">
<text font-family="sans-serif" font-size="1.2347" text-anchor="start" fill="currentColor">
<tspan>Rests</tspan>
</text>
</g>
</g>
<g transform="translate(5.6367, 11.9077)">
<path transform="scale(0.0040, -0.0040)" d="M367 -156h-359c-4 0 -8 4 -8 8v140c0 4 4 8 8 8h359c4 0 8 -4 8 -8v-140c0 -4 -4 -8 -8 -8z" fill="currentColor"/>
</g>
<g transform="translate(17.3529, 12.9077)">
<path transform="scale(0.0040, -0.0040)" d="M367 0h-359c-4 0 -8 4 -8 8v140c0 4 4 8 8 8h359c4 0 8 -4 8 -8v-140c0 -4 -4 -8 -8 -8z" fill="currentColor"/>
</g>
</svg>
