<svg xmlns="http://www.w3.org/2000/svg" xmlns:xlink="http://www.w3.org/1999/xlink" version="1.2" width="200.00mm" height="115.79mm" viewBox="0.0000 -0.0000 66.9477 38.7595">
<style type="text/css">
<![CDATA[
tspan { white-space: pre; }
]]>
</style>
<g transform="translate(0.3347, 1.7897)">
<line stroke-linejoin="round" stroke-linecap="round" stroke-width="0.0729" stroke="currentColor" x1="0.0365" y1="0" x2="66.2417" y2="0"/>
</g>
<g transform="translate(0.3347, 3.2897)">
<line stroke-linejoin="round" stroke-linecap="round" stroke-width="0.0729" stroke="currentColor" x1="0.0365" y1="0" x2="66.2417" y2="0"/>
</g>
<g transform="translate(0.3347, 6.2897)">
<line stroke-linejoin="round" stroke-linecap="round" stroke-width="0.0729" stroke="currentColor" x1="0.0365" y1="0" x2="66.2417" y2="0"/>
</g>
<g transform="translate(0.3347, 7.7897)">
<line stroke-linejoin="round" stroke-linecap="round" stroke-width="0.0729" stroke="currentColor" x1="0.0365" y1="0" x2="66.2417" y2="0"/>
</g>
<g transform="translate(66.4743, 4.7897)">
<rect x="0.0000" y="-3.0000" width="0.1386" height="6.0000" ry="0.0000" fill="currentColor"/>
</g>
<g transform="translate(66.4743, 13.7897)">
<rect x="0.0000" y="-2.0000" width="0.1386" height="4.0000" ry="0.0000" fill="currentColor"/>
</g>
<g transform="translate(27.4739, 4.7897)">
<rect x="0.0000" y="-3.0000" width="0.1386" height="6.0000" ry="0.0000" fill="currentColor"/>
</g>
<g transform="translate(46.9614, 13.7897)">
<rect x="0.0000" y="-2.0000" width="0.1386" height="4.0000" ry="0.0000" fill="currentColor"/>
</g>
<g transform="translate(27.4739, 13.7897)">
<rect x="0.0000" y="-2.0000" width="0.1386" height="4.0000" ry="0.0000" fill="currentColor"/>
</g>
<g transform="translate(46.9614, 4.7897)">
<rect x="0.0000" y="-3.0000" width="0.1386" height="6.0000" ry="0.0000" fill="currentColor"/>
</g>
<g transform="translate(0.3347, 15.7897)">
<line stroke-linejoin="round" stroke-linecap="round" stroke-width="0.0729" stroke="currentColor" x1="0.0365" y1="0" x2="66.2417" y2="0"/>
</g>
<g transform="translate(0.3347, 14.7897)">
<line stroke-linejoin="round" stroke-linecap="round" stroke-width="0.0729" stroke="currentColor" x1="0.0365" y1="0" x2="66.2417" y2="0"/>
</g>
<g transform="translate(0.3347, 13.7897)">
<line stroke-linejoin="round" stroke-linecap="round" stroke-width="0.0729" stroke="currentColor" x1="0.0365" y1="0" x2="66.2417" y2="0"/>
</g>
<g transform="translate(0.3347, 12.7897)">
<line stroke-linejoin="round" stroke-linecap="round" stroke-width="0.0729" stroke="currentColor" x1="0.0365" y1="0" x2="66.2417" y2="0"/>
</g>
<g transform="translate(0.3347, 11.7897)">
<line stroke-linejoin="round" stroke-linecap="round" stroke-width="0.0729" stroke="currentColor" x1="0.0365" y1="0" x2="66.2417" y2="0"/>
</g>
<g transform="translate(0.3347, 4.7897)">
<rect x="33.6392" y="-0.0740" width="2.5313" height="0.1479" ry="0.0740" fill="currentColor"/>
</g>
<g transform="translate(0.3347, 5.5397)">
<rect x="34.0638" y="-0.0740" width="2.1068" height="0.1479" ry="0.0740" fill="currentColor"/>
</g>
<g transform="translate(0.3347, 4.7897)">
<rect x="28.7941" y="-0.0740" width="2.5313" height="0.1479" ry="0.0740" fill="currentColor"/>
</g>
<g transform="translate(0.3347, 5.5397)">
<rect x="29.2186" y="-0.0740" width="2.1068" height="0.1479" ry="0.0740" fill="currentColor"/>
</g>
<g transform="translate(0.3347, 4.7897)">
<rect x="22.8971" y="-0.0740" width="2.1068" height="0.1479" ry="0.0740" fill="currentColor"/>
</g>
<g transform="translate(0.3347, 4.7897)">
<rect x="18.2972" y="-0.0740" width="2.5313" height="0.1479" ry="0.0740" fill="currentColor"/>
</g>
<g transform="translate(0.3347, 4.7897)">
<rect x="14.7155" y="-0.0740" width="2.1068" height="0.1479" ry="0.0740" fill="currentColor"/>
</g>
<g transform="translate(0.3347, 4.7897)">
<rect x="10.1156" y="-0.0740" width="2.5313" height="0.1479" ry="0.0740" fill="currentColor"/>
</g>
<g transform="scale(1.0000, 1.0000)">
<g transform="translate(49.2159, 6.2897)">
<path stroke-width="0.0001" stroke-linejoin="round" stroke-linecap="round" stroke="currentColor" fill="currentColor" d="M1.0162 -0.5005C1.1901 -0.4580 1.3000 -0.3601 1.3267 -0.2237C1.3473 -0.1188 1.3091 0.0324 1.2347 0.1410C1.1037 0.3322 0.8787 0.4644 0.6176 0.5036C0.5244 0.5176 0.3659 0.5121 0.2884 0.4921C-0.0297 0.4098 -0.0964 0.0918 0.1475 -0.1799C0.2984 -0.3479 0.5439 -0.4756 0.7758 -0.5066C0.8400 -0.5151 0.9696 -0.5119 1.0162 -0.5005z"/>
</g>
</g>
<g transform="translate(49.2159, 14.2897)">
<path transform="scale(0.0040, -0.0040)" d="M222 135c53 0 104 -27 104 -86c0 -71 -56 -120 -103 -148c-36 -22 -76 -36 -118 -36c-53 0 -105 27 -105 86c0 71 57 120 104 148c36 22 76 36 118 36z" fill="currentColor"/>
</g>
<g transform="translate(50.5008, 4.7897)">
<rect x="-0.0474" y="-2.0000" width="0.0948" height="3.3133" ry="0.0235" fill="currentColor"/>
</g>
<g transform="scale(1.0000, 1.0000)">
<g transform="translate(48.6209, 6.2897)">
<path stroke-width="0.2000" stroke-linejoin="round" stroke-linecap="round" stroke="currentColor" fill="none" d="M0 0.5000L0 -0.5000"/>
</g>
<g transform="translate(48.6209, 6.7897)">
<circle stroke-linejoin="round" stroke-linecap="round" fill="currentColor" stroke="currentColor" stroke-width="0.0100" r="0.2400"/>
</g>
</g>
<g transform="translate(50.4743, 13.7897)">
<rect x="-0.0474" y="-3.0000" width="0.0948" height="3.3033" ry="0.0235" fill="currentColor"/>
</g>
<g transform="translate(48.0659, 14.2897)">
<path transform="scale(0.0040, -0.0040)" d="M25 44l-1 -69c0 -4 -1 -7 -1 -11c0 -22 2 -44 4 -66c46 38 96 80 96 139c0 34 -14 69 -44 69c-31 0 -53 -29 -54 -62zM-14 -136l-11 599c8 4 16 7 25 7s17 -3 25 -7l-6 -349c26 19 56 30 88 30c53 0 93 -46 93 -100c0 -82 -90 -118 -153 -169c-14 -11 -22 -32 -40 -32
c-12 0 -21 9 -21 21z" fill="currentColor"/>
</g>
<g transform="translate(32.6235, 13.7897)">
<path transform="scale(0.0040, -0.0040)" d="M207 -157h-13c-18 0 -26 21 -40 32c-63 51 -153 87 -153 169c0 54 40 100 93 100c32 0 62 -11 88 -30l-7 349c8 4 16 7 25 7s17 -3 25 -7l-6 -349c26 19 56 30 88 30c53 0 93 -46 93 -100c0 -82 -90 -118 -153 -169c-14 -11 -22 -32 -40 -32zM175 44c-1 33 -23 62 -54 62
c-30 0 -44 -35 -44 -69c0 -59 50 -101 96 -139c2 22 4 44 4 66c0 4 -1 7 -1 11zM225 44l-1 -69c0 -4 -1 -7 -1 -11c0 -22 2 -44 4 -66c46 38 96 80 96 139c0 34 -14 69 -44 69c-31 0 -53 -29 -54 -62z" fill="currentColor"/>
</g>
<g transform="scale(1.0000, 1.0000)">
<g transform="translate(38.5723, 5.9147)">
<path stroke-width="0.0001" stroke-linejoin="round" stroke-linecap="round" stroke="currentColor" fill="currentColor" d="M1.0162 -0.5005C1.1901 -0.4580 1.3000 -0.3601 1.3267 -0.2237C1.3473 -0.1188 1.3091 0.0324 1.2347 0.1410C1.1037 0.3322 0.8787 0.4644 0.6176 0.5036C0.5244 0.5176 0.3659 0.5121 0.2884 0.4921C-0.0297 0.4098 -0.0964 0.0918 0.1475 -0.1799C0.2984 -0.3479 0.5439 -0.4756 0.7758 -0.5066C0.8400 -0.5151 0.9696 -0.5119 1.0162 -0.5005z"/>
</g>
</g>
<g transform="translate(38.5723, 14.2897)">
<path transform="scale(0.0040, -0.0040)" d="M222 135c53 0 104 -27 104 -86c0 -71 -56 -120 -103 -148c-36 -22 -76 -36 -118 -36c-53 0 -105 27 -105 86c0 71 57 120 104 148c36 22 76 36 118 36z" fill="currentColor"/>
</g>
<g transform="translate(39.8572, 4.7897)">
<rect x="-0.0474" y="-2.3750" width="0.0948" height="3.3133" ry="0.0235" fill="currentColor"/>
</g>
<g transform="translate(39.8307, 13.7897)">
<rect x="-0.0474" y="-3.0000" width="0.0948" height="3.3033" ry="0.0235" fill="currentColor"/>
</g>
<g transform="translate(41.6258, 14.2897)">
<path transform="scale(0.0040, -0.0040)" d="M149 44c-1 33 -23 62 -54 62c-30 0 -44 -35 -44 -69c0 -59 50 -101 96 -139c2 22 4 44 4 66c0 4 -1 7 -1 11zM188 -136c0 -12 -9 -21 -21 -21c-18 0 -26 21 -40 32c-63 51 -153 87 -153 169c0 54 40 100 93 100c32 0 62 -11 88 -30l-6 349c8 4 16 7 25 7s17 -3 25 -7z
" fill="currentColor"/>
</g>
<g transform="scale(1.0000, 1.0000)">
<g transform="translate(42.7477, 5.9147)">
<path stroke-width="0.0001" stroke-linejoin="round" stroke-linecap="round" stroke="currentColor" fill="currentColor" d="M1.0162 -0.5005C1.1901 -0.4580 1.3000 -0.3601 1.3267 -0.2237C1.3473 -0.1188 1.3091 0.0324 1.2347 0.1410C1.1037 0.3322 0.8787 0.4644 0.6176 0.5036C0.5244 0.5176 0.3659 0.5121 0.2884 0.4921C-0.0297 0.4098 -0.0964 0.0918 0.1475 -0.1799C0.2984 -0.3479 0.5439 -0.4756 0.7758 -0.5066C0.8400 -0.5151 0.9696 -0.5119 1.0162 -0.5005z"/>
</g>
</g>
<g transform="translate(42.7477, 14.2897)">
<path transform="scale(0.0040, -0.0040)" d="M222 135c53 0 104 -27 104 -86c0 -71 -56 -120 -103 -148c-36 -22 -76 -36 -118 -36c-53 0 -105 27 -105 86c0 71 57 120 104 148c36 22 76 36 118 36z" fill="currentColor"/>
</g>
<g transform="translate(44.0326, 4.7897)">
<rect x="-0.0474" y="-2.3750" width="0.0948" height="3.3133" ry="0.0235" fill="currentColor"/>
</g>
<g transform="translate(41.5977, 5.9147)">
<path transform="scale(0.0040, -0.0040)" d="M149 44c-1 33 -23 62 -54 62c-30 0 -44 -35 -44 -69c0 -59 50 -101 96 -139c2 22 4 44 4 66c0 4 -1 7 -1 11zM188 -136c0 -12 -9 -21 -21 -21c-18 0 -26 21 -40 32c-63 51 -153 87 -153 169c0 54 40 100 93 100c32 0 62 -11 88 -30l-6 349c8 4 16 7 25 7s17 -3 25 -7z
" fill="currentColor"/>
</g>
<g transform="translate(44.0061, 13.7897)">
<rect x="-0.0474" y="-3.0000" width="0.0948" height="3.3033" ry="0.0235" fill="currentColor"/>
</g>
<g transform="translate(61.1209, 14.7897)">
<path transform="scale(0.0040, -0.0040)" d="M149 44c-1 33 -23 62 -54 62c-30 0 -44 -35 -44 -69c0 -59 50 -101 96 -139c2 22 4 44 4 66c0 4 -1 7 -1 11zM188 -136c0 -12 -9 -21 -21 -21c-18 0 -26 21 -40 32c-63 51 -153 87 -153 169c0 54 40 100 93 100c32 0 62 -11 88 -30l-6 349c8 4 16 7 25 7s17 -3 25 -7z
" fill="currentColor"/>
</g>
<g transform="scale(1.0000, 1.0000)">
<g transform="translate(62.2428, 6.6647)">
<path stroke-width="0.0001" stroke-linejoin="round" stroke-linecap="round" stroke="currentColor" fill="currentColor" d="M1.0162 -0.5005C1.1901 -0.4580 1.3000 -0.3601 1.3267 -0.2237C1.3473 -0.1188 1.3091 0.0324 1.2347 0.1410C1.1037 0.3322 0.8787 0.4644 0.6176 0.5036C0.5244 0.5176 0.3659 0.5121 0.2884 0.4921C-0.0297 0.4098 -0.0964 0.0918 0.1475 -0.1799C0.2984 -0.3479 0.5439 -0.4756 0.7758 -0.5066C0.8400 -0.5151 0.9696 -0.5119 1.0162 -0.5005z"/>
</g>
</g>
<g transform="translate(62.2428, 14.7897)">
<path transform="scale(0.0040, -0.0040)" d="M222 135c53 0 104 -27 104 -86c0 -71 -56 -120 -103 -148c-36 -22 -76 -36 -118 -36c-53 0 -105 27 -105 86c0 71 57 120 104 148c36 22 76 36 118 36z" fill="currentColor"/>
</g>
<g transform="translate(63.5277, 4.7897)">
<rect x="-0.0474" y="-1.6250" width="0.0948" height="3.3133" ry="0.0235" fill="currentColor"/>
</g>
<g transform="translate(61.0928, 6.6647)">
<path transform="scale(0.0040, -0.0040)" d="M149 44c-1 33 -23 62 -54 62c-30 0 -44 -35 -44 -69c0 -59 50 -101 96 -139c2 22 4 44 4 66c0 4 -1 7 -1 11zM188 -136c0 -12 -9 -21 -21 -21c-18 0 -26 21 -40 32c-63 51 -153 87 -153 169c0 54 40 100 93 100c32 0 62 -11 88 -30l-6 349c8 4 16 7 25 7s17 -3 25 -7z
" fill="currentColor"/>
</g>
<g transform="translate(63.5012, 13.7897)">
<rect x="-0.0474" y="-2.5000" width="0.0948" height="3.3033" ry="0.0235" fill="currentColor"/>
</g>
<g transform="scale(1.0000, 1.0000)">
<g transform="translate(54.0610, 6.2897)">
<path stroke-width="0.0001" stroke-linejoin="round" stroke-linecap="round" stroke="currentColor" fill="currentColor" d="M1.0162 -0.5005C1.1901 -0.4580 1.3000 -0.3601 1.3267 -0.2237C1.3473 -0.1188 1.3091 0.0324 1.2347 0.1410C1.1037 0.3322 0.8787 0.4644 0.6176 0.5036C0.5244 0.5176 0.3659 0.5121 0.2884 0.4921C-0.0297 0.4098 -0.0964 0.0918 0.1475 -0.1799C0.2984 -0.3479 0.5439 -0.4756 0.7758 -0.5066C0.8400 -0.5151 0.9696 -0.5119 1.0162 -0.5005z"/>
</g>
</g>
<g transform="translate(54.0610, 14.2897)">
<path transform="scale(0.0040, -0.0040)" d="M222 135c53 0 104 -27 104 -86c0 -71 -56 -120 -103 -148c-36 -22 -76 -36 -118 -36c-53 0 -105 27 -105 86c0 71 57 120 104 148c36 22 76 36 118 36z" fill="currentColor"/>
</g>
<g transform="translate(55.3459, 4.7897)">
<rect x="-0.0474" y="-2.0000" width="0.0948" height="3.3133" ry="0.0235" fill="currentColor"/>
</g>
<g transform="scale(1.0000, 1.0000)">
<g transform="translate(52.4110, 6.2897)">
<path stroke-width="0.2000" stroke-linejoin="round" stroke-linecap="round" stroke="currentColor" fill="none" d="M0 0.5000L0 -0.5000"/>
</g>
<g transform="translate(52.4110, 6.7897)">
<circle stroke-linejoin="round" stroke-linecap="round" fill="currentColor" stroke="currentColor" stroke-width="0.0100" r="0.2400"/>
</g>
</g>
<g transform="translate(52.9110, 6.2897)">
<path transform="scale(0.0040, -0.0040)" d="M149 44c-1 33 -23 62 -54 62c-30 0 -44 -35 -44 -69c0 -59 50 -101 96 -139c2 22 4 44 4 66c0 4 -1 7 -1 11zM188 -136c0 -12 -9 -21 -21 -21c-18 0 -26 21 -40 32c-63 51 -153 87 -153 169c0 54 40 100 93 100c32 0 62 -11 88 -30l-6 349c8 4 16 7 25 7s17 -3 25 -7z
" fill="currentColor"/>
</g>
<g transform="translate(55.3194, 13.7897)">
<rect x="-0.0474" y="-3.0000" width="0.0948" height="3.3033" ry="0.0235" fill="currentColor"/>
</g>
<g transform="translate(52.1110, 14.2897)">
<path transform="scale(0.0040, -0.0040)" d="M207 -157h-13c-18 0 -26 21 -40 32c-63 51 -153 87 -153 169c0 54 40 100 93 100c32 0 62 -11 88 -30l-7 349c8 4 16 7 25 7s17 -3 25 -7l-6 -349c26 19 56 30 88 30c53 0 93 -46 93 -100c0 -82 -90 -118 -153 -169c-14 -11 -22 -32 -40 -32zM175 44c-1 33 -23 62 -54 62
c-30 0 -44 -35 -44 -69c0 -59 50 -101 96 -139c2 22 4 44 4 66c0 4 -1 7 -1 11zM225 44l-1 -69c0 -4 -1 -7 -1 -11c0 -22 2 -44 4 -66c46 38 96 80 96 139c0 34 -14 69 -44 69c-31 0 -53 -29 -54 -62z" fill="currentColor"/>
</g>
<g transform="scale(1.0000, 1.0000)">
<g transform="translate(58.0674, 6.6647)">
<path stroke-width="0.0001" stroke-linejoin="round" stroke-linecap="round" stroke="currentColor" fill="currentColor" d="M1.0162 -0.5005C1.1901 -0.4580 1.3000 -0.3601 1.3267 -0.2237C1.3473 -0.1188 1.3091 0.0324 1.2347 0.1410C1.1037 0.3322 0.8787 0.4644 0.6176 0.5036C0.5244 0.5176 0.3659 0.5121 0.2884 0.4921C-0.0297 0.4098 -0.0964 0.0918 0.1475 -0.1799C0.2984 -0.3479 0.5439 -0.4756 0.7758 -0.5066C0.8400 -0.5151 0.9696 -0.5119 1.0162 -0.5005z"/>
</g>
</g>
<g transform="translate(58.0674, 14.7897)">
<path transform="scale(0.0040, -0.0040)" d="M222 135c53 0 104 -27 104 -86c0 -71 -56 -120 -103 -148c-36 -22 -76 -36 -118 -36c-53 0 -105 27 -105 86c0 71 57 120 104 148c36 22 76 36 118 36z" fill="currentColor"/>
</g>
<g transform="translate(59.3523, 4.7897)">
<rect x="-0.0474" y="-1.6250" width="0.0948" height="3.3133" ry="0.0235" fill="currentColor"/>
</g>
<g transform="translate(59.3258, 13.7897)">
<rect x="-0.0474" y="-2.5000" width="0.0948" height="3.3033" ry="0.0235" fill="currentColor"/>
</g>
<g transform="scale(1.0000, 1.0000)">
<g transform="translate(15.2252, 4.7897)">
<path stroke-width="0.0001" stroke-linejoin="round" stroke-linecap="round" stroke="currentColor" fill="currentColor" d="M1.0162 -0.5005C1.1901 -0.4580 1.3000 -0.3601 1.3267 -0.2237C1.3473 -0.1188 1.3091 0.0324 1.2347 0.1410C1.1037 0.3322 0.8787 0.4644 0.6176 0.5036C0.5244 0.5176 0.3659 0.5121 0.2884 0.4921C-0.0297 0.4098 -0.0964 0.0918 0.1475 -0.1799C0.2984 -0.3479 0.5439 -0.4756 0.7758 -0.5066C0.8400 -0.5151 0.9696 -0.5119 1.0162 -0.5005z"/>
</g>
</g>
<g transform="translate(15.2252, 13.2897)">
<path transform="scale(0.0040, -0.0040)" d="M222 135c53 0 104 -27 104 -86c0 -71 -56 -120 -103 -148c-36 -22 -76 -36 -118 -36c-53 0 -105 27 -105 86c0 71 57 120 104 148c36 22 76 36 118 36z" fill="currentColor"/>
</g>
<g transform="translate(15.2726, 4.7897)">
<rect x="-0.0474" y="0.1867" width="0.0948" height="3.3133" ry="0.0235" fill="currentColor"/>
</g>
<g transform="translate(14.0752, 4.7897)">
<path transform="scale(0.0040, -0.0040)" d="M149 44c-1 33 -23 62 -54 62c-30 0 -44 -35 -44 -69c0 -59 50 -101 96 -139c2 22 4 44 4 66c0 4 -1 7 -1 11zM188 -136c0 -12 -9 -21 -21 -21c-18 0 -26 21 -40 32c-63 51 -153 87 -153 169c0 54 40 100 93 100c32 0 62 -11 88 -30l-6 349c8 4 16 7 25 7s17 -3 25 -7z
" fill="currentColor"/>
</g>
<g transform="translate(15.2726, 13.7897)">
<rect x="-0.0474" y="-0.3033" width="0.0948" height="3.3033" ry="0.0235" fill="currentColor"/>
</g>
<g transform="translate(14.1033, 13.2897)">
<path transform="scale(0.0040, -0.0040)" d="M149 44c-1 33 -23 62 -54 62c-30 0 -44 -35 -44 -69c0 -59 50 -101 96 -139c2 22 4 44 4 66c0 4 -1 7 -1 11zM188 -136c0 -12 -9 -21 -21 -21c-18 0 -26 21 -40 32c-63 51 -153 87 -153 169c0 54 40 100 93 100c32 0 62 -11 88 -30l-6 349c8 4 16 7 25 7s17 -3 25 -7z
" fill="currentColor"/>
</g>
<g transform="scale(1.0000, 1.0000)">
<g transform="translate(19.2315, 5.1647)">
<path stroke-width="0.0001" stroke-linejoin="round" stroke-linecap="round" stroke="currentColor" fill="currentColor" d="M1.0162 -0.5005C1.1901 -0.4580 1.3000 -0.3601 1.3267 -0.2237C1.3473 -0.1188 1.3091 0.0324 1.2347 0.1410C1.1037 0.3322 0.8787 0.4644 0.6176 0.5036C0.5244 0.5176 0.3659 0.5121 0.2884 0.4921C-0.0297 0.4098 -0.0964 0.0918 0.1475 -0.1799C0.2984 -0.3479 0.5439 -0.4756 0.7758 -0.5066C0.8400 -0.5151 0.9696 -0.5119 1.0162 -0.5005z"/>
</g>
</g>
<g transform="translate(19.2315, 13.7897)">
<path transform="scale(0.0040, -0.0040)" d="M222 135c53 0 104 -27 104 -86c0 -71 -56 -120 -103 -148c-36 -22 -76 -36 -118 -36c-53 0 -105 27 -105 86c0 71 57 120 104 148c36 22 76 36 118 36z" fill="currentColor"/>
</g>
<g transform="translate(20.5164, 4.7897)">
<rect x="-0.0474" y="-3.1250" width="0.0948" height="3.3133" ry="0.0235" fill="currentColor"/>
</g>
<g transform="translate(19.2789, 13.7897)">
<rect x="-0.0474" y="0.1967" width="0.0948" height="3.1366" ry="0.0235" fill="currentColor"/>
</g>
<g transform="translate(34.6209, 13.7897)">
<rect x="-0.0474" y="0.1967" width="0.0948" height="3.1366" ry="0.0235" fill="currentColor"/>
</g>
<g transform="scale(1.0000, 1.0000)">
<g transform="translate(23.4068, 5.1647)">
<path stroke-width="0.0001" stroke-linejoin="round" stroke-linecap="round" stroke="currentColor" fill="currentColor" d="M1.0162 -0.5005C1.1901 -0.4580 1.3000 -0.3601 1.3267 -0.2237C1.3473 -0.1188 1.3091 0.0324 1.2347 0.1410C1.1037 0.3322 0.8787 0.4644 0.6176 0.5036C0.5244 0.5176 0.3659 0.5121 0.2884 0.4921C-0.0297 0.4098 -0.0964 0.0918 0.1475 -0.1799C0.2984 -0.3479 0.5439 -0.4756 0.7758 -0.5066C0.8400 -0.5151 0.9696 -0.5119 1.0162 -0.5005z"/>
</g>
</g>
<g transform="translate(11.0973, 4.7897)">
<rect x="-0.0474" y="0.1867" width="0.0948" height="3.3133" ry="0.0235" fill="currentColor"/>
</g>
<g transform="translate(0.3180, 8.7897)">
<rect x="0.0000" y="-7.0365" width="0.1167" height="14.0729" ry="0.0365" fill="currentColor"/>
</g>
<g transform="scale(1.0000, 1.0000)">
<g transform="translate(11.0499, 4.7897)">
<path stroke-width="0.0001" stroke-linejoin="round" stroke-linecap="round" stroke="currentColor" fill="currentColor" d="M1.0162 -0.5005C1.1901 -0.4580 1.3000 -0.3601 1.3267 -0.2237C1.3473 -0.1188 1.3091 0.0324 1.2347 0.1410C1.1037 0.3322 0.8787 0.4644 0.6176 0.5036C0.5244 0.5176 0.3659 0.5121 0.2884 0.4921C-0.0297 0.4098 -0.0964 0.0918 0.1475 -0.1799C0.2984 -0.3479 0.5439 -0.4756 0.7758 -0.5066C0.8400 -0.5151 0.9696 -0.5119 1.0162 -0.5005z"/>
</g>
</g>
<g transform="scale(1.0000, 1.0000)">
<g transform="translate(1.1348, 6.6647)">
<path stroke-width="0.0001" stroke-linejoin="round" stroke-linecap="round" stroke="currentColor" fill="currentColor" d="M1.5506 -4.7684C1.5376 -4.7684 1.5066 -4.7511 1.5136 -4.7338L1.7544 -4.1729C1.8234 -3.9737 1.8444 -3.8833 1.8444 -3.6642C1.8444 -3.1620 1.5635 -2.7697 1.2174 -2.3831L1.0789 -2.2278C0.5727 -1.6898 0 -1.1644 0 -0.4591C0 0.3671 0.6414 1.0500 1.4549 1.0500C1.5319 1.0500 1.6984 1.0492 1.8799 1.0372C2.0139 1.0282 2.1594 0.9969 2.2732 0.9744C2.3771 0.9538 2.5752 0.8757 2.5752 0.8757C2.7512 0.8152 2.6612 0.6291 2.5442 0.6835C2.5442 0.6835 2.3481 0.7626 2.2449 0.7822C2.1355 0.8030 1.9939 0.8319 1.8645 0.8382C1.6935 0.8462 1.5257 0.8402 1.4569 0.8352C1.1541 0.8139 0.8667 0.6743 0.6558 0.4876C0.5148 0.3628 0.3782 0.1741 0.3582 -0.1271C0.3582 -0.7647 0.7920 -1.2315 1.2550 -1.7136L1.3978 -1.8652C1.8046 -2.2996 2.1850 -2.7583 2.1850 -3.3281C2.1850 -3.7785 1.9185 -4.4220 1.6113 -4.7568C1.5983 -4.7686 1.5713 -4.7719 1.5513 -4.7683z"/>
</g>
</g>
<g transform="scale(0.9000, 0.9000)">
<g transform="translate(2.1449, 8.1053)">
<path transform="scale(0.0040, -0.0040)" d="M208 319c21 13 42 27 57 47c11 15 18 32 25 49c4 9 20 7 20 -7v-256h68c9 0 13 -7 13 -14s-4 -13 -13 -13h-68v-16c0 -45 26 -88 68 -88c7 0 10 -5 10 -10s-3 -11 -10 -11c-41 0 -82 13 -123 13s-82 -13 -123 -13c-7 0 -10 6 -10 11s3 10 10 10c42 0 68 43 68 88v16h-173
c-21 0 -29 13 -29 21c0 2 1 5 2 6c81 96 146 208 146 333c0 8 5 15 12 15h3c22 -7 44 -13 67 -13s45 6 67 13c2 1 2 1 4 1c10 0 16 -10 11 -16l-283 -333h173v147c0 8 2 16 8 20z" fill="currentColor"/>
</g>
</g>
<g transform="scale(1.0000, 1.0000)">
<g transform="translate(5.8448, 0.6647)">
<path stroke-width="0.1500" stroke-linejoin="round" stroke-linecap="round" stroke="currentColor" fill="none" d="M0.3400 0C0.3400 -0.3400 -0.3400 -0.3400 -0.3400 0C-0.3400 0.3400 0.3400 0.3400 0.3400 0z"/>
</g>
<g transform="translate(5.8448, 1.4147)">
<path stroke-width="0.1500" stroke-linejoin="round" stroke-linecap="round" stroke="currentColor" fill="none" d="M0.3400 0C0.3400 -0.3400 -0.3400 -0.3400 -0.3400 0C-0.3400 0.3400 0.3400 0.3400 0.3400 0z"/>
</g>
<g transform="translate(5.8448, 2.1647)">
<path stroke-width="0.1500" stroke-linejoin="round" stroke-linecap="round" stroke="currentColor" fill="none" d="M0.3400 0C0.3400 -0.3400 -0.3400 -0.3400 -0.3400 0C-0.3400 0.3400 0.3400 0.3400 0.3400 0z"/>
</g>
<g transform="translate(5.8448, 2.9147)">
<path stroke-width="0.1500" stroke-linejoin="round" stroke-linecap="round" stroke="currentColor" fill="none" d="M0.3400 0C0.3400 -0.3400 -0.3400 -0.3400 -0.3400 0C-0.3400 0.3400 0.3400 0.3400 0.3400 0z"/>
</g>
<g transform="translate(5.0448, 3.2897)">
<path stroke-width="0.1400" stroke-linejoin="round" stroke-linecap="round" stroke="currentColor" fill="currentColor" d="M0.3400 0C0.3400 -0.3400 -0.3400 -0.3400 -0.3400 0C-0.3400 0.3400 0.3400 0.3400 0.3400 0z"/>
</g>
<g transform="translate(5.0448, 4.0397)">
<path stroke-width="0.1400" stroke-linejoin="round" stroke-linecap="round" stroke="currentColor" fill="currentColor" d="M0.3400 0C0.3400 -0.3400 -0.3400 -0.3400 -0.3400 0C-0.3400 0.3400 0.3400 0.3400 0.3400 0z"/>
</g>
<g transform="translate(5.0448, 4.7897)">
<path stroke-width="0.1400" stroke-linejoin="round" stroke-linecap="round" stroke="currentColor" fill="currentColor" d="M0.3400 0C0.3400 -0.3400 -0.3400 -0.3400 -0.3400 0C-0.3400 0.3400 0.3400 0.3400 0.3400 0z"/>
</g>
</g>
<g transform="translate(7.4098, 5.7540)">
<path transform="scale(0.0040, -0.0040)" d="M208 319c21 13 42 27 57 47c11 15 18 32 25 49c4 9 20 7 20 -7v-256h68c9 0 13 -7 13 -14s-4 -13 -13 -13h-68v-16c0 -45 26 -88 68 -88c7 0 10 -5 10 -10s-3 -11 -10 -11c-41 0 -82 13 -123 13s-82 -13 -123 -13c-7 0 -10 6 -10 11s3 10 10 10c42 0 68 43 68 88v16h-173
c-21 0 -29 13 -29 21c0 2 1 5 2 6c81 96 146 208 146 333c0 8 5 15 12 15h3c22 -7 44 -13 67 -13s45 6 67 13c2 1 2 1 4 1c10 0 16 -10 11 -16l-283 -333h173v147c0 8 2 16 8 20z" fill="currentColor"/>
</g>
<g transform="translate(7.4098, 7.7579)">
<path transform="scale(0.0040, -0.0040)" d="M208 319c21 13 42 27 57 47c11 15 18 32 25 49c4 9 20 7 20 -7v-256h68c9 0 13 -7 13 -14s-4 -13 -13 -13h-68v-16c0 -45 26 -88 68 -88c7 0 10 -5 10 -10s-3 -11 -10 -11c-41 0 -82 13 -123 13s-82 -13 -123 -13c-7 0 -10 6 -10 11s3 10 10 10c42 0 68 43 68 88v16h-173
c-21 0 -29 13 -29 21c0 2 1 5 2 6c81 96 146 208 146 333c0 8 5 15 12 15h3c22 -7 44 -13 67 -13s45 6 67 13c2 1 2 1 4 1c10 0 16 -10 11 -16l-283 -333h173v147c0 8 2 16 8 20z" fill="currentColor"/>
</g>
<g transform="translate(11.0499, 13.2897)">
<path transform="scale(0.0040, -0.0040)" d="M222 135c53 0 104 -27 104 -86c0 -71 -56 -120 -103 -148c-36 -22 -76 -36 -118 -36c-53 0 -105 27 -105 86c0 71 57 120 104 148c36 22 76 36 118 36z" fill="currentColor"/>
</g>
<g transform="translate(1.1348, 14.7897)">
<path transform="scale(0.0040, -0.0040)" d="M374 260c5 0 10 1 15 1c154 0 254 -127 254 -259c0 -76 -33 -153 -107 -208c-22 -17 -47 -29 -73 -37c3 -36 5 -72 5 -108c0 -19 0 -37 -1 -56c-7 -120 -88 -226 -206 -226c-108 0 -195 87 -195 195c0 58 53 104 112 104c54 0 95 -48 95 -104c0 -52 -43 -95 -95 -95
c-12 0 -24 4 -35 9c26 -41 70 -70 121 -70c96 0 157 93 163 193c1 18 2 35 2 53c0 32 -2 64 -5 96c-29 -5 -58 -8 -89 -8c-188 0 -333 171 -333 372c0 178 133 306 251 440c-18 63 -35 126 -42 191c-6 51 -7 102 -7 154c0 116 55 226 150 295c2 2 5 3 8 3s6 -1 8 -3
c70 -84 132 -246 132 -359c0 -144 -87 -256 -183 -365c20 -69 39 -138 55 -208zM459 -205c69 24 117 96 117 166c0 92 -69 184 -179 193c25 -117 48 -235 62 -359zM71 31c0 -136 131 -251 267 -251c28 0 55 2 82 6c-15 128 -38 247 -64 367c-79 -9 -125 -62 -125 -121
c0 -44 26 -92 82 -124c4 -4 7 -9 7 -14c0 -11 -9 -21 -20 -21c-3 0 -6 1 -9 2c-80 43 -116 114 -116 184c0 88 57 173 158 196c-14 60 -30 119 -46 178c-108 -121 -216 -242 -216 -402zM411 1050c-99 -50 -161 -151 -161 -262c0 -76 15 -137 33 -200c82 97 149 198 149 325
c0 58 -4 84 -21 137z" fill="currentColor"/>
</g>
<g transform="translate(7.4098, 13.7897)">
<path transform="scale(0.0040, -0.0040)" d="M360 25c-51 0 -76 43 -76 77c0 39 28 78 74 78c6 0 13 0 18 -1c-29 37 -76 60 -126 60c-106 0 -113 -73 -113 -185v-54v-54c0 -112 7 -185 113 -185c82 0 145 68 164 151c1 6 6 9 10 9c6 0 11 -4 11 -11c0 -94 -107 -171 -185 -171c-68 0 -137 20 -184 69
c-49 51 -66 122 -66 192s17 141 66 192c47 49 116 69 184 69c88 0 163 -63 178 -149c1 -5 2 -8 2 -13c0 -40 -32 -74 -70 -74z" fill="currentColor"/>
</g>
<g transform="translate(11.0973, 13.7897)">
<rect x="-0.0474" y="-0.3033" width="0.0948" height="3.3033" ry="0.0235" fill="currentColor"/>
</g>
<g transform="translate(23.4068, 13.7897)">
<path transform="scale(0.0040, -0.0040)" d="M222 135c53 0 104 -27 104 -86c0 -71 -56 -120 -103 -148c-36 -22 -76 -36 -118 -36c-53 0 -105 27 -105 86c0 71 57 120 104 148c36 22 76 36 118 36z" fill="currentColor"/>
</g>
<g transform="scale(1.0000, 1.0000)">
<g transform="translate(29.1334, 5.5397)">
<path stroke-width="0.2000" stroke-linejoin="round" stroke-linecap="round" stroke="currentColor" fill="none" d="M0 0.5000L0 -0.5000"/>
</g>
<g transform="translate(29.1334, 6.0397)">
<circle stroke-linejoin="round" stroke-linecap="round" fill="currentColor" stroke="currentColor" stroke-width="0.0100" r="0.2400"/>
</g>
</g>
<g transform="translate(29.7758, 13.7897)">
<rect x="-0.0474" y="0.1967" width="0.0948" height="3.1366" ry="0.0235" fill="currentColor"/>
</g>
<g transform="translate(28.5784, 13.7897)">
<path transform="scale(0.0040, -0.0040)" d="M25 44l-1 -69c0 -4 -1 -7 -1 -11c0 -22 2 -44 4 -66c46 38 96 80 96 139c0 34 -14 69 -44 69c-31 0 -53 -29 -54 -62zM-14 -136l-11 599c8 4 16 7 25 7s17 -3 25 -7l-6 -349c26 19 56 30 88 30c53 0 93 -46 93 -100c0 -82 -90 -118 -153 -169c-14 -11 -22 -32 -40 -32
c-12 0 -21 9 -21 21z" fill="currentColor"/>
</g>
<g transform="scale(1.0000, 1.0000)">
<g transform="translate(34.5735, 5.5397)">
<path stroke-width="0.0001" stroke-linejoin="round" stroke-linecap="round" stroke="currentColor" fill="currentColor" d="M1.0162 -0.5005C1.1901 -0.4580 1.3000 -0.3601 1.3267 -0.2237C1.3473 -0.1188 1.3091 0.0324 1.2347 0.1410C1.1037 0.3322 0.8787 0.4644 0.6176 0.5036C0.5244 0.5176 0.3659 0.5121 0.2884 0.4921C-0.0297 0.4098 -0.0964 0.0918 0.1475 -0.1799C0.2984 -0.3479 0.5439 -0.4756 0.7758 -0.5066C0.8400 -0.5151 0.9696 -0.5119 1.0162 -0.5005z"/>
</g>
</g>
<g transform="translate(34.5735, 13.7897)">
<path transform="scale(0.0040, -0.0040)" d="M222 135c53 0 104 -27 104 -86c0 -71 -56 -120 -103 -148c-36 -22 -76 -36 -118 -36c-53 0 -105 27 -105 86c0 71 57 120 104 148c36 22 76 36 118 36z" fill="currentColor"/>
</g>
<g transform="translate(35.8584, 4.7897)">
<rect x="-0.0474" y="-2.7500" width="0.0948" height="3.3133" ry="0.0235" fill="currentColor"/>
</g>
<g transform="scale(1.0000, 1.0000)">
<g transform="translate(32.9235, 5.5397)">
<path stroke-width="0.2000" stroke-linejoin="round" stroke-linecap="round" stroke="currentColor" fill="none" d="M0 0.5000L0 -0.5000"/>
</g>
<g transform="translate(32.9235, 6.0397)">
<circle stroke-linejoin="round" stroke-linecap="round" fill="currentColor" stroke="currentColor" stroke-width="0.0100" r="0.2400"/>
</g>
</g>
<g transform="translate(33.4235, 5.5397)">
<path transform="scale(0.0040, -0.0040)" d="M149 44c-1 33 -23 62 -54 62c-30 0 -44 -35 -44 -69c0 -59 50 -101 96 -139c2 22 4 44 4 66c0 4 -1 7 -1 11zM188 -136c0 -12 -9 -21 -21 -21c-18 0 -26 21 -40 32c-63 51 -153 87 -153 169c0 54 40 100 93 100c32 0 62 -11 88 -30l-6 349c8 4 16 7 25 7s17 -3 25 -7z
" fill="currentColor"/>
</g>
<g transform="translate(22.2850, 13.7897)">
<path transform="scale(0.0040, -0.0040)" d="M149 44c-1 33 -23 62 -54 62c-30 0 -44 -35 -44 -69c0 -59 50 -101 96 -139c2 22 4 44 4 66c0 4 -1 7 -1 11zM188 -136c0 -12 -9 -21 -21 -21c-18 0 -26 21 -40 32c-63 51 -153 87 -153 169c0 54 40 100 93 100c32 0 62 -11 88 -30l-6 349c8 4 16 7 25 7s17 -3 25 -7z
" fill="currentColor"/>
</g>
<g transform="translate(24.6917, 4.7897)">
<rect x="-0.0474" y="-3.1250" width="0.0948" height="3.3133" ry="0.0235" fill="currentColor"/>
</g>
<g transform="translate(22.2568, 5.1647)">
<path transform="scale(0.0040, -0.0040)" d="M149 44c-1 33 -23 62 -54 62c-30 0 -44 -35 -44 -69c0 -59 50 -101 96 -139c2 22 4 44 4 66c0 4 -1 7 -1 11zM188 -136c0 -12 -9 -21 -21 -21c-18 0 -26 21 -40 32c-63 51 -153 87 -153 169c0 54 40 100 93 100c32 0 62 -11 88 -30l-6 349c8 4 16 7 25 7s17 -3 25 -7z
" fill="currentColor"/>
</g>
<g transform="translate(23.4543, 13.7897)">
<rect x="-0.0474" y="0.1967" width="0.0948" height="3.1366" ry="0.0235" fill="currentColor"/>
</g>
<g transform="translate(31.0132, 4.7897)">
<rect x="-0.0474" y="-2.7500" width="0.0948" height="3.3133" ry="0.0235" fill="currentColor"/>
</g>
<g transform="translate(29.7284, 13.7897)">
<path transform="scale(0.0040, -0.0040)" d="M222 135c53 0 104 -27 104 -86c0 -71 -56 -120 -103 -148c-36 -22 -76 -36 -118 -36c-53 0 -105 27 -105 86c0 71 57 120 104 148c36 22 76 36 118 36z" fill="currentColor"/>
</g>
<g transform="scale(1.0000, 1.0000)">
<g transform="translate(29.7284, 5.5397)">
<path stroke-width="0.0001" stroke-linejoin="round" stroke-linecap="round" stroke="currentColor" fill="currentColor" d="M1.0162 -0.5005C1.1901 -0.4580 1.3000 -0.3601 1.3267 -0.2237C1.3473 -0.1188 1.3091 0.0324 1.2347 0.1410C1.1037 0.3322 0.8787 0.4644 0.6176 0.5036C0.5244 0.5176 0.3659 0.5121 0.2884 0.4921C-0.0297 0.4098 -0.0964 0.0918 0.1475 -0.1799C0.2984 -0.3479 0.5439 -0.4756 0.7758 -0.5066C0.8400 -0.5151 0.9696 -0.5119 1.0162 -0.5005z"/>
</g>
</g>
<g transform="translate(0.3347, 22.7897)">
<line stroke-linejoin="round" stroke-linecap="round" stroke-width="0.0729" stroke="currentColor" x1="0.0365" y1="0" x2="66.2417" y2="0"/>
</g>
<g transform="translate(0.3347, 24.2897)">
<line stroke-linejoin="round" stroke-linecap="round" stroke-width="0.0729" stroke="currentColor" x1="0.0365" y1="0" x2="66.2417" y2="0"/>
</g>
<g transform="translate(0.3347, 27.2897)">
<line stroke-linejoin="round" stroke-linecap="round" stroke-width="0.0729" stroke="currentColor" x1="0.0365" y1="0" x2="66.2417" y2="0"/>
</g>
<g transform="translate(0.3347, 28.7897)">
<line stroke-linejoin="round" stroke-linecap="round" stroke-width="0.0729" stroke="currentColor" x1="0.0365" y1="0" x2="66.2417" y2="0"/>
</g>
<g transform="translate(57.0992, 34.7897)">
<rect x="0.0000" y="-2.0000" width="0.1386" height="4.0000" ry="0.0000" fill="currentColor"/>
</g>
<g transform="translate(57.0992, 25.7897)">
<rect x="0.0000" y="-3.0000" width="0.1386" height="6.0000" ry="0.0000" fill="currentColor"/>
</g>
<g transform="translate(40.5377, 34.7897)">
<rect x="0.0000" y="-2.0000" width="0.1386" height="4.0000" ry="0.0000" fill="currentColor"/>
</g>
<g transform="translate(40.5377, 25.7897)">
<rect x="0.0000" y="-3.0000" width="0.1386" height="6.0000" ry="0.0000" fill="currentColor"/>
</g>
<g transform="translate(23.9535, 34.7897)">
<rect x="0.0000" y="-2.0000" width="0.1386" height="4.0000" ry="0.0000" fill="currentColor"/>
</g>
<g transform="translate(23.9535, 25.7897)">
<rect x="0.0000" y="-3.0000" width="0.1386" height="6.0000" ry="0.0000" fill="currentColor"/>
</g>
<g transform="translate(66.4743, 25.7897)">
<rect x="0.0000" y="-3.0000" width="0.1386" height="6.0000" ry="0.0000" fill="currentColor"/>
</g>
<g transform="translate(66.4743, 34.7897)">
<rect x="0.0000" y="-2.0000" width="0.1386" height="4.0000" ry="0.0000" fill="currentColor"/>
</g>
<g transform="translate(0.3347, 30.2897)">
<rect x="58.0907" y="-0.0740" width="3.5542" height="0.1479" ry="0.0740" fill="currentColor"/>
</g>
<g transform="translate(0.3347, 30.2897)">
<rect x="52.8634" y="-0.0740" width="2.1068" height="0.1479" ry="0.0740" fill="currentColor"/>
</g>
<g transform="translate(0.3347, 30.2897)">
<rect x="48.5190" y="-0.0740" width="2.1068" height="0.1479" ry="0.0740" fill="currentColor"/>
</g>
<g transform="translate(0.3347, 29.5397)">
<rect x="44.8707" y="-0.0740" width="2.1068" height="0.1479" ry="0.0740" fill="currentColor"/>
</g>
<g transform="translate(0.3347, 30.2897)">
<rect x="44.4462" y="-0.0740" width="2.5313" height="0.1479" ry="0.0740" fill="currentColor"/>
</g>
<g transform="translate(0.3347, 29.5397)">
<rect x="40.7715" y="-0.0740" width="2.5313" height="0.1479" ry="0.0740" fill="currentColor"/>
</g>
<g transform="translate(0.3347, 30.2897)">
<rect x="40.7715" y="-0.0740" width="2.5313" height="0.1479" ry="0.0740" fill="currentColor"/>
</g>
<g transform="translate(0.3347, 28.0397)">
<rect x="12.5145" y="-0.0740" width="2.1068" height="0.1479" ry="0.0740" fill="currentColor"/>
</g>
<g transform="translate(0.3347, 28.0397)">
<rect x="8.1700" y="-0.0740" width="2.1068" height="0.1479" ry="0.0740" fill="currentColor"/>
</g>
<g transform="translate(0.3347, 37.7897)">
<rect x="58.4354" y="-0.0865" width="2.9831" height="0.1729" ry="0.0865" fill="currentColor"/>
</g>
<g transform="translate(0.3347, 36.7897)">
<line stroke-linejoin="round" stroke-linecap="round" stroke-width="0.0729" stroke="currentColor" x1="0.0365" y1="0" x2="66.2417" y2="0"/>
</g>
<g transform="translate(0.3347, 35.7897)">
<line stroke-linejoin="round" stroke-linecap="round" stroke-width="0.0729" stroke="currentColor" x1="0.0365" y1="0" x2="66.2417" y2="0"/>
</g>
<g transform="translate(0.3347, 34.7897)">
<line stroke-linejoin="round" stroke-linecap="round" stroke-width="0.0729" stroke="currentColor" x1="0.0365" y1="0" x2="66.2417" y2="0"/>
</g>
<g transform="translate(0.3347, 33.7897)">
<line stroke-linejoin="round" stroke-linecap="round" stroke-width="0.0729" stroke="currentColor" x1="0.0365" y1="0" x2="66.2417" y2="0"/>
</g>
<g transform="translate(0.3347, 32.7897)">
<line stroke-linejoin="round" stroke-linecap="round" stroke-width="0.0729" stroke="currentColor" x1="0.0365" y1="0" x2="66.2417" y2="0"/>
</g>
<g transform="scale(1.0000, 1.0000)">
<g transform="translate(49.0287, 29.9147)">
<path stroke-width="0.0001" stroke-linejoin="round" stroke-linecap="round" stroke="currentColor" fill="currentColor" d="M1.0162 -0.5005C1.1901 -0.4580 1.3000 -0.3601 1.3267 -0.2237C1.3473 -0.1188 1.3091 0.0324 1.2347 0.1410C1.1037 0.3322 0.8787 0.4644 0.6176 0.5036C0.5244 0.5176 0.3659 0.5121 0.2884 0.4921C-0.0297 0.4098 -0.0964 0.0918 0.1475 -0.1799C0.2984 -0.3479 0.5439 -0.4756 0.7758 -0.5066C0.8400 -0.5151 0.9696 -0.5119 1.0162 -0.5005z"/>
</g>
</g>
<g transform="translate(42.9642, 34.7897)">
<rect x="-0.0474" y="-1.0000" width="0.0948" height="3.3033" ry="0.0235" fill="currentColor"/>
</g>
<g transform="scale(1.0000, 1.0000)">
<g transform="translate(45.3805, 29.5397)">
<path stroke-width="0.0001" stroke-linejoin="round" stroke-linecap="round" stroke="currentColor" fill="currentColor" d="M1.0162 -0.5005C1.1901 -0.4580 1.3000 -0.3601 1.3267 -0.2237C1.3473 -0.1188 1.3091 0.0324 1.2347 0.1410C1.1037 0.3322 0.8787 0.4644 0.6176 0.5036C0.5244 0.5176 0.3659 0.5121 0.2884 0.4921C-0.0297 0.4098 -0.0964 0.0918 0.1475 -0.1799C0.2984 -0.3479 0.5439 -0.4756 0.7758 -0.5066C0.8400 -0.5151 0.9696 -0.5119 1.0162 -0.5005z"/>
</g>
</g>
<g transform="translate(45.3805, 37.2897)">
<path transform="scale(0.0040, -0.0040)" d="M222 135c53 0 104 -27 104 -86c0 -71 -56 -120 -103 -148c-36 -22 -76 -36 -118 -36c-53 0 -105 27 -105 86c0 71 57 120 104 148c36 22 76 36 118 36z" fill="currentColor"/>
</g>
<g transform="translate(46.6654, 25.7897)">
<rect x="-0.0474" y="0.2500" width="0.0948" height="3.3133" ry="0.0235" fill="currentColor"/>
</g>
<g transform="translate(44.2586, 37.2897)">
<path transform="scale(0.0040, -0.0040)" d="M149 44c-1 33 -23 62 -54 62c-30 0 -44 -35 -44 -69c0 -59 50 -101 96 -139c2 22 4 44 4 66c0 4 -1 7 -1 11zM188 -136c0 -12 -9 -21 -21 -21c-18 0 -26 21 -40 32c-63 51 -153 87 -153 169c0 54 40 100 93 100c32 0 62 -11 88 -30l-6 349c8 4 16 7 25 7s17 -3 25 -7z
" fill="currentColor"/>
</g>
<g transform="translate(44.2305, 29.5397)">
<path transform="scale(0.0040, -0.0040)" d="M149 44c-1 33 -23 62 -54 62c-30 0 -44 -35 -44 -69c0 -59 50 -101 96 -139c2 22 4 44 4 66c0 4 -1 7 -1 11zM188 -136c0 -12 -9 -21 -21 -21c-18 0 -26 21 -40 32c-63 51 -153 87 -153 169c0 54 40 100 93 100c32 0 62 -11 88 -30l-6 349c8 4 16 7 25 7s17 -3 25 -7z
" fill="currentColor"/>
</g>
<g transform="translate(46.6389, 34.7897)">
<rect x="-0.0474" y="-1.0000" width="0.0948" height="3.3033" ry="0.0235" fill="currentColor"/>
</g>
<g transform="translate(31.2945, 36.7897)">
<path transform="scale(0.0040, -0.0040)" d="M25 44l-1 -69c0 -4 -1 -7 -1 -11c0 -22 2 -44 4 -66c46 38 96 80 96 139c0 34 -14 69 -44 69c-31 0 -53 -29 -54 -62zM-14 -136l-11 599c8 4 16 7 25 7s17 -3 25 -7l-6 -349c26 19 56 30 88 30c53 0 93 -46 93 -100c0 -82 -90 -118 -153 -169c-14 -11 -22 -32 -40 -32
c-12 0 -21 9 -21 21z" fill="currentColor"/>
</g>
<g transform="scale(1.0000, 1.0000)">
<g transform="translate(36.7890, 29.1647)">
<path stroke-width="0.0001" stroke-linejoin="round" stroke-linecap="round" stroke="currentColor" fill="currentColor" d="M1.0162 -0.5005C1.1901 -0.4580 1.3000 -0.3601 1.3267 -0.2237C1.3473 -0.1188 1.3091 0.0324 1.2347 0.1410C1.1037 0.3322 0.8787 0.4644 0.6176 0.5036C0.5244 0.5176 0.3659 0.5121 0.2884 0.4921C-0.0297 0.4098 -0.0964 0.0918 0.1475 -0.1799C0.2984 -0.3479 0.5439 -0.4756 0.7758 -0.5066C0.8400 -0.5151 0.9696 -0.5119 1.0162 -0.5005z"/>
</g>
</g>
<g transform="translate(36.7890, 36.7897)">
<path transform="scale(0.0040, -0.0040)" d="M222 135c53 0 104 -27 104 -86c0 -71 -56 -120 -103 -148c-36 -22 -76 -36 -118 -36c-53 0 -105 27 -105 86c0 71 57 120 104 148c36 22 76 36 118 36z" fill="currentColor"/>
</g>
<g transform="translate(38.0738, 25.7897)">
<rect x="-0.0474" y="-0.1250" width="0.0948" height="3.3133" ry="0.0235" fill="currentColor"/>
</g>
<g transform="scale(1.0000, 1.0000)">
<g transform="translate(35.1390, 29.1647)">
<path stroke-width="0.2000" stroke-linejoin="round" stroke-linecap="round" stroke="currentColor" fill="none" d="M0 0.5000L0 -0.5000"/>
</g>
<g transform="translate(35.1390, 29.6647)">
<circle stroke-linejoin="round" stroke-linecap="round" fill="currentColor" stroke="currentColor" stroke-width="0.0100" r="0.2400"/>
</g>
</g>
<g transform="translate(35.6390, 29.1647)">
<path transform="scale(0.0040, -0.0040)" d="M149 44c-1 33 -23 62 -54 62c-30 0 -44 -35 -44 -69c0 -59 50 -101 96 -139c2 22 4 44 4 66c0 4 -1 7 -1 11zM188 -136c0 -12 -9 -21 -21 -21c-18 0 -26 21 -40 32c-63 51 -153 87 -153 169c0 54 40 100 93 100c32 0 62 -11 88 -30l-6 349c8 4 16 7 25 7s17 -3 25 -7z
" fill="currentColor"/>
</g>
<g transform="translate(38.0474, 34.7897)">
<rect x="-0.0474" y="-1.5000" width="0.0948" height="3.3033" ry="0.0235" fill="currentColor"/>
</g>
<g transform="translate(34.8390, 36.7897)">
<path transform="scale(0.0040, -0.0040)" d="M207 -157h-13c-18 0 -26 21 -40 32c-63 51 -153 87 -153 169c0 54 40 100 93 100c32 0 62 -11 88 -30l-7 349c8 4 16 7 25 7s17 -3 25 -7l-6 -349c26 19 56 30 88 30c53 0 93 -46 93 -100c0 -82 -90 -118 -153 -169c-14 -11 -22 -32 -40 -32zM175 44c-1 33 -23 62 -54 62
c-30 0 -44 -35 -44 -69c0 -59 50 -101 96 -139c2 22 4 44 4 66c0 4 -1 7 -1 11zM225 44l-1 -69c0 -4 -1 -7 -1 -11c0 -22 2 -44 4 -66c46 38 96 80 96 139c0 34 -14 69 -44 69c-31 0 -53 -29 -54 -62z" fill="currentColor"/>
</g>
<g transform="scale(1.0000, 1.0000)">
<g transform="translate(41.7058, 29.5397)">
<path stroke-width="0.0001" stroke-linejoin="round" stroke-linecap="round" stroke="currentColor" fill="currentColor" d="M1.0162 -0.5005C1.1901 -0.4580 1.3000 -0.3601 1.3267 -0.2237C1.3473 -0.1188 1.3091 0.0324 1.2347 0.1410C1.1037 0.3322 0.8787 0.4644 0.6176 0.5036C0.5244 0.5176 0.3659 0.5121 0.2884 0.4921C-0.0297 0.4098 -0.0964 0.0918 0.1475 -0.1799C0.2984 -0.3479 0.5439 -0.4756 0.7758 -0.5066C0.8400 -0.5151 0.9696 -0.5119 1.0162 -0.5005z"/>
</g>
</g>
<g transform="translate(41.7058, 37.2897)">
<path transform="scale(0.0040, -0.0040)" d="M222 135c53 0 104 -27 104 -86c0 -71 -56 -120 -103 -148c-36 -22 -76 -36 -118 -36c-53 0 -105 27 -105 86c0 71 57 120 104 148c36 22 76 36 118 36z" fill="currentColor"/>
</g>
<g transform="translate(42.9907, 25.7897)">
<rect x="-0.0474" y="0.2500" width="0.0948" height="3.3133" ry="0.0235" fill="currentColor"/>
</g>
<g transform="translate(50.3136, 25.7897)">
<rect x="-0.0474" y="0.6250" width="0.0948" height="3.3133" ry="0.0235" fill="currentColor"/>
</g>
<g transform="scale(1.0000, 1.0000)">
<g transform="translate(48.4337, 29.9147)">
<path stroke-width="0.2000" stroke-linejoin="round" stroke-linecap="round" stroke="currentColor" fill="none" d="M0 0.5000L0 -0.5000"/>
</g>
<g transform="translate(48.4337, 30.4147)">
<circle stroke-linejoin="round" stroke-linecap="round" fill="currentColor" stroke="currentColor" stroke-width="0.0100" r="0.2400"/>
</g>
</g>
<g transform="translate(50.2871, 34.7897)">
<rect x="-0.0474" y="-1.0000" width="0.0948" height="3.3033" ry="0.0235" fill="currentColor"/>
</g>
<g transform="translate(47.8787, 37.2897)">
<path transform="scale(0.0040, -0.0040)" d="M25 44l-1 -69c0 -4 -1 -7 -1 -11c0 -22 2 -44 4 -66c46 38 96 80 96 139c0 34 -14 69 -44 69c-31 0 -53 -29 -54 -62zM-14 -136l-11 599c8 4 16 7 25 7s17 -3 25 -7l-6 -349c26 19 56 30 88 30c53 0 93 -46 93 -100c0 -82 -90 -118 -153 -169c-14 -11 -22 -32 -40 -32
c-12 0 -21 9 -21 21z" fill="currentColor"/>
</g>
<g transform="scale(1.0000, 1.0000)">
<g transform="translate(53.3732, 29.9147)">
<path stroke-width="0.0001" stroke-linejoin="round" stroke-linecap="round" stroke="currentColor" fill="currentColor" d="M1.0162 -0.5005C1.1901 -0.4580 1.3000 -0.3601 1.3267 -0.2237C1.3473 -0.1188 1.3091 0.0324 1.2347 0.1410C1.1037 0.3322 0.8787 0.4644 0.6176 0.5036C0.5244 0.5176 0.3659 0.5121 0.2884 0.4921C-0.0297 0.4098 -0.0964 0.0918 0.1475 -0.1799C0.2984 -0.3479 0.5439 -0.4756 0.7758 -0.5066C0.8400 -0.5151 0.9696 -0.5119 1.0162 -0.5005z"/>
</g>
</g>
<g transform="translate(53.3732, 37.2897)">
<path transform="scale(0.0040, -0.0040)" d="M222 135c53 0 104 -27 104 -86c0 -71 -56 -120 -103 -148c-36 -22 -76 -36 -118 -36c-53 0 -105 27 -105 86c0 71 57 120 104 148c36 22 76 36 118 36z" fill="currentColor"/>
</g>
<g transform="translate(54.6581, 25.7897)">
<rect x="-0.0474" y="0.6250" width="0.0948" height="3.3133" ry="0.0235" fill="currentColor"/>
</g>
<g transform="translate(49.0287, 37.2897)">
<path transform="scale(0.0040, -0.0040)" d="M222 135c53 0 104 -27 104 -86c0 -71 -56 -120 -103 -148c-36 -22 -76 -36 -118 -36c-53 0 -105 27 -105 86c0 71 57 120 104 148c36 22 76 36 118 36z" fill="currentColor"/>
</g>
<g transform="scale(1.0000, 1.0000)">
<g transform="translate(51.7232, 29.9147)">
<path stroke-width="0.2000" stroke-linejoin="round" stroke-linecap="round" stroke="currentColor" fill="none" d="M0 0.5000L0 -0.5000"/>
</g>
<g transform="translate(51.7232, 30.4147)">
<circle stroke-linejoin="round" stroke-linecap="round" fill="currentColor" stroke="currentColor" stroke-width="0.0100" r="0.2400"/>
</g>
</g>
<g transform="translate(52.2232, 29.9147)">
<path transform="scale(0.0040, -0.0040)" d="M149 44c-1 33 -23 62 -54 62c-30 0 -44 -35 -44 -69c0 -59 50 -101 96 -139c2 22 4 44 4 66c0 4 -1 7 -1 11zM188 -136c0 -12 -9 -21 -21 -21c-18 0 -26 21 -40 32c-63 51 -153 87 -153 169c0 54 40 100 93 100c32 0 62 -11 88 -30l-6 349c8 4 16 7 25 7s17 -3 25 -7z
" fill="currentColor"/>
</g>
<g transform="translate(54.6316, 34.7897)">
<rect x="-0.0474" y="-1.0000" width="0.0948" height="3.3033" ry="0.0235" fill="currentColor"/>
</g>
<g transform="translate(51.4232, 37.2897)">
<path transform="scale(0.0040, -0.0040)" d="M207 -157h-13c-18 0 -26 21 -40 32c-63 51 -153 87 -153 169c0 54 40 100 93 100c32 0 62 -11 88 -30l-7 349c8 4 16 7 25 7s17 -3 25 -7l-6 -349c26 19 56 30 88 30c53 0 93 -46 93 -100c0 -82 -90 -118 -153 -169c-14 -11 -22 -32 -40 -32zM175 44c-1 33 -23 62 -54 62
c-30 0 -44 -35 -44 -69c0 -59 50 -101 96 -139c2 22 4 44 4 66c0 4 -1 7 -1 11zM225 44l-1 -69c0 -4 -1 -7 -1 -11c0 -22 2 -44 4 -66c46 38 96 80 96 139c0 34 -14 69 -44 69c-31 0 -53 -29 -54 -62z" fill="currentColor"/>
</g>
<g transform="scale(1.0000, 1.0000)">
<g transform="translate(59.2673, 30.2897)">
<path stroke-width="0.0001" stroke-linejoin="round" stroke-linecap="round" stroke="currentColor" fill="currentColor" d="M0 0C0 -0.1605 0.1269 -0.2800 0.2726 -0.3584C0.4742 -0.4667 0.7056 -0.5078 0.9334 -0.5078C1.1611 -0.5078 1.3964 -0.4667 1.5980 -0.3584C1.7436 -0.2800 1.8705 -0.1605 1.8705 0C1.8705 0.1605 1.7436 0.2800 1.5980 0.3584C1.3964 0.4667 1.1611 0.5078 0.9334 0.5078C0.7056 0.5078 0.4742 0.4667 0.2726 0.3584C0.1269 0.2800 0 0.1605 0 0zM1.0603 0.3657C1.2470 0.3657 1.3254 0.2688 1.3254 0.0971C1.3254 -0.1979 1.1014 -0.3657 0.8065 -0.3657C0.6198 -0.3657 0.5451 -0.2688 0.5451 -0.0971C0.5451 0.1979 0.7654 0.3657 1.0603 0.3657z"/>
</g>
</g>
<g transform="translate(59.2673, 37.7897)">
<path transform="scale(0.0040, -0.0040)" d="M215 114c-50 0 -71 -42 -71 -88c0 -79 60 -140 139 -140c50 0 70 42 70 88c0 79 -59 140 -138 140zM497 0c0 -43 -35 -74 -73 -95c-54 -29 -114 -40 -175 -40s-122 11 -176 40c-38 21 -73 52 -73 95s35 74 73 95c54 29 115 40 176 40s121 -11 175 -40
c38 -21 73 -52 73 -95z" fill="currentColor"/>
</g>
<g transform="translate(7.5298, 35.7897)">
<path transform="scale(0.0040, -0.0040)" d="M25 44l-1 -69c0 -4 -1 -7 -1 -11c0 -22 2 -44 4 -66c46 38 96 80 96 139c0 34 -14 69 -44 69c-31 0 -53 -29 -54 -62zM-14 -136l-11 599c8 4 16 7 25 7s17 -3 25 -7l-6 -349c26 19 56 30 88 30c53 0 93 -46 93 -100c0 -82 -90 -118 -153 -169c-14 -11 -22 -32 -40 -32
c-12 0 -21 9 -21 21z" fill="currentColor"/>
</g>
<g transform="scale(1.0000, 1.0000)">
<g transform="translate(13.0243, 28.0397)">
<path stroke-width="0.0001" stroke-linejoin="round" stroke-linecap="round" stroke="currentColor" fill="currentColor" d="M1.0162 -0.5005C1.1901 -0.4580 1.3000 -0.3601 1.3267 -0.2237C1.3473 -0.1188 1.3091 0.0324 1.2347 0.1410C1.1037 0.3322 0.8787 0.4644 0.6176 0.5036C0.5244 0.5176 0.3659 0.5121 0.2884 0.4921C-0.0297 0.4098 -0.0964 0.0918 0.1475 -0.1799C0.2984 -0.3479 0.5439 -0.4756 0.7758 -0.5066C0.8400 -0.5151 0.9696 -0.5119 1.0162 -0.5005z"/>
</g>
</g>
<g transform="translate(13.0243, 35.7897)">
<path transform="scale(0.0040, -0.0040)" d="M222 135c53 0 104 -27 104 -86c0 -71 -56 -120 -103 -148c-36 -22 -76 -36 -118 -36c-53 0 -105 27 -105 86c0 71 57 120 104 148c36 22 76 36 118 36z" fill="currentColor"/>
</g>
<g transform="translate(14.3091, 25.7897)">
<rect x="-0.0474" y="-1.2500" width="0.0948" height="3.3133" ry="0.0235" fill="currentColor"/>
</g>
<g transform="scale(1.0000, 1.0000)">
<g transform="translate(11.3743, 28.0397)">
<path stroke-width="0.2000" stroke-linejoin="round" stroke-linecap="round" stroke="currentColor" fill="none" d="M0 0.5000L0 -0.5000"/>
</g>
<g transform="translate(11.3743, 28.5397)">
<circle stroke-linejoin="round" stroke-linecap="round" fill="currentColor" stroke="currentColor" stroke-width="0.0100" r="0.2400"/>
</g>
</g>
<g transform="translate(11.8743, 28.0397)">
<path transform="scale(0.0040, -0.0040)" d="M149 44c-1 33 -23 62 -54 62c-30 0 -44 -35 -44 -69c0 -59 50 -101 96 -139c2 22 4 44 4 66c0 4 -1 7 -1 11zM188 -136c0 -12 -9 -21 -21 -21c-18 0 -26 21 -40 32c-63 51 -153 87 -153 169c0 54 40 100 93 100c32 0 62 -11 88 -30l-6 349c8 4 16 7 25 7s17 -3 25 -7z
" fill="currentColor"/>
</g>
<g transform="translate(14.2827, 34.7897)">
<rect x="-0.0474" y="-2.5000" width="0.0948" height="3.3033" ry="0.0235" fill="currentColor"/>
</g>
<g transform="translate(11.0743, 35.7897)">
<path transform="scale(0.0040, -0.0040)" d="M207 -157h-13c-18 0 -26 21 -40 32c-63 51 -153 87 -153 169c0 54 40 100 93 100c32 0 62 -11 88 -30l-7 349c8 4 16 7 25 7s17 -3 25 -7l-6 -349c26 19 56 30 88 30c53 0 93 -46 93 -100c0 -82 -90 -118 -153 -169c-14 -11 -22 -32 -40 -32zM175 44c-1 33 -23 62 -54 62
c-30 0 -44 -35 -44 -69c0 -59 50 -101 96 -139c2 22 4 44 4 66c0 4 -1 7 -1 11zM225 44l-1 -69c0 -4 -1 -7 -1 -11c0 -22 2 -44 4 -66c46 38 96 80 96 139c0 34 -14 69 -44 69c-31 0 -53 -29 -54 -62z" fill="currentColor"/>
</g>
<g transform="scale(1.0000, 1.0000)">
<g transform="translate(16.5300, 28.4147)">
<path stroke-width="0.0001" stroke-linejoin="round" stroke-linecap="round" stroke="currentColor" fill="currentColor" d="M1.0162 -0.5005C1.1901 -0.4580 1.3000 -0.3601 1.3267 -0.2237C1.3473 -0.1188 1.3091 0.0324 1.2347 0.1410C1.1037 0.3322 0.8787 0.4644 0.6176 0.5036C0.5244 0.5176 0.3659 0.5121 0.2884 0.4921C-0.0297 0.4098 -0.0964 0.0918 0.1475 -0.1799C0.2984 -0.3479 0.5439 -0.4756 0.7758 -0.5066C0.8400 -0.5151 0.9696 -0.5119 1.0162 -0.5005z"/>
</g>
</g>
<g transform="translate(16.5300, 36.2897)">
<path transform="scale(0.0040, -0.0040)" d="M222 135c53 0 104 -27 104 -86c0 -71 -56 -120 -103 -148c-36 -22 -76 -36 -118 -36c-53 0 -105 27 -105 86c0 71 57 120 104 148c36 22 76 36 118 36z" fill="currentColor"/>
</g>
<g transform="translate(17.8149, 25.7897)">
<rect x="-0.0474" y="-0.8750" width="0.0948" height="3.3133" ry="0.0235" fill="currentColor"/>
</g>
<g transform="translate(17.7884, 34.7897)">
<rect x="-0.0474" y="-2.0000" width="0.0948" height="3.3033" ry="0.0235" fill="currentColor"/>
</g>
<g transform="translate(33.7029, 34.7897)">
<rect x="-0.0474" y="-1.5000" width="0.0948" height="3.3033" ry="0.0235" fill="currentColor"/>
</g>
<g transform="translate(20.2047, 36.2897)">
<path transform="scale(0.0040, -0.0040)" d="M222 135c53 0 104 -27 104 -86c0 -71 -56 -120 -103 -148c-36 -22 -76 -36 -118 -36c-53 0 -105 27 -105 86c0 71 57 120 104 148c36 22 76 36 118 36z" fill="currentColor"/>
</g>
<g transform="translate(21.4896, 25.7897)">
<rect x="-0.0474" y="-0.8750" width="0.0948" height="3.3133" ry="0.0235" fill="currentColor"/>
</g>
<g transform="translate(0.3180, 29.7897)">
<rect x="0.0000" y="-7.0365" width="0.1167" height="14.0729" ry="0.0365" fill="currentColor"/>
</g>
<g transform="scale(1.0000, 1.0000)">
<g transform="translate(1.1348, 27.6647)">
<path stroke-width="0.0001" stroke-linejoin="round" stroke-linecap="round" stroke="currentColor" fill="currentColor" d="M1.5506 -4.7684C1.5376 -4.7684 1.5066 -4.7511 1.5136 -4.7338L1.7544 -4.1729C1.8234 -3.9737 1.8444 -3.8833 1.8444 -3.6642C1.8444 -3.1620 1.5635 -2.7697 1.2174 -2.3831L1.0789 -2.2278C0.5727 -1.6898 0 -1.1644 0 -0.4591C0 0.3671 0.6414 1.0500 1.4549 1.0500C1.5319 1.0500 1.6984 1.0492 1.8799 1.0372C2.0139 1.0282 2.1594 0.9969 2.2732 0.9744C2.3771 0.9538 2.5752 0.8757 2.5752 0.8757C2.7512 0.8152 2.6612 0.6291 2.5442 0.6835C2.5442 0.6835 2.3481 0.7626 2.2449 0.7822C2.1355 0.8030 1.9939 0.8319 1.8645 0.8382C1.6935 0.8462 1.5257 0.8402 1.4569 0.8352C1.1541 0.8139 0.8667 0.6743 0.6558 0.4876C0.5148 0.3628 0.3782 0.1741 0.3582 -0.1271C0.3582 -0.7647 0.7920 -1.2315 1.2550 -1.7136L1.3978 -1.8652C1.8046 -2.2996 2.1850 -2.7583 2.1850 -3.3281C2.1850 -3.7785 1.9185 -4.4220 1.6113 -4.7568C1.5983 -4.7686 1.5713 -4.7719 1.5513 -4.7683z"/>
</g>
</g>
<g transform="scale(0.9000, 0.9000)">
<g transform="translate(2.1449, 31.4386)">
<path transform="scale(0.0040, -0.0040)" d="M208 319c21 13 42 27 57 47c11 15 18 32 25 49c4 9 20 7 20 -7v-256h68c9 0 13 -7 13 -14s-4 -13 -13 -13h-68v-16c0 -45 26 -88 68 -88c7 0 10 -5 10 -10s-3 -11 -10 -11c-41 0 -82 13 -123 13s-82 -13 -123 -13c-7 0 -10 6 -10 11s3 10 10 10c42 0 68 43 68 88v16h-173
c-21 0 -29 13 -29 21c0 2 1 5 2 6c81 96 146 208 146 333c0 8 5 15 12 15h3c22 -7 44 -13 67 -13s45 6 67 13c2 1 2 1 4 1c10 0 16 -10 11 -16l-283 -333h173v147c0 8 2 16 8 20z" fill="currentColor"/>
</g>
</g>
<g transform="scale(1.0000, 1.0000)">
<g transform="translate(5.8448, 21.6647)">
<path stroke-width="0.1500" stroke-linejoin="round" stroke-linecap="round" stroke="currentColor" fill="none" d="M0.3400 0C0.3400 -0.3400 -0.3400 -0.3400 -0.3400 0C-0.3400 0.3400 0.3400 0.3400 0.3400 0z"/>
</g>
<g transform="translate(5.8448, 22.4147)">
<path stroke-width="0.1500" stroke-linejoin="round" stroke-linecap="round" stroke="currentColor" fill="none" d="M0.3400 0C0.3400 -0.3400 -0.3400 -0.3400 -0.3400 0C-0.3400 0.3400 0.3400 0.3400 0.3400 0z"/>
</g>
<g transform="translate(5.8448, 23.1647)">
<path stroke-width="0.1500" stroke-linejoin="round" stroke-linecap="round" stroke="currentColor" fill="none" d="M0.3400 0C0.3400 -0.3400 -0.3400 -0.3400 -0.3400 0C-0.3400 0.3400 0.3400 0.3400 0.3400 0z"/>
</g>
<g transform="translate(5.8448, 23.9147)">
<path stroke-width="0.1500" stroke-linejoin="round" stroke-linecap="round" stroke="currentColor" fill="none" d="M0.3400 0C0.3400 -0.3400 -0.3400 -0.3400 -0.3400 0C-0.3400 0.3400 0.3400 0.3400 0.3400 0z"/>
</g>
<g transform="translate(5.0448, 24.2897)">
<path stroke-width="0.1400" stroke-linejoin="round" stroke-linecap="round" stroke="currentColor" fill="currentColor" d="M0.3400 0C0.3400 -0.3400 -0.3400 -0.3400 -0.3400 0C-0.3400 0.3400 0.3400 0.3400 0.3400 0z"/>
</g>
<g transform="translate(5.0448, 25.0397)">
<path stroke-width="0.1400" stroke-linejoin="round" stroke-linecap="round" stroke="currentColor" fill="currentColor" d="M0.3400 0C0.3400 -0.3400 -0.3400 -0.3400 -0.3400 0C-0.3400 0.3400 0.3400 0.3400 0.3400 0z"/>
</g>
<g transform="translate(5.0448, 25.7897)">
<path stroke-width="0.1400" stroke-linejoin="round" stroke-linecap="round" stroke="currentColor" fill="currentColor" d="M0.3400 0C0.3400 -0.3400 -0.3400 -0.3400 -0.3400 0C-0.3400 0.3400 0.3400 0.3400 0.3400 0z"/>
</g>
</g>
<g transform="translate(1.1348, 35.7897)">
<path transform="scale(0.0040, -0.0040)" d="M374 260c5 0 10 1 15 1c154 0 254 -127 254 -259c0 -76 -33 -153 -107 -208c-22 -17 -47 -29 -73 -37c3 -36 5 -72 5 -108c0 -19 0 -37 -1 -56c-7 -120 -88 -226 -206 -226c-108 0 -195 87 -195 195c0 58 53 104 112 104c54 0 95 -48 95 -104c0 -52 -43 -95 -95 -95
c-12 0 -24 4 -35 9c26 -41 70 -70 121 -70c96 0 157 93 163 193c1 18 2 35 2 53c0 32 -2 64 -5 96c-29 -5 -58 -8 -89 -8c-188 0 -333 171 -333 372c0 178 133 306 251 440c-18 63 -35 126 -42 191c-6 51 -7 102 -7 154c0 116 55 226 150 295c2 2 5 3 8 3s6 -1 8 -3
c70 -84 132 -246 132 -359c0 -144 -87 -256 -183 -365c20 -69 39 -138 55 -208zM459 -205c69 24 117 96 117 166c0 92 -69 184 -179 193c25 -117 48 -235 62 -359zM71 31c0 -136 131 -251 267 -251c28 0 55 2 82 6c-15 128 -38 247 -64 367c-79 -9 -125 -62 -125 -121
c0 -44 26 -92 82 -124c4 -4 7 -9 7 -14c0 -11 -9 -21 -20 -21c-3 0 -6 1 -9 2c-80 43 -116 114 -116 184c0 88 57 173 158 196c-14 60 -30 119 -46 178c-108 -121 -216 -242 -216 -402zM411 1050c-99 -50 -161 -151 -161 -262c0 -76 15 -137 33 -200c82 97 149 198 149 325
c0 58 -4 84 -21 137z" fill="currentColor"/>
</g>
<g transform="scale(1.0000, 1.0000)">
<g transform="translate(20.2047, 28.4147)">
<path stroke-width="0.0001" stroke-linejoin="round" stroke-linecap="round" stroke="currentColor" fill="currentColor" d="M1.0162 -0.5005C1.1901 -0.4580 1.3000 -0.3601 1.3267 -0.2237C1.3473 -0.1188 1.3091 0.0324 1.2347 0.1410C1.1037 0.3322 0.8787 0.4644 0.6176 0.5036C0.5244 0.5176 0.3659 0.5121 0.2884 0.4921C-0.0297 0.4098 -0.0964 0.0918 0.1475 -0.1799C0.2984 -0.3479 0.5439 -0.4756 0.7758 -0.5066C0.8400 -0.5151 0.9696 -0.5119 1.0162 -0.5005z"/>
</g>
</g>
<g transform="scale(1.0000, 1.0000)">
<g transform="translate(8.6798, 28.0397)">
<path stroke-width="0.0001" stroke-linejoin="round" stroke-linecap="round" stroke="currentColor" fill="currentColor" d="M1.0162 -0.5005C1.1901 -0.4580 1.3000 -0.3601 1.3267 -0.2237C1.3473 -0.1188 1.3091 0.0324 1.2347 0.1410C1.1037 0.3322 0.8787 0.4644 0.6176 0.5036C0.5244 0.5176 0.3659 0.5121 0.2884 0.4921C-0.0297 0.4098 -0.0964 0.0918 0.1475 -0.1799C0.2984 -0.3479 0.5439 -0.4756 0.7758 -0.5066C0.8400 -0.5151 0.9696 -0.5119 1.0162 -0.5005z"/>
</g>
</g>
<g transform="translate(8.6798, 35.7897)">
<path transform="scale(0.0040, -0.0040)" d="M222 135c53 0 104 -27 104 -86c0 -71 -56 -120 -103 -148c-36 -22 -76 -36 -118 -36c-53 0 -105 27 -105 86c0 71 57 120 104 148c36 22 76 36 118 36z" fill="currentColor"/>
</g>
<g transform="translate(9.9647, 25.7897)">
<rect x="-0.0474" y="-1.2500" width="0.0948" height="3.3133" ry="0.0235" fill="currentColor"/>
</g>
<g transform="scale(1.0000, 1.0000)">
<g transform="translate(8.0848, 28.0397)">
<path stroke-width="0.2000" stroke-linejoin="round" stroke-linecap="round" stroke="currentColor" fill="none" d="M0 0.5000L0 -0.5000"/>
</g>
<g transform="translate(8.0848, 28.5397)">
<circle stroke-linejoin="round" stroke-linecap="round" fill="currentColor" stroke="currentColor" stroke-width="0.0100" r="0.2400"/>
</g>
</g>
<g transform="translate(9.9382, 34.7897)">
<rect x="-0.0474" y="-2.5000" width="0.0948" height="3.3033" ry="0.0235" fill="currentColor"/>
</g>
<g transform="scale(1.0000, 1.0000)">
<g transform="translate(28.7963, 28.7897)">
<path stroke-width="0.0001" stroke-linejoin="round" stroke-linecap="round" stroke="currentColor" fill="currentColor" d="M1.0162 -0.5005C1.1901 -0.4580 1.3000 -0.3601 1.3267 -0.2237C1.3473 -0.1188 1.3091 0.0324 1.2347 0.1410C1.1037 0.3322 0.8787 0.4644 0.6176 0.5036C0.5244 0.5176 0.3659 0.5121 0.2884 0.4921C-0.0297 0.4098 -0.0964 0.0918 0.1475 -0.1799C0.2984 -0.3479 0.5439 -0.4756 0.7758 -0.5066C0.8400 -0.5151 0.9696 -0.5119 1.0162 -0.5005z"/>
</g>
</g>
<g transform="translate(28.7963, 36.7897)">
<path transform="scale(0.0040, -0.0040)" d="M222 135c53 0 104 -27 104 -86c0 -71 -56 -120 -103 -148c-36 -22 -76 -36 -118 -36c-53 0 -105 27 -105 86c0 71 57 120 104 148c36 22 76 36 118 36z" fill="currentColor"/>
</g>
<g transform="translate(30.0811, 25.7897)">
<rect x="-0.0474" y="-0.5000" width="0.0948" height="3.3133" ry="0.0235" fill="currentColor"/>
</g>
<g transform="translate(27.6463, 28.7897)">
<path transform="scale(0.0040, -0.0040)" d="M149 44c-1 33 -23 62 -54 62c-30 0 -44 -35 -44 -69c0 -59 50 -101 96 -139c2 22 4 44 4 66c0 4 -1 7 -1 11zM188 -136c0 -12 -9 -21 -21 -21c-18 0 -26 21 -40 32c-63 51 -153 87 -153 169c0 54 40 100 93 100c32 0 62 -11 88 -30l-6 349c8 4 16 7 25 7s17 -3 25 -7z
" fill="currentColor"/>
</g>
<g transform="translate(30.0547, 34.7897)">
<rect x="-0.0474" y="-1.5000" width="0.0948" height="3.3033" ry="0.0235" fill="currentColor"/>
</g>
<g transform="translate(27.6744, 36.7897)">
<path transform="scale(0.0040, -0.0040)" d="M149 44c-1 33 -23 62 -54 62c-30 0 -44 -35 -44 -69c0 -59 50 -101 96 -139c2 22 4 44 4 66c0 4 -1 7 -1 11zM188 -136c0 -12 -9 -21 -21 -21c-18 0 -26 21 -40 32c-63 51 -153 87 -153 169c0 54 40 100 93 100c32 0 62 -11 88 -30l-6 349c8 4 16 7 25 7s17 -3 25 -7z
" fill="currentColor"/>
</g>
<g transform="scale(1.0000, 1.0000)">
<g transform="translate(32.4445, 29.1647)">
<path stroke-width="0.0001" stroke-linejoin="round" stroke-linecap="round" stroke="currentColor" fill="currentColor" d="M1.0162 -0.5005C1.1901 -0.4580 1.3000 -0.3601 1.3267 -0.2237C1.3473 -0.1188 1.3091 0.0324 1.2347 0.1410C1.1037 0.3322 0.8787 0.4644 0.6176 0.5036C0.5244 0.5176 0.3659 0.5121 0.2884 0.4921C-0.0297 0.4098 -0.0964 0.0918 0.1475 -0.1799C0.2984 -0.3479 0.5439 -0.4756 0.7758 -0.5066C0.8400 -0.5151 0.9696 -0.5119 1.0162 -0.5005z"/>
</g>
</g>
<g transform="translate(32.4445, 36.7897)">
<path transform="scale(0.0040, -0.0040)" d="M222 135c53 0 104 -27 104 -86c0 -71 -56 -120 -103 -148c-36 -22 -76 -36 -118 -36c-53 0 -105 27 -105 86c0 71 57 120 104 148c36 22 76 36 118 36z" fill="currentColor"/>
</g>
<g transform="translate(33.7294, 25.7897)">
<rect x="-0.0474" y="-0.1250" width="0.0948" height="3.3133" ry="0.0235" fill="currentColor"/>
</g>
<g transform="scale(1.0000, 1.0000)">
<g transform="translate(31.8495, 29.1647)">
<path stroke-width="0.2000" stroke-linejoin="round" stroke-linecap="round" stroke="currentColor" fill="none" d="M0 0.5000L0 -0.5000"/>
</g>
<g transform="translate(31.8495, 29.6647)">
<circle stroke-linejoin="round" stroke-linecap="round" fill="currentColor" stroke="currentColor" stroke-width="0.0100" r="0.2400"/>
</g>
</g>
<g transform="translate(19.0828, 36.2897)">
<path transform="scale(0.0040, -0.0040)" d="M149 44c-1 33 -23 62 -54 62c-30 0 -44 -35 -44 -69c0 -59 50 -101 96 -139c2 22 4 44 4 66c0 4 -1 7 -1 11zM188 -136c0 -12 -9 -21 -21 -21c-18 0 -26 21 -40 32c-63 51 -153 87 -153 169c0 54 40 100 93 100c32 0 62 -11 88 -30l-6 349c8 4 16 7 25 7s17 -3 25 -7z
" fill="currentColor"/>
</g>
<g transform="scale(1.0000, 1.0000)">
<g transform="translate(25.1216, 28.7897)">
<path stroke-width="0.0001" stroke-linejoin="round" stroke-linecap="round" stroke="currentColor" fill="currentColor" d="M1.0162 -0.5005C1.1901 -0.4580 1.3000 -0.3601 1.3267 -0.2237C1.3473 -0.1188 1.3091 0.0324 1.2347 0.1410C1.1037 0.3322 0.8787 0.4644 0.6176 0.5036C0.5244 0.5176 0.3659 0.5121 0.2884 0.4921C-0.0297 0.4098 -0.0964 0.0918 0.1475 -0.1799C0.2984 -0.3479 0.5439 -0.4756 0.7758 -0.5066C0.8400 -0.5151 0.9696 -0.5119 1.0162 -0.5005z"/>
</g>
</g>
<g transform="translate(25.1216, 36.7897)">
<path transform="scale(0.0040, -0.0040)" d="M222 135c53 0 104 -27 104 -86c0 -71 -56 -120 -103 -148c-36 -22 -76 -36 -118 -36c-53 0 -105 27 -105 86c0 71 57 120 104 148c36 22 76 36 118 36z" fill="currentColor"/>
</g>
<g transform="translate(26.4064, 25.7897)">
<rect x="-0.0474" y="-0.5000" width="0.0948" height="3.3133" ry="0.0235" fill="currentColor"/>
</g>
<g transform="translate(21.4631, 34.7897)">
<rect x="-0.0474" y="-2.0000" width="0.0948" height="3.3033" ry="0.0235" fill="currentColor"/>
</g>
<g transform="translate(26.3799, 34.7897)">
<rect x="-0.0474" y="-1.5000" width="0.0948" height="3.3033" ry="0.0235" fill="currentColor"/>
</g>
<g transform="translate(19.0547, 28.4147)">
<path transform="scale(0.0040, -0.0040)" d="M149 44c-1 33 -23 62 -54 62c-30 0 -44 -35 -44 -69c0 -59 50 -101 96 -139c2 22 4 44 4 66c0 4 -1 7 -1 11zM188 -136c0 -12 -9 -21 -21 -21c-18 0 -26 21 -40 32c-63 51 -153 87 -153 169c0 54 40 100 93 100c32 0 62 -11 88 -30l-6 349c8 4 16 7 25 7s17 -3 25 -7z
" fill="currentColor"/>
</g>
</svg>
