<svg xmlns="http://www.w3.org/2000/svg" xmlns:xlink="http://www.w3.org/1999/xlink" version="1.2" width="215.90mm" height="43.18mm" viewBox="0 0 72.2700 14.4540">
<style type="text/css">
<![CDATA[
tspan { white-space: pre; }
]]>
</style>
<!-- Page: 1/1 -->
<g transform="translate(0.6330, 6.0365)">
<line stroke-linejoin="round" stroke-linecap="round" stroke-width="0.0729" stroke="currentColor" x1="0.0365" y1="0" x2="30.8693" y2="0"/>
</g>
<g transform="translate(0.6330, 5.0365)">
<line stroke-linejoin="round" stroke-linecap="round" stroke-width="0.0729" stroke="currentColor" x1="0.0365" y1="0" x2="30.8693" y2="0"/>
</g>
<g transform="translate(0.6330, 4.0365)">
<line stroke-linejoin="round" stroke-linecap="round" stroke-width="0.0729" stroke="currentColor" x1="0.0365" y1="0" x2="30.8693" y2="0"/>
</g>
<g transform="translate(0.6330, 3.0365)">
<line stroke-linejoin="round" stroke-linecap="round" stroke-width="0.0729" stroke="currentColor" x1="0.0365" y1="0" x2="30.8693" y2="0"/>
</g>
<g transform="translate(0.6330, 2.0365)">
<line stroke-linejoin="round" stroke-linecap="round" stroke-width="0.0729" stroke="currentColor" x1="0.0365" y1="0" x2="30.8693" y2="0"/>
</g>
<g transform="translate(-4.3881, 7.0365)">
<rect x="26.5946" y="-0.0865" width="1.9587" height="0.1729" ry="0.0865" fill="currentColor"/>
</g>
<g transform="translate(-4.3881, 7.0365)">
<rect x="7.7946" y="-0.0865" width="1.9587" height="0.1729" ry="0.0865" fill="currentColor"/>
</g>
<g color="rgb(18.0392%, 54.5098%, 34.1176%)">
<g transform="translate(21.4687, 11.5365)">
<text font-family="sans-serif" font-size="1.2347" text-anchor="start" fill="currentColor">
<tspan>Major</tspan>
</text>
</g>
<g transform="translate(21.6997, 13.0365)">
<text font-family="sans-serif" font-size="1.2347" text-anchor="start" fill="currentColor">
<tspan>Triad</tspan>
</text>
</g>
</g>
<g color="rgb(25.4902%, 41.1765%, 88.2353%)">
<g transform="translate(12.0587, 11.5365)">
<text font-family="sans-serif" font-size="1.2347" text-anchor="start" fill="currentColor">
<tspan>Minor</tspan>
</text>
</g>
<g transform="translate(12.2093, 13.0365)">
<text font-family="sans-serif" font-size="1.2347" text-anchor="start" fill="currentColor">
<tspan>Third</tspan>
</text>
</g>
</g>
<g transform="translate(22.5330, 5.0365)">
<path transform="scale(0.0040, -0.0040)" d="M222 135c53 0 104 -27 104 -86c0 -71 -56 -120 -103 -148c-36 -22 -76 -36 -118 -36c-53 0 -105 27 -105 86c0 71 57 120 104 148c36 22 76 36 118 36z" fill="currentColor"/>
</g>
<g transform="translate(22.5330, 6.0365)">
<path transform="scale(0.0040, -0.0040)" d="M222 135c53 0 104 -27 104 -86c0 -71 -56 -120 -103 -148c-36 -22 -76 -36 -118 -36c-53 0 -105 27 -105 86c0 71 57 120 104 148c36 22 76 36 118 36z" fill="currentColor"/>
</g>
<g transform="translate(22.5330, 7.0365)">
<path transform="scale(0.0040, -0.0040)" d="M222 135c53 0 104 -27 104 -86c0 -71 -56 -120 -103 -148c-36 -22 -76 -36 -118 -36c-53 0 -105 27 -105 86c0 71 57 120 104 148c36 22 76 36 118 36z" fill="currentColor"/>
</g>
<g transform="translate(19.0914, 4.0365)">
<rect x="-0.0474" y="-3.0000" width="0.0948" height="4.3033" ry="0.0235" fill="currentColor"/>
</g>
<g color="rgb(18.0392%, 54.5098%, 34.1176%)">
<g transform="translate(16.7687, 11.5365)">
<text font-family="sans-serif" font-size="1.2347" text-anchor="start" fill="currentColor">
<tspan>Major</tspan>
</text>
</g>
<g transform="translate(16.9093, 13.0365)">
<text font-family="sans-serif" font-size="1.2347" text-anchor="start" fill="currentColor">
<tspan>Third</tspan>
</text>
</g>
</g>
<g transform="translate(17.8330, 4.5365)">
<path transform="scale(0.0040, -0.0040)" d="M222 135c53 0 104 -27 104 -86c0 -71 -56 -120 -103 -148c-36 -22 -76 -36 -118 -36c-53 0 -105 27 -105 86c0 71 57 120 104 148c36 22 76 36 118 36z" fill="currentColor"/>
</g>
<g transform="translate(17.8330, 5.5365)">
<path transform="scale(0.0040, -0.0040)" d="M222 135c53 0 104 -27 104 -86c0 -71 -56 -120 -103 -148c-36 -22 -76 -36 -118 -36c-53 0 -105 27 -105 86c0 71 57 120 104 148c36 22 76 36 118 36z" fill="currentColor"/>
</g>
<g transform="translate(14.3914, 4.0365)">
<rect x="-0.0474" y="-2.0000" width="0.0948" height="4.3033" ry="0.0235" fill="currentColor"/>
</g>
<g transform="translate(23.7914, 4.0365)">
<rect x="-0.0474" y="-2.5000" width="0.0948" height="5.3033" ry="0.0235" fill="currentColor"/>
</g>
<g transform="translate(27.2330, 6.5365)">
<path transform="scale(0.0040, -0.0040)" d="M222 135c53 0 104 -27 104 -86c0 -71 -56 -120 -103 -148c-36 -22 -76 -36 -118 -36c-53 0 -105 27 -105 86c0 71 57 120 104 148c36 22 76 36 118 36z" fill="currentColor"/>
</g>
<g transform="translate(27.2330, 5.5365)">
<path transform="scale(0.0040, -0.0040)" d="M222 135c53 0 104 -27 104 -86c0 -71 -56 -120 -103 -148c-36 -22 -76 -36 -118 -36c-53 0 -105 27 -105 86c0 71 57 120 104 148c36 22 76 36 118 36z" fill="currentColor"/>
</g>
<g transform="translate(27.2330, 4.5365)">
<path transform="scale(0.0040, -0.0040)" d="M222 135c53 0 104 -27 104 -86c0 -71 -56 -120 -103 -148c-36 -22 -76 -36 -118 -36c-53 0 -105 27 -105 86c0 71 57 120 104 148c36 22 76 36 118 36z" fill="currentColor"/>
</g>
<g color="rgb(25.4902%, 41.1765%, 88.2353%)">
<g transform="translate(26.1587, 11.5365)">
<text font-family="sans-serif" font-size="1.2347" text-anchor="start" fill="currentColor">
<tspan>Minor</tspan>
</text>
</g>
<g transform="translate(26.3997, 13.0365)">
<text font-family="sans-serif" font-size="1.2347" text-anchor="start" fill="currentColor">
<tspan>Triad</tspan>
</text>
</g>
</g>
<g transform="translate(28.4914, 4.0365)">
<rect x="-0.0474" y="-3.0000" width="0.0948" height="5.3033" ry="0.0235" fill="currentColor"/>
</g>
<g transform="translate(13.1330, 5.5365)">
<path transform="scale(0.0040, -0.0040)" d="M222 135c53 0 104 -27 104 -86c0 -71 -56 -120 -103 -148c-36 -22 -76 -36 -118 -36c-53 0 -105 27 -105 86c0 71 57 120 104 148c36 22 76 36 118 36z" fill="currentColor"/>
</g>
<g color="rgb(18.0392%, 54.5098%, 34.1176%)">
<g transform="translate(2.6687, 11.5365)">
<text font-family="sans-serif" font-size="1.2347" text-anchor="start" fill="currentColor">
<tspan>Major</tspan>
</text>
</g>
<g transform="translate(2.8093, 13.0365)">
<text font-family="sans-serif" font-size="1.2347" text-anchor="start" fill="currentColor">
<tspan>Third</tspan>
</text>
</g>
</g>
<g transform="translate(3.7330, 6.0365)">
<path transform="scale(0.0040, -0.0040)" d="M222 135c53 0 104 -27 104 -86c0 -71 -56 -120 -103 -148c-36 -22 -76 -36 -118 -36c-53 0 -105 27 -105 86c0 71 57 120 104 148c36 22 76 36 118 36z" fill="currentColor"/>
</g>
<g transform="translate(3.7330, 7.0365)">
<path transform="scale(0.0040, -0.0040)" d="M222 135c53 0 104 -27 104 -86c0 -71 -56 -120 -103 -148c-36 -22 -76 -36 -118 -36c-53 0 -105 27 -105 86c0 71 57 120 104 148c36 22 76 36 118 36z" fill="currentColor"/>
</g>
<g transform="translate(4.9914, 4.0365)">
<rect x="-0.0474" y="-1.5000" width="0.0948" height="4.3033" ry="0.0235" fill="currentColor"/>
</g>
<g transform="translate(9.6914, 4.0365)">
<rect x="-0.0474" y="-2.5000" width="0.0948" height="4.3033" ry="0.0235" fill="currentColor"/>
</g>
<g transform="translate(13.1330, 6.5365)">
<path transform="scale(0.0040, -0.0040)" d="M222 135c53 0 104 -27 104 -86c0 -71 -56 -120 -103 -148c-36 -22 -76 -36 -118 -36c-53 0 -105 27 -105 86c0 71 57 120 104 148c36 22 76 36 118 36z" fill="currentColor"/>
</g>
<g color="rgb(25.4902%, 41.1765%, 88.2353%)">
<g transform="translate(7.3587, 11.5365)">
<text font-family="sans-serif" font-size="1.2347" text-anchor="start" fill="currentColor">
<tspan>Minor</tspan>
</text>
</g>
<g transform="translate(7.5093, 13.0365)">
<text font-family="sans-serif" font-size="1.2347" text-anchor="start" fill="currentColor">
<tspan>Third</tspan>
</text>
</g>
</g>
<g transform="translate(8.4330, 6.0365)">
<path transform="scale(0.0040, -0.0040)" d="M222 135c53 0 104 -27 104 -86c0 -71 -56 -120 -103 -148c-36 -22 -76 -36 -118 -36c-53 0 -105 27 -105 86c0 71 57 120 104 148c36 22 76 36 118 36z" fill="currentColor"/>
</g>
<g transform="translate(8.4330, 5.0365)">
<path transform="scale(0.0040, -0.0040)" d="M222 135c53 0 104 -27 104 -86c0 -71 -56 -120 -103 -148c-36 -22 -76 -36 -118 -36c-53 0 -105 27 -105 86c0 71 57 120 104 148c36 22 76 36 118 36z" fill="currentColor"/>
</g>
<g color="rgb(50.0000%, 50.0000%, 50.0000%)">
<g transform="translate(37.6218, 4.0365)">
<path transform="scale(0.0040, -0.0040)" d="M0 8c11 0 11 -16 0 -16c-61 0 -198 -66 -236 -114c-5 -7 -15 -1 -14 6c7 38 11 77 11 116s-4 78 -11 116c-1 7 9 13 14 6c38 -48 175 -114 236 -114z" fill="currentColor"/>
</g>
<g transform="translate(37.6218, 4.0365)">
<rect x="-3.0000" y="-0.1200" width="2.3000" height="0.2400" ry="0.1200" fill="currentColor"/>
</g>
</g>
<g transform="translate(40.7047, 1.0365)">
<line stroke-linejoin="round" stroke-linecap="round" stroke-width="0.0729" stroke="currentColor" x1="0.0365" y1="0" x2="30.8958" y2="0"/>
</g>
<g transform="translate(40.7047, 2.5365)">
<line stroke-linejoin="round" stroke-linecap="round" stroke-width="0.0729" stroke="currentColor" x1="0.0365" y1="0" x2="30.8958" y2="0"/>
</g>
<g transform="translate(40.7047, 5.5365)">
<line stroke-linejoin="round" stroke-linecap="round" stroke-width="0.0729" stroke="currentColor" x1="0.0365" y1="0" x2="30.8958" y2="0"/>
</g>
<g transform="translate(40.7047, 7.0365)">
<line stroke-linejoin="round" stroke-linecap="round" stroke-width="0.0729" stroke="currentColor" x1="0.0365" y1="0" x2="30.8958" y2="0"/>
</g>
<g transform="translate(35.6836, 7.7865)">
<rect x="31.0215" y="-0.0740" width="2.5313" height="0.1479" ry="0.0740" fill="currentColor"/>
</g>
<g transform="translate(35.6836, 8.5365)">
<rect x="31.0215" y="-0.0740" width="2.5313" height="0.1479" ry="0.0740" fill="currentColor"/>
</g>
<g transform="translate(35.6836, 8.5365)">
<rect x="26.3215" y="-0.0740" width="2.5313" height="0.1479" ry="0.0740" fill="currentColor"/>
</g>
<g transform="translate(35.6836, 7.7865)">
<rect x="16.9215" y="-0.0740" width="2.5313" height="0.1479" ry="0.0740" fill="currentColor"/>
</g>
<g transform="translate(35.6836, 8.5365)">
<rect x="16.9215" y="-0.0740" width="2.5313" height="0.1479" ry="0.0740" fill="currentColor"/>
</g>
<g transform="translate(35.6836, 8.5365)">
<rect x="7.5215" y="-0.0740" width="2.5313" height="0.1479" ry="0.0740" fill="currentColor"/>
</g>
<g color="rgb(18.0392%, 54.5098%, 34.1176%)">
<g transform="translate(61.5536, 11.5365)">
<text font-family="sans-serif" font-size="1.2347" text-anchor="start" fill="currentColor">
<tspan>Major</tspan>
</text>
</g>
<g transform="translate(61.7846, 13.0365)">
<text font-family="sans-serif" font-size="1.2347" text-anchor="start" fill="currentColor">
<tspan>Triad</tspan>
</text>
</g>
</g>
<g color="rgb(25.4902%, 41.1765%, 88.2353%)">
<g transform="translate(52.1436, 11.5365)">
<text font-family="sans-serif" font-size="1.2347" text-anchor="start" fill="currentColor">
<tspan>Minor</tspan>
</text>
</g>
<g transform="translate(52.2942, 13.0365)">
<text font-family="sans-serif" font-size="1.2347" text-anchor="start" fill="currentColor">
<tspan>Third</tspan>
</text>
</g>
</g>
<g transform="scale(1.0000, 1.0000)">
<g transform="translate(62.6047, 5.9115)">
<path stroke-width="0.0001" stroke-linejoin="round" stroke-linecap="round" stroke="currentColor" fill="currentColor" d="M1.0162 -0.5005C1.1901 -0.4580 1.3000 -0.3601 1.3267 -0.2237C1.3473 -0.1188 1.3091 0.0324 1.2347 0.1410C1.1037 0.3322 0.8787 0.4644 0.6176 0.5036C0.5244 0.5176 0.3659 0.5121 0.2884 0.4921C-0.0297 0.4098 -0.0964 0.0918 0.1475 -0.1799C0.2984 -0.3479 0.5439 -0.4756 0.7758 -0.5066C0.8400 -0.5151 0.9696 -0.5119 1.0162 -0.5005z"/>
</g>
</g>
<g transform="scale(1.0000, 1.0000)">
<g transform="translate(62.6047, 7.0365)">
<path stroke-width="0.0001" stroke-linejoin="round" stroke-linecap="round" stroke="currentColor" fill="currentColor" d="M1.0162 -0.5005C1.1901 -0.4580 1.3000 -0.3601 1.3267 -0.2237C1.3473 -0.1188 1.3091 0.0324 1.2347 0.1410C1.1037 0.3322 0.8787 0.4644 0.6176 0.5036C0.5244 0.5176 0.3659 0.5121 0.2884 0.4921C-0.0297 0.4098 -0.0964 0.0918 0.1475 -0.1799C0.2984 -0.3479 0.5439 -0.4756 0.7758 -0.5066C0.8400 -0.5151 0.9696 -0.5119 1.0162 -0.5005z"/>
</g>
</g>
<g transform="scale(1.0000, 1.0000)">
<g transform="translate(62.6047, 8.5365)">
<path stroke-width="0.0001" stroke-linejoin="round" stroke-linecap="round" stroke="currentColor" fill="currentColor" d="M1.0162 -0.5005C1.1901 -0.4580 1.3000 -0.3601 1.3267 -0.2237C1.3473 -0.1188 1.3091 0.0324 1.2347 0.1410C1.1037 0.3322 0.8787 0.4644 0.6176 0.5036C0.5244 0.5176 0.3659 0.5121 0.2884 0.4921C-0.0297 0.4098 -0.0964 0.0918 0.1475 -0.1799C0.2984 -0.3479 0.5439 -0.4756 0.7758 -0.5066C0.8400 -0.5151 0.9696 -0.5119 1.0162 -0.5005z"/>
</g>
</g>
<g transform="translate(59.1896, 4.0365)">
<rect x="-0.0474" y="-2.3750" width="0.0948" height="4.8133" ry="0.0235" fill="currentColor"/>
</g>
<g color="rgb(18.0392%, 54.5098%, 34.1176%)">
<g transform="translate(56.8536, 11.5365)">
<text font-family="sans-serif" font-size="1.2347" text-anchor="start" fill="currentColor">
<tspan>Major</tspan>
</text>
</g>
<g transform="translate(56.9942, 13.0365)">
<text font-family="sans-serif" font-size="1.2347" text-anchor="start" fill="currentColor">
<tspan>Third</tspan>
</text>
</g>
</g>
<g transform="scale(1.0000, 1.0000)">
<g transform="translate(57.9047, 5.1615)">
<path stroke-width="0.0001" stroke-linejoin="round" stroke-linecap="round" stroke="currentColor" fill="currentColor" d="M1.0162 -0.5005C1.1901 -0.4580 1.3000 -0.3601 1.3267 -0.2237C1.3473 -0.1188 1.3091 0.0324 1.2347 0.1410C1.1037 0.3322 0.8787 0.4644 0.6176 0.5036C0.5244 0.5176 0.3659 0.5121 0.2884 0.4921C-0.0297 0.4098 -0.0964 0.0918 0.1475 -0.1799C0.2984 -0.3479 0.5439 -0.4756 0.7758 -0.5066C0.8400 -0.5151 0.9696 -0.5119 1.0162 -0.5005z"/>
</g>
</g>
<g transform="scale(1.0000, 1.0000)">
<g transform="translate(57.9047, 6.6615)">
<path stroke-width="0.0001" stroke-linejoin="round" stroke-linecap="round" stroke="currentColor" fill="currentColor" d="M1.0162 -0.5005C1.1901 -0.4580 1.3000 -0.3601 1.3267 -0.2237C1.3473 -0.1188 1.3091 0.0324 1.2347 0.1410C1.1037 0.3322 0.8787 0.4644 0.6176 0.5036C0.5244 0.5176 0.3659 0.5121 0.2884 0.4921C-0.0297 0.4098 -0.0964 0.0918 0.1475 -0.1799C0.2984 -0.3479 0.5439 -0.4756 0.7758 -0.5066C0.8400 -0.5151 0.9696 -0.5119 1.0162 -0.5005z"/>
</g>
</g>
<g transform="translate(54.4896, 4.0365)">
<rect x="-0.0474" y="-0.8750" width="0.0948" height="4.4383" ry="0.0235" fill="currentColor"/>
</g>
<g transform="translate(63.8896, 4.0365)">
<rect x="-0.0474" y="-1.6250" width="0.0948" height="5.9383" ry="0.0235" fill="currentColor"/>
</g>
<g transform="scale(1.0000, 1.0000)">
<g transform="translate(67.3047, 7.7865)">
<path stroke-width="0.0001" stroke-linejoin="round" stroke-linecap="round" stroke="currentColor" fill="currentColor" d="M1.0162 -0.5005C1.1901 -0.4580 1.3000 -0.3601 1.3267 -0.2237C1.3473 -0.1188 1.3091 0.0324 1.2347 0.1410C1.1037 0.3322 0.8787 0.4644 0.6176 0.5036C0.5244 0.5176 0.3659 0.5121 0.2884 0.4921C-0.0297 0.4098 -0.0964 0.0918 0.1475 -0.1799C0.2984 -0.3479 0.5439 -0.4756 0.7758 -0.5066C0.8400 -0.5151 0.9696 -0.5119 1.0162 -0.5005z"/>
</g>
</g>
<g transform="scale(1.0000, 1.0000)">
<g transform="translate(67.3047, 6.6615)">
<path stroke-width="0.0001" stroke-linejoin="round" stroke-linecap="round" stroke="currentColor" fill="currentColor" d="M1.0162 -0.5005C1.1901 -0.4580 1.3000 -0.3601 1.3267 -0.2237C1.3473 -0.1188 1.3091 0.0324 1.2347 0.1410C1.1037 0.3322 0.8787 0.4644 0.6176 0.5036C0.5244 0.5176 0.3659 0.5121 0.2884 0.4921C-0.0297 0.4098 -0.0964 0.0918 0.1475 -0.1799C0.2984 -0.3479 0.5439 -0.4756 0.7758 -0.5066C0.8400 -0.5151 0.9696 -0.5119 1.0162 -0.5005z"/>
</g>
</g>
<g transform="scale(1.0000, 1.0000)">
<g transform="translate(67.3047, 5.1615)">
<path stroke-width="0.0001" stroke-linejoin="round" stroke-linecap="round" stroke="currentColor" fill="currentColor" d="M1.0162 -0.5005C1.1901 -0.4580 1.3000 -0.3601 1.3267 -0.2237C1.3473 -0.1188 1.3091 0.0324 1.2347 0.1410C1.1037 0.3322 0.8787 0.4644 0.6176 0.5036C0.5244 0.5176 0.3659 0.5121 0.2884 0.4921C-0.0297 0.4098 -0.0964 0.0918 0.1475 -0.1799C0.2984 -0.3479 0.5439 -0.4756 0.7758 -0.5066C0.8400 -0.5151 0.9696 -0.5119 1.0162 -0.5005z"/>
</g>
</g>
<g color="rgb(25.4902%, 41.1765%, 88.2353%)">
<g transform="translate(66.2436, 11.5365)">
<text font-family="sans-serif" font-size="1.2347" text-anchor="start" fill="currentColor">
<tspan>Minor</tspan>
</text>
</g>
<g transform="translate(66.4846, 13.0365)">
<text font-family="sans-serif" font-size="1.2347" text-anchor="start" fill="currentColor">
<tspan>Triad</tspan>
</text>
</g>
</g>
<g transform="translate(68.5896, 4.0365)">
<rect x="-0.0474" y="-2.3750" width="0.0948" height="5.9383" ry="0.0235" fill="currentColor"/>
</g>
<g transform="scale(1.0000, 1.0000)">
<g transform="translate(53.2047, 6.6615)">
<path stroke-width="0.0001" stroke-linejoin="round" stroke-linecap="round" stroke="currentColor" fill="currentColor" d="M1.0162 -0.5005C1.1901 -0.4580 1.3000 -0.3601 1.3267 -0.2237C1.3473 -0.1188 1.3091 0.0324 1.2347 0.1410C1.1037 0.3322 0.8787 0.4644 0.6176 0.5036C0.5244 0.5176 0.3659 0.5121 0.2884 0.4921C-0.0297 0.4098 -0.0964 0.0918 0.1475 -0.1799C0.2984 -0.3479 0.5439 -0.4756 0.7758 -0.5066C0.8400 -0.5151 0.9696 -0.5119 1.0162 -0.5005z"/>
</g>
</g>
<g color="rgb(18.0392%, 54.5098%, 34.1176%)">
<g transform="translate(42.7536, 11.5365)">
<text font-family="sans-serif" font-size="1.2347" text-anchor="start" fill="currentColor">
<tspan>Major</tspan>
</text>
</g>
<g transform="translate(42.8942, 13.0365)">
<text font-family="sans-serif" font-size="1.2347" text-anchor="start" fill="currentColor">
<tspan>Third</tspan>
</text>
</g>
</g>
<g transform="scale(1.0000, 1.0000)">
<g transform="translate(43.8047, 7.0365)">
<path stroke-width="0.0001" stroke-linejoin="round" stroke-linecap="round" stroke="currentColor" fill="currentColor" d="M1.0162 -0.5005C1.1901 -0.4580 1.3000 -0.3601 1.3267 -0.2237C1.3473 -0.1188 1.3091 0.0324 1.2347 0.1410C1.1037 0.3322 0.8787 0.4644 0.6176 0.5036C0.5244 0.5176 0.3659 0.5121 0.2884 0.4921C-0.0297 0.4098 -0.0964 0.0918 0.1475 -0.1799C0.2984 -0.3479 0.5439 -0.4756 0.7758 -0.5066C0.8400 -0.5151 0.9696 -0.5119 1.0162 -0.5005z"/>
</g>
</g>
<g transform="scale(1.0000, 1.0000)">
<g transform="translate(43.8047, 8.5365)">
<path stroke-width="0.0001" stroke-linejoin="round" stroke-linecap="round" stroke="currentColor" fill="currentColor" d="M1.0162 -0.5005C1.1901 -0.4580 1.3000 -0.3601 1.3267 -0.2237C1.3473 -0.1188 1.3091 0.0324 1.2347 0.1410C1.1037 0.3322 0.8787 0.4644 0.6176 0.5036C0.5244 0.5176 0.3659 0.5121 0.2884 0.4921C-0.0297 0.4098 -0.0964 0.0918 0.1475 -0.1799C0.2984 -0.3479 0.5439 -0.4756 0.7758 -0.5066C0.8400 -0.5151 0.9696 -0.5119 1.0162 -0.5005z"/>
</g>
</g>
<g transform="translate(45.0896, 4.0365)">
<rect x="-0.0474" y="-0.5000" width="0.0948" height="4.8133" ry="0.0235" fill="currentColor"/>
</g>
<g transform="translate(49.7896, 4.0365)">
<rect x="-0.0474" y="-1.6250" width="0.0948" height="4.4383" ry="0.0235" fill="currentColor"/>
</g>
<g transform="scale(1.0000, 1.0000)">
<g transform="translate(53.2047, 7.7865)">
<path stroke-width="0.0001" stroke-linejoin="round" stroke-linecap="round" stroke="currentColor" fill="currentColor" d="M1.0162 -0.5005C1.1901 -0.4580 1.3000 -0.3601 1.3267 -0.2237C1.3473 -0.1188 1.3091 0.0324 1.2347 0.1410C1.1037 0.3322 0.8787 0.4644 0.6176 0.5036C0.5244 0.5176 0.3659 0.5121 0.2884 0.4921C-0.0297 0.4098 -0.0964 0.0918 0.1475 -0.1799C0.2984 -0.3479 0.5439 -0.4756 0.7758 -0.5066C0.8400 -0.5151 0.9696 -0.5119 1.0162 -0.5005z"/>
</g>
</g>
<g color="rgb(25.4902%, 41.1765%, 88.2353%)">
<g transform="translate(47.4436, 11.5365)">
<text font-family="sans-serif" font-size="1.2347" text-anchor="start" fill="currentColor">
<tspan>Minor</tspan>
</text>
</g>
<g transform="translate(47.5942, 13.0365)">
<text font-family="sans-serif" font-size="1.2347" text-anchor="start" fill="currentColor">
<tspan>Third</tspan>
</text>
</g>
</g>
<g transform="scale(1.0000, 1.0000)">
<g transform="translate(48.5047, 7.0365)">
<path stroke-width="0.0001" stroke-linejoin="round" stroke-linecap="round" stroke="currentColor" fill="currentColor" d="M1.0162 -0.5005C1.1901 -0.4580 1.3000 -0.3601 1.3267 -0.2237C1.3473 -0.1188 1.3091 0.0324 1.2347 0.1410C1.1037 0.3322 0.8787 0.4644 0.6176 0.5036C0.5244 0.5176 0.3659 0.5121 0.2884 0.4921C-0.0297 0.4098 -0.0964 0.0918 0.1475 -0.1799C0.2984 -0.3479 0.5439 -0.4756 0.7758 -0.5066C0.8400 -0.5151 0.9696 -0.5119 1.0162 -0.5005z"/>
</g>
</g>
<g transform="scale(1.0000, 1.0000)">
<g transform="translate(48.5047, 5.9115)">
<path stroke-width="0.0001" stroke-linejoin="round" stroke-linecap="round" stroke="currentColor" fill="currentColor" d="M1.0162 -0.5005C1.1901 -0.4580 1.3000 -0.3601 1.3267 -0.2237C1.3473 -0.1188 1.3091 0.0324 1.2347 0.1410C1.1037 0.3322 0.8787 0.4644 0.6176 0.5036C0.5244 0.5176 0.3659 0.5121 0.2884 0.4921C-0.0297 0.4098 -0.0964 0.0918 0.1475 -0.1799C0.2984 -0.3479 0.5439 -0.4756 0.7758 -0.5066C0.8400 -0.5151 0.9696 -0.5119 1.0162 -0.5005z"/>
</g>
</g>
</svg>
