<svg xmlns="http://www.w3.org/2000/svg" xmlns:xlink="http://www.w3.org/1999/xlink" version="1.2" width="215.00mm" height="112.32mm" viewBox="0 0 71.9687 37.5965">
<style type="text/css">
<![CDATA[
tspan { white-space: pre; }
]]>
</style>
<!-- Page: 1/1 -->
<g transform="translate(0.3347, 6.3339)">
<line stroke-linejoin="round" stroke-linecap="round" stroke-width="0.0729" stroke="currentColor" x1="0.0365" y1="0" x2="69.8967" y2="0"/>
</g>
<g transform="translate(0.3347, 5.3339)">
<line stroke-linejoin="round" stroke-linecap="round" stroke-width="0.0729" stroke="currentColor" x1="0.0365" y1="0" x2="69.8967" y2="0"/>
</g>
<g transform="translate(0.3347, 4.3339)">
<line stroke-linejoin="round" stroke-linecap="round" stroke-width="0.0729" stroke="currentColor" x1="0.0365" y1="0" x2="69.8967" y2="0"/>
</g>
<g transform="translate(0.3347, 3.3339)">
<line stroke-linejoin="round" stroke-linecap="round" stroke-width="0.0729" stroke="currentColor" x1="0.0365" y1="0" x2="69.8967" y2="0"/>
</g>
<g transform="translate(0.3347, 2.3339)">
<line stroke-linejoin="round" stroke-linecap="round" stroke-width="0.0729" stroke="currentColor" x1="0.0365" y1="0" x2="69.8967" y2="0"/>
</g>
<g transform="translate(36.0793, 4.3339)">
<rect x="0.0000" y="-2.0000" width="0.1386" height="4.0000" ry="0.0000" fill="currentColor"/>
</g>
<g transform="translate(46.6129, 4.3339)">
<rect x="0.0000" y="-2.0000" width="0.1386" height="4.0000" ry="0.0000" fill="currentColor"/>
</g>
<g transform="translate(23.1746, 4.3339)">
<rect x="0.0000" y="-2.0000" width="0.1386" height="4.0000" ry="0.0000" fill="currentColor"/>
</g>
<g transform="translate(57.1108, 4.3339)">
<rect x="0.0000" y="-2.0000" width="0.1386" height="4.0000" ry="0.0000" fill="currentColor"/>
</g>
<g transform="translate(70.1293, 4.3339)">
<rect x="0.0000" y="-2.0000" width="0.1386" height="4.0000" ry="0.0000" fill="currentColor"/>
</g>
<g transform="translate(0.3347, 1.3339)">
<rect x="57.7168" y="-0.0865" width="1.9587" height="0.1729" ry="0.0865" fill="currentColor"/>
</g>
<g transform="translate(47.3515, 3.3339)">
<path transform="scale(0.0040, -0.0040)" d="M215 -316c0 -9 -8 -17 -17 -17s-17 8 -17 17v151l-87 -31v-162c0 -9 -8 -17 -17 -17s-17 8 -17 17v150l-39 -13c-10 -4 -21 4 -21 15v64c0 7 5 13 11 15l49 18v164l-39 -14c-10 -4 -21 4 -21 15v65c0 7 5 13 11 15l49 17v163c0 9 8 17 17 17s17 -8 17 -17v-151l87 31v162
c0 9 8 17 17 17s17 -8 17 -17v-150l39 13c10 4 21 -4 21 -15v-64c0 -7 -5 -13 -11 -15l-49 -18v-164l39 14c10 4 21 -4 21 -15v-65c0 -7 -5 -13 -11 -15l-49 -17v-163zM94 67v-164l87 30v164z" fill="currentColor"/>
</g>
<g transform="translate(53.0716, 2.8339)">
<path transform="scale(0.0040, -0.0040)" d="M316 67c0 25 -20 42 -42 42c-4 0 -9 -1 -13 -2c-31 -9 -79 -41 -117 -65s-86 -55 -107 -80c-7 -8 -10 -19 -10 -29c0 -25 20 -42 42 -42c4 0 9 1 13 2c31 9 79 41 117 65s86 55 107 80c7 8 10 19 10 29zM265 135c44 0 78 -21 78 -68c0 -19 -5 -39 -11 -57
c-12 -37 -33 -71 -65 -93c-53 -36 -114 -52 -189 -52c-44 0 -78 21 -78 68c0 19 5 39 11 57c12 37 33 71 65 93c53 36 114 52 189 52z" fill="currentColor"/>
</g>
<g transform="translate(53.1190, 4.3339)">
<rect x="-0.0474" y="-1.2316" width="0.0948" height="3.2316" ry="0.0235" fill="currentColor"/>
</g>
<g transform="translate(58.3780, 3.3339)">
<path transform="scale(0.0040, -0.0040)" d="M222 135c53 0 104 -27 104 -86c0 -71 -56 -120 -103 -148c-36 -22 -76 -36 -118 -36c-53 0 -105 27 -105 86c0 71 57 120 104 148c36 22 76 36 118 36z" fill="currentColor"/>
</g>
<g transform="translate(58.3780, 2.3339)">
<path transform="scale(0.0040, -0.0040)" d="M222 135c53 0 104 -27 104 -86c0 -71 -56 -120 -103 -148c-36 -22 -76 -36 -118 -36c-53 0 -105 27 -105 86c0 71 57 120 104 148c36 22 76 36 118 36z" fill="currentColor"/>
</g>
<g transform="translate(36.8179, 3.8339)">
<path transform="scale(0.0040, -0.0040)" d="M215 -316c0 -9 -8 -17 -17 -17s-17 8 -17 17v151l-87 -31v-162c0 -9 -8 -17 -17 -17s-17 8 -17 17v150l-39 -13c-10 -4 -21 4 -21 15v64c0 7 5 13 11 15l49 18v164l-39 -14c-10 -4 -21 4 -21 15v65c0 7 5 13 11 15l49 17v163c0 9 8 17 17 17s17 -8 17 -17v-151l87 31v162
c0 9 8 17 17 17s17 -8 17 -17v-150l39 13c10 4 21 -4 21 -15v-64c0 -7 -5 -13 -11 -15l-49 -18v-164l39 14c10 4 21 -4 21 -15v-65c0 -7 -5 -13 -11 -15l-49 -17v-163zM94 67v-164l87 30v164z" fill="currentColor"/>
</g>
<g transform="translate(58.3780, 1.3339)">
<path transform="scale(0.0040, -0.0040)" d="M222 135c53 0 104 -27 104 -86c0 -71 -56 -120 -103 -148c-36 -22 -76 -36 -118 -36c-53 0 -105 27 -105 86c0 71 57 120 104 148c36 22 76 36 118 36z" fill="currentColor"/>
</g>
<g transform="translate(42.5380, 3.3339)">
<path transform="scale(0.0040, -0.0040)" d="M316 67c0 25 -20 42 -42 42c-4 0 -9 -1 -13 -2c-31 -9 -79 -41 -117 -65s-86 -55 -107 -80c-7 -8 -10 -19 -10 -29c0 -25 20 -42 42 -42c4 0 9 1 13 2c31 9 79 41 117 65s86 55 107 80c7 8 10 19 10 29zM265 135c44 0 78 -21 78 -68c0 -19 -5 -39 -11 -57
c-12 -37 -33 -71 -65 -93c-53 -36 -114 -52 -189 -52c-44 0 -78 21 -78 68c0 19 5 39 11 57c12 37 33 71 65 93c53 36 114 52 189 52z" fill="currentColor"/>
</g>
<g transform="translate(42.5854, 4.3339)">
<rect x="-0.0474" y="-0.7316" width="0.0948" height="3.2316" ry="0.0235" fill="currentColor"/>
</g>
<g transform="translate(48.8015, 3.3339)">
<path transform="scale(0.0040, -0.0040)" d="M316 67c0 25 -20 42 -42 42c-4 0 -9 -1 -13 -2c-31 -9 -79 -41 -117 -65s-86 -55 -107 -80c-7 -8 -10 -19 -10 -29c0 -25 20 -42 42 -42c4 0 9 1 13 2c31 9 79 41 117 65s86 55 107 80c7 8 10 19 10 29zM265 135c44 0 78 -21 78 -68c0 -19 -5 -39 -11 -57
c-12 -37 -33 -71 -65 -93c-53 -36 -114 -52 -189 -52c-44 0 -78 21 -78 68c0 19 5 39 11 57c12 37 33 71 65 93c53 36 114 52 189 52z" fill="currentColor"/>
</g>
<g transform="translate(48.8489, 4.3339)">
<rect x="-0.0474" y="-0.7316" width="0.0948" height="3.2316" ry="0.0235" fill="currentColor"/>
</g>
<g transform="translate(66.8895, 3.8339)">
<path transform="scale(0.0040, -0.0040)" d="M222 135c53 0 104 -27 104 -86c0 -71 -56 -120 -103 -148c-36 -22 -76 -36 -118 -36c-53 0 -105 27 -105 86c0 71 57 120 104 148c36 22 76 36 118 36z" fill="currentColor"/>
</g>
<g transform="translate(64.3857, 3.8339)">
<path transform="scale(0.0040, -0.0040)" d="M222 135c53 0 104 -27 104 -86c0 -71 -56 -120 -103 -148c-36 -22 -76 -36 -118 -36c-53 0 -105 27 -105 86c0 71 57 120 104 148c36 22 76 36 118 36z" fill="currentColor"/>
</g>
<g transform="translate(64.3857, 2.8339)">
<path transform="scale(0.0040, -0.0040)" d="M222 135c53 0 104 -27 104 -86c0 -71 -56 -120 -103 -148c-36 -22 -76 -36 -118 -36c-53 0 -105 27 -105 86c0 71 57 120 104 148c36 22 76 36 118 36z" fill="currentColor"/>
</g>
<g transform="translate(64.3857, 1.8339)">
<path transform="scale(0.0040, -0.0040)" d="M222 135c53 0 104 -27 104 -86c0 -71 -56 -120 -103 -148c-36 -22 -76 -36 -118 -36c-53 0 -105 27 -105 86c0 71 57 120 104 148c36 22 76 36 118 36z" fill="currentColor"/>
</g>
<g transform="translate(64.4331, 4.3339)">
<rect x="-0.0474" y="-2.3033" width="0.0948" height="5.3033" ry="0.0235" fill="currentColor"/>
</g>
<g transform="translate(66.8895, 5.8339)">
<path transform="scale(0.0040, -0.0040)" d="M222 135c53 0 104 -27 104 -86c0 -71 -56 -120 -103 -148c-36 -22 -76 -36 -118 -36c-53 0 -105 27 -105 86c0 71 57 120 104 148c36 22 76 36 118 36z" fill="currentColor"/>
</g>
<g transform="translate(66.8895, 4.8339)">
<path transform="scale(0.0040, -0.0040)" d="M222 135c53 0 104 -27 104 -86c0 -71 -56 -120 -103 -148c-36 -22 -76 -36 -118 -36c-53 0 -105 27 -105 86c0 71 57 120 104 148c36 22 76 36 118 36z" fill="currentColor"/>
</g>
<g transform="translate(68.1479, 4.3339)">
<rect x="-0.0474" y="-3.6667" width="0.0948" height="4.9699" ry="0.0235" fill="currentColor"/>
</g>
<g transform="translate(58.4254, 4.3339)">
<rect x="-0.0474" y="-2.8033" width="0.0948" height="5.3033" ry="0.0235" fill="currentColor"/>
</g>
<g transform="translate(61.3818, 4.3339)">
<path transform="scale(0.0040, -0.0040)" d="M222 135c53 0 104 -27 104 -86c0 -71 -56 -120 -103 -148c-36 -22 -76 -36 -118 -36c-53 0 -105 27 -105 86c0 71 57 120 104 148c36 22 76 36 118 36z" fill="currentColor"/>
</g>
<g transform="translate(61.3818, 3.3339)">
<path transform="scale(0.0040, -0.0040)" d="M222 135c53 0 104 -27 104 -86c0 -71 -56 -120 -103 -148c-36 -22 -76 -36 -118 -36c-53 0 -105 27 -105 86c0 71 57 120 104 148c36 22 76 36 118 36z" fill="currentColor"/>
</g>
<g transform="translate(61.3818, 2.3339)">
<path transform="scale(0.0040, -0.0040)" d="M222 135c53 0 104 -27 104 -86c0 -71 -56 -120 -103 -148c-36 -22 -76 -36 -118 -36c-53 0 -105 27 -105 86c0 71 57 120 104 148c36 22 76 36 118 36z" fill="currentColor"/>
</g>
<g transform="translate(61.4293, 4.3339)">
<rect x="-0.0474" y="-1.8033" width="0.0948" height="5.1366" ry="0.0235" fill="currentColor"/>
</g>
<g transform="translate(19.9705, 5.3339)">
<path transform="scale(0.0040, -0.0040)" d="M222 135c53 0 104 -27 104 -86c0 -71 -56 -120 -103 -148c-36 -22 -76 -36 -118 -36c-53 0 -105 27 -105 86c0 71 57 120 104 148c36 22 76 36 118 36z" fill="currentColor"/>
</g>
<g transform="translate(12.1609, 5.8339)">
<path transform="scale(0.0040, -0.0040)" d="M215 -316c0 -9 -8 -17 -17 -17s-17 8 -17 17v151l-87 -31v-162c0 -9 -8 -17 -17 -17s-17 8 -17 17v150l-39 -13c-10 -4 -21 4 -21 15v64c0 7 5 13 11 15l49 18v164l-39 -14c-10 -4 -21 4 -21 15v65c0 7 5 13 11 15l49 17v163c0 9 8 17 17 17s17 -8 17 -17v-151l87 31v162
c0 9 8 17 17 17s17 -8 17 -17v-150l39 13c10 4 21 -4 21 -15v-64c0 -7 -5 -13 -11 -15l-49 -18v-164l39 14c10 4 21 -4 21 -15v-65c0 -7 -5 -13 -11 -15l-49 -17v-163zM94 67v-164l87 30v164z" fill="currentColor"/>
</g>
<g transform="translate(16.6147, 5.3339)">
<path transform="scale(0.0040, -0.0040)" d="M222 135c53 0 104 -27 104 -86c0 -71 -56 -120 -103 -148c-36 -22 -76 -36 -118 -36c-53 0 -105 27 -105 86c0 71 57 120 104 148c36 22 76 36 118 36z" fill="currentColor"/>
</g>
<g transform="translate(17.8731, 4.3339)">
<rect x="-0.0474" y="-2.5000" width="0.0948" height="3.3033" ry="0.0235" fill="currentColor"/>
</g>
<g transform="translate(14.8693, 4.3339)">
<rect x="-0.0474" y="-2.0000" width="0.0948" height="3.3033" ry="0.0235" fill="currentColor"/>
</g>
<g transform="translate(21.2289, 4.3339)">
<rect x="-0.0474" y="-2.5000" width="0.0948" height="3.3033" ry="0.0235" fill="currentColor"/>
</g>
<g transform="translate(18.5205, 5.3339)">
<path transform="scale(0.0040, -0.0040)" d="M215 -316c0 -9 -8 -17 -17 -17s-17 8 -17 17v151l-87 -31v-162c0 -9 -8 -17 -17 -17s-17 8 -17 17v150l-39 -13c-10 -4 -21 4 -21 15v64c0 7 5 13 11 15l49 18v164l-39 -14c-10 -4 -21 4 -21 15v65c0 7 5 13 11 15l49 17v163c0 9 8 17 17 17s17 -8 17 -17v-151l87 31v162
c0 9 8 17 17 17s17 -8 17 -17v-150l39 13c10 4 21 -4 21 -15v-64c0 -7 -5 -13 -11 -15l-49 -18v-164l39 14c10 4 21 -4 21 -15v-65c0 -7 -5 -13 -11 -15l-49 -17v-163zM94 67v-164l87 30v164z" fill="currentColor"/>
</g>
<g transform="translate(24.2132, 4.8339)">
<path transform="scale(0.0040, -0.0040)" d="M222 135c53 0 104 -27 104 -86c0 -71 -56 -120 -103 -148c-36 -22 -76 -36 -118 -36c-53 0 -105 27 -105 86c0 71 57 120 104 148c36 22 76 36 118 36z" fill="currentColor"/>
</g>
<g transform="translate(25.4716, 4.3339)">
<rect x="-0.0474" y="-3.0000" width="0.0948" height="3.3033" ry="0.0235" fill="currentColor"/>
</g>
<g transform="translate(10.2551, 5.8339)">
<path transform="scale(0.0040, -0.0040)" d="M222 135c53 0 104 -27 104 -86c0 -71 -56 -120 -103 -148c-36 -22 -76 -36 -118 -36c-53 0 -105 27 -105 86c0 71 57 120 104 148c36 22 76 36 118 36z" fill="currentColor"/>
</g>
<g color="rgb(50.0000%, 50.0000%, 50.0000%)">
<g transform="translate(3.7551, 1.3337)">
<text font-family="sans-serif" font-size="1.1000" text-anchor="start" fill="currentColor">
<tspan>Traditional Music Notation</tspan>
</text>
</g>
</g>
<g transform="translate(1.1347, 5.3339)">
<path transform="scale(0.0040, -0.0040)" d="M374 260c5 0 10 1 15 1c154 0 254 -127 254 -259c0 -76 -33 -153 -107 -208c-22 -17 -47 -29 -73 -37c3 -36 5 -72 5 -108c0 -19 0 -37 -1 -56c-7 -120 -88 -226 -206 -226c-108 0 -195 87 -195 195c0 58 53 104 112 104c54 0 95 -48 95 -104c0 -52 -43 -95 -95 -95
c-12 0 -24 4 -35 9c26 -41 70 -70 121 -70c1 0 2 1 3 1c93 2 154 93 160 192c1 18 2 35 2 53c0 32 -2 64 -5 96c-29 -5 -58 -8 -89 -8c-188 0 -333 171 -333 372c0 178 133 306 251 440c-18 63 -35 126 -42 191c-6 51 -7 102 -7 154c0 116 55 226 150 295c5 4 11 4 16 0
c70 -84 132 -246 132 -359c0 -144 -87 -256 -183 -365c20 -69 39 -138 55 -208zM459 -205c69 24 117 96 117 166c0 92 -69 184 -179 193c25 -117 48 -235 62 -359zM71 31c0 -136 131 -251 267 -251c28 0 55 2 82 6c-15 128 -38 247 -64 367c-79 -9 -125 -62 -125 -121
c0 -44 26 -92 82 -124c4 -4 7 -9 7 -14c0 -11 -9 -21 -20 -21c-3 0 -6 1 -9 2c-80 43 -116 114 -116 184c0 88 57 173 158 196c-14 60 -30 119 -46 178c-108 -121 -216 -242 -216 -402zM411 1050c-99 -50 -161 -151 -161 -262c0 -76 15 -137 33 -200c82 97 149 198 149 325
c0 58 -4 84 -21 137z" fill="currentColor"/>
</g>
<g transform="translate(4.7385, 4.3339)">
<path transform="scale(0.0040, -0.0040)" d="M25 44l-1 -69c0 -4 -1 -7 -1 -11c0 -22 2 -44 4 -66c46 38 96 80 96 139c0 34 -14 69 -44 69c-31 0 -53 -29 -54 -62zM-25 463c8 4 16 7 25 7s17 -3 25 -7l-6 -349c26 19 56 30 88 30c53 0 93 -46 93 -100c0 -82 -90 -118 -153 -169c-14 -11 -22 -32 -40 -32
c-12 0 -21 9 -21 21z" fill="currentColor"/>
</g>
<g transform="translate(6.6885, 4.3339)">
<path transform="scale(0.0040, -0.0040)" d="M208 319c21 13 42 27 57 47c11 15 18 32 25 49c4 9 20 7 20 -7v-256h68c9 0 13 -7 13 -14s-4 -13 -13 -13h-68v-16c0 -45 26 -88 68 -88c7 0 10 -5 10 -10s-3 -11 -10 -11c-41 0 -82 13 -123 13s-82 -13 -123 -13c-7 0 -10 6 -10 11s3 10 10 10c42 0 68 43 68 88v16h-173
c-21 0 -29 13 -29 21c0 2 1 5 2 6c81 96 146 208 146 333c0 10 7 18 15 15c22 -7 44 -13 67 -13s45 6 67 13c12 4 21 -8 15 -15l-283 -333h173v147c0 8 2 16 8 20z" fill="currentColor"/>
</g>
<g transform="translate(6.6885, 6.3624)">
<path transform="scale(0.0040, -0.0040)" d="M208 319c21 13 42 27 57 47c11 15 18 32 25 49c4 9 20 7 20 -7v-256h68c9 0 13 -7 13 -14s-4 -13 -13 -13h-68v-16c0 -45 26 -88 68 -88c7 0 10 -5 10 -10s-3 -11 -10 -11c-41 0 -82 13 -123 13s-82 -13 -123 -13c-7 0 -10 6 -10 11s3 10 10 10c42 0 68 43 68 88v16h-173
c-21 0 -29 13 -29 21c0 2 1 5 2 6c81 96 146 208 146 333c0 10 7 18 15 15c22 -7 44 -13 67 -13s45 6 67 13c12 4 21 -8 15 -15l-283 -333h173v147c0 8 2 16 8 20z" fill="currentColor"/>
</g>
<g transform="translate(11.5135, 4.3339)">
<rect x="-0.0474" y="-2.0000" width="0.0948" height="3.3033" ry="0.0235" fill="currentColor"/>
</g>
<g transform="translate(13.6109, 5.8339)">
<path transform="scale(0.0040, -0.0040)" d="M222 135c53 0 104 -27 104 -86c0 -71 -56 -120 -103 -148c-36 -22 -76 -36 -118 -36c-53 0 -105 27 -105 86c0 71 57 120 104 148c36 22 76 36 118 36z" fill="currentColor"/>
</g>
<g transform="translate(27.2323, 4.3339)">
<path transform="scale(0.0040, -0.0040)" d="M222 135c53 0 104 -27 104 -86c0 -71 -56 -120 -103 -148c-36 -22 -76 -36 -118 -36c-53 0 -105 27 -105 86c0 71 57 120 104 148c36 22 76 36 118 36z" fill="currentColor"/>
</g>
<g transform="translate(38.2679, 3.8339)">
<path transform="scale(0.0040, -0.0040)" d="M316 67c0 25 -20 42 -42 42c-4 0 -9 -1 -13 -2c-31 -9 -79 -41 -117 -65s-86 -55 -107 -80c-7 -8 -10 -19 -10 -29c0 -25 20 -42 42 -42c4 0 9 1 13 2c31 9 79 41 117 65s86 55 107 80c7 8 10 19 10 29zM265 135c44 0 78 -21 78 -68c0 -19 -5 -39 -11 -57
c-12 -37 -33 -71 -65 -93c-53 -36 -114 -52 -189 -52c-44 0 -78 21 -78 68c0 19 5 39 11 57c12 37 33 71 65 93c53 36 114 52 189 52z" fill="currentColor"/>
</g>
<g transform="translate(30.2361, 4.3339)">
<path transform="scale(0.0040, -0.0040)" d="M222 135c53 0 104 -27 104 -86c0 -71 -56 -120 -103 -148c-36 -22 -76 -36 -118 -36c-53 0 -105 27 -105 86c0 71 57 120 104 148c36 22 76 36 118 36z" fill="currentColor"/>
</g>
<g transform="translate(30.2835, 4.3339)">
<rect x="-0.0474" y="0.1967" width="0.0948" height="3.1366" ry="0.0235" fill="currentColor"/>
</g>
<g transform="translate(27.2797, 4.3339)">
<rect x="-0.0474" y="0.1967" width="0.0948" height="3.1366" ry="0.0235" fill="currentColor"/>
</g>
<g transform="translate(29.1901, 4.3339)">
<path transform="scale(0.0040, -0.0040)" d="M-7 375c7 4 16 6 24 6s16 -2 23 -6l-2 -177l109 18c1 0 2 1 3 1c9 0 17 -8 17 -17l7 -575c-7 -4 -16 -6 -24 -6s-17 2 -24 6l2 177l-109 -18c-1 0 -1 -1 -2 -1c-9 0 -17 8 -17 17zM132 114l-95 -15l-3 -213l96 15z" fill="currentColor"/>
</g>
<g transform="translate(33.2874, 4.3339)">
<rect x="-0.0474" y="-0.3033" width="0.0948" height="3.3033" ry="0.0235" fill="currentColor"/>
</g>
<g transform="translate(33.2400, 3.8339)">
<path transform="scale(0.0040, -0.0040)" d="M222 135c53 0 104 -27 104 -86c0 -71 -56 -120 -103 -148c-36 -22 -76 -36 -118 -36c-53 0 -105 27 -105 86c0 71 57 120 104 148c36 22 76 36 118 36z" fill="currentColor"/>
</g>
<g transform="translate(38.3153, 4.3339)">
<rect x="-0.0474" y="-0.2316" width="0.0948" height="3.2316" ry="0.0235" fill="currentColor"/>
</g>
<g transform="translate(0.3347, 15.3339)">
<line stroke-linejoin="round" stroke-linecap="round" stroke-width="0.0729" stroke="currentColor" x1="0.0365" y1="0" x2="68.9524" y2="0"/>
</g>
<g transform="translate(0.3347, 16.8339)">
<line stroke-linejoin="round" stroke-linecap="round" stroke-width="0.0729" stroke="currentColor" x1="0.0365" y1="0" x2="68.9524" y2="0"/>
</g>
<g transform="translate(0.3347, 19.8339)">
<line stroke-linejoin="round" stroke-linecap="round" stroke-width="0.0729" stroke="currentColor" x1="0.0365" y1="0" x2="68.9524" y2="0"/>
</g>
<g transform="translate(0.3347, 21.3339)">
<line stroke-linejoin="round" stroke-linecap="round" stroke-width="0.0729" stroke="currentColor" x1="0.0365" y1="0" x2="68.9524" y2="0"/>
</g>
<g transform="translate(36.2579, 18.3339)">
<rect x="0.0000" y="-3.0000" width="0.1386" height="6.0000" ry="0.0000" fill="currentColor"/>
</g>
<g transform="translate(46.0968, 18.3339)">
<rect x="0.0000" y="-3.0000" width="0.1386" height="6.0000" ry="0.0000" fill="currentColor"/>
</g>
<g transform="translate(23.3477, 18.3339)">
<rect x="0.0000" y="-3.0000" width="0.1386" height="6.0000" ry="0.0000" fill="currentColor"/>
</g>
<g transform="translate(55.9358, 18.3339)">
<rect x="0.0000" y="-3.0000" width="0.1386" height="6.0000" ry="0.0000" fill="currentColor"/>
</g>
<g transform="translate(69.1850, 18.3339)">
<rect x="0.0000" y="-3.0000" width="0.1386" height="6.0000" ry="0.0000" fill="currentColor"/>
</g>
<g transform="translate(0.3347, 18.3339)">
<rect x="64.9704" y="-0.0740" width="2.5313" height="0.1479" ry="0.0740" fill="currentColor"/>
</g>
<g transform="translate(0.3347, 18.3339)">
<rect x="62.4401" y="-0.0740" width="2.5313" height="0.1479" ry="0.0740" fill="currentColor"/>
</g>
<g transform="translate(0.3347, 17.5839)">
<rect x="59.4098" y="-0.0740" width="2.5313" height="0.1479" ry="0.0740" fill="currentColor"/>
</g>
<g transform="translate(0.3347, 18.3339)">
<rect x="59.4098" y="-0.0740" width="2.5313" height="0.1479" ry="0.0740" fill="currentColor"/>
</g>
<g transform="translate(0.3347, 18.3339)">
<rect x="59.4098" y="-0.0740" width="2.5313" height="0.1479" ry="0.0740" fill="currentColor"/>
</g>
<g transform="translate(0.3347, 19.0839)">
<rect x="59.4098" y="-0.0740" width="2.5313" height="0.1479" ry="0.0740" fill="currentColor"/>
</g>
<g transform="translate(0.3347, 17.5839)">
<rect x="56.3794" y="-0.0740" width="2.5313" height="0.1479" ry="0.0740" fill="currentColor"/>
</g>
<g transform="translate(0.3347, 18.3339)">
<rect x="56.3794" y="-0.0740" width="2.5313" height="0.1479" ry="0.0740" fill="currentColor"/>
</g>
<g transform="translate(0.3347, 17.5839)">
<rect x="41.1462" y="-0.0740" width="2.5786" height="0.1479" ry="0.0740" fill="currentColor"/>
</g>
<g transform="translate(0.3347, 18.3339)">
<rect x="41.1462" y="-0.0740" width="2.5786" height="0.1479" ry="0.0740" fill="currentColor"/>
</g>
<g transform="translate(0.3347, 18.3339)">
<rect x="37.3267" y="-0.0740" width="2.1429" height="0.1479" ry="0.0740" fill="currentColor"/>
</g>
<g transform="translate(0.3347, 18.3339)">
<rect x="32.5433" y="-0.0740" width="2.5313" height="0.1479" ry="0.0740" fill="currentColor"/>
</g>
<g transform="translate(0.3347, 18.3339)">
<rect x="29.9372" y="-0.0740" width="2.1068" height="0.1479" ry="0.0740" fill="currentColor"/>
</g>
<g transform="translate(0.3347, 18.3339)">
<rect x="26.4823" y="-0.0740" width="2.5313" height="0.1479" ry="0.0740" fill="currentColor"/>
</g>
<g transform="translate(0.3347, 19.0839)">
<rect x="26.4823" y="-0.0740" width="2.5313" height="0.1479" ry="0.0740" fill="currentColor"/>
</g>
<g transform="translate(0.3347, 20.5839)">
<rect x="13.4970" y="-0.0740" width="2.1068" height="0.1479" ry="0.0740" fill="currentColor"/>
</g>
<g transform="scale(1.0000, 1.0000)">
<g transform="translate(47.0804, 17.2089)">
<path stroke-width="0.2000" stroke-linejoin="round" stroke-linecap="round" stroke="currentColor" fill="none" d="M0 0.5000L0 -0.5000"/>
</g>
<g transform="translate(47.0804, 16.7089)">
<circle stroke-linejoin="round" stroke-linecap="round" fill="currentColor" stroke="currentColor" stroke-width="0.0100" r="0.2400"/>
</g>
</g>
<g transform="scale(1.0000, 1.0000)">
<g transform="translate(51.9306, 16.8339)">
<path stroke-width="0.0001" stroke-linejoin="round" stroke-linecap="round" stroke="currentColor" fill="currentColor" d="M1.0265 -0.4999C1.2152 -0.4618 1.3372 -0.3515 1.3549 -0.2025C1.3692 -0.0828 1.3124 0.0767 1.2094 0.2063C1.0774 0.3724 0.8892 0.4721 0.6459 0.5049C0.5851 0.5131 0.5489 0.5134 0.4433 0.5068C0.3289 0.4996 0.3088 0.4966 0.2606 0.4798C0.1181 0.4300 0.0248 0.3354 0.0042 0.2196C-0.0154 0.1092 0.0352 -0.0503 0.1321 -0.1828C0.2682 -0.3692 0.4766 -0.4818 0.7307 -0.5063C0.8236 -0.5152 0.9655 -0.5122 1.0265 -0.4999zM0.8920 -0.3272C0.8019 -0.3059 0.6744 -0.2509 0.5172 -0.1656C0.1997 0.0069 0.1097 0.0977 0.1513 0.2039C0.1688 0.2487 0.1917 0.2776 0.2265 0.2986C0.3097 0.3488 0.4220 0.3375 0.6348 0.2572C0.9775 0.1280 1.2160 -0.0339 1.2240 -0.1427C1.2287 -0.2070 1.1849 -0.2813 1.1220 -0.3156C1.0837 -0.3365 1.0773 -0.3379 1.0151 -0.3393C0.9699 -0.3403 0.9308 -0.3364 0.8920 -0.3272z"/>
</g>
</g>
<g transform="translate(51.9780, 18.3339)">
<rect x="-0.0474" y="-1.2453" width="0.0948" height="3.2453" ry="0.0235" fill="currentColor"/>
</g>
<g transform="scale(1.0000, 1.0000)">
<g transform="translate(57.3137, 17.5839)">
<path stroke-width="0.0001" stroke-linejoin="round" stroke-linecap="round" stroke="currentColor" fill="currentColor" d="M1.0162 -0.5005C1.1901 -0.4580 1.3000 -0.3601 1.3267 -0.2237C1.3473 -0.1188 1.3091 0.0324 1.2347 0.1410C1.1037 0.3322 0.8787 0.4644 0.6176 0.5036C0.5244 0.5176 0.3659 0.5121 0.2884 0.4921C-0.0297 0.4098 -0.0964 0.0918 0.1475 -0.1799C0.2984 -0.3479 0.5439 -0.4756 0.7758 -0.5066C0.8400 -0.5151 0.9696 -0.5119 1.0162 -0.5005z"/>
</g>
</g>
<g transform="scale(1.0000, 1.0000)">
<g transform="translate(57.3137, 16.4589)">
<path stroke-width="0.0001" stroke-linejoin="round" stroke-linecap="round" stroke="currentColor" fill="currentColor" d="M1.0162 -0.5005C1.1901 -0.4580 1.3000 -0.3601 1.3267 -0.2237C1.3473 -0.1188 1.3091 0.0324 1.2347 0.1410C1.1037 0.3322 0.8787 0.4644 0.6176 0.5036C0.5244 0.5176 0.3659 0.5121 0.2884 0.4921C-0.0297 0.4098 -0.0964 0.0918 0.1475 -0.1799C0.2984 -0.3479 0.5439 -0.4756 0.7758 -0.5066C0.8400 -0.5151 0.9696 -0.5119 1.0162 -0.5005z"/>
</g>
</g>
<g transform="scale(1.0000, 1.0000)">
<g transform="translate(37.2415, 17.9589)">
<path stroke-width="0.2000" stroke-linejoin="round" stroke-linecap="round" stroke="currentColor" fill="none" d="M0 0.5000L0 -0.5000"/>
</g>
<g transform="translate(37.2415, 17.4589)">
<circle stroke-linejoin="round" stroke-linecap="round" fill="currentColor" stroke="currentColor" stroke-width="0.0100" r="0.2400"/>
</g>
</g>
<g transform="scale(1.0000, 1.0000)">
<g transform="translate(57.3137, 14.9589)">
<path stroke-width="0.0001" stroke-linejoin="round" stroke-linecap="round" stroke="currentColor" fill="currentColor" d="M1.0162 -0.5005C1.1901 -0.4580 1.3000 -0.3601 1.3267 -0.2237C1.3473 -0.1188 1.3091 0.0324 1.2347 0.1410C1.1037 0.3322 0.8787 0.4644 0.6176 0.5036C0.5244 0.5176 0.3659 0.5121 0.2884 0.4921C-0.0297 0.4098 -0.0964 0.0918 0.1475 -0.1799C0.2984 -0.3479 0.5439 -0.4756 0.7758 -0.5066C0.8400 -0.5151 0.9696 -0.5119 1.0162 -0.5005z"/>
</g>
</g>
<g transform="scale(1.0000, 1.0000)">
<g transform="translate(42.0916, 17.5839)">
<path stroke-width="0.0001" stroke-linejoin="round" stroke-linecap="round" stroke="currentColor" fill="currentColor" d="M1.0265 -0.4999C1.2152 -0.4618 1.3372 -0.3515 1.3549 -0.2025C1.3692 -0.0828 1.3124 0.0767 1.2094 0.2063C1.0774 0.3724 0.8892 0.4721 0.6459 0.5049C0.5851 0.5131 0.5489 0.5134 0.4433 0.5068C0.3289 0.4996 0.3088 0.4966 0.2606 0.4798C0.1181 0.4300 0.0248 0.3354 0.0042 0.2196C-0.0154 0.1092 0.0352 -0.0503 0.1321 -0.1828C0.2682 -0.3692 0.4766 -0.4818 0.7307 -0.5063C0.8236 -0.5152 0.9655 -0.5122 1.0265 -0.4999zM0.8920 -0.3272C0.8019 -0.3059 0.6744 -0.2509 0.5172 -0.1656C0.1997 0.0069 0.1097 0.0977 0.1513 0.2039C0.1688 0.2487 0.1917 0.2776 0.2265 0.2986C0.3097 0.3488 0.4220 0.3375 0.6348 0.2572C0.9775 0.1280 1.2160 -0.0339 1.2240 -0.1427C1.2287 -0.2070 1.1849 -0.2813 1.1220 -0.3156C1.0837 -0.3365 1.0773 -0.3379 1.0151 -0.3393C0.9699 -0.3403 0.9308 -0.3364 0.8920 -0.3272z"/>
</g>
</g>
<g transform="translate(42.1391, 18.3339)">
<rect x="-0.0474" y="-0.4953" width="0.0948" height="3.2453" ry="0.0235" fill="currentColor"/>
</g>
<g transform="scale(1.0000, 1.0000)">
<g transform="translate(47.6754, 17.2089)">
<path stroke-width="0.0001" stroke-linejoin="round" stroke-linecap="round" stroke="currentColor" fill="currentColor" d="M1.0265 -0.4999C1.2152 -0.4618 1.3372 -0.3515 1.3549 -0.2025C1.3692 -0.0828 1.3124 0.0767 1.2094 0.2063C1.0774 0.3724 0.8892 0.4721 0.6459 0.5049C0.5851 0.5131 0.5489 0.5134 0.4433 0.5068C0.3289 0.4996 0.3088 0.4966 0.2606 0.4798C0.1181 0.4300 0.0248 0.3354 0.0042 0.2196C-0.0154 0.1092 0.0352 -0.0503 0.1321 -0.1828C0.2682 -0.3692 0.4766 -0.4818 0.7307 -0.5063C0.8236 -0.5152 0.9655 -0.5122 1.0265 -0.4999zM0.8920 -0.3272C0.8019 -0.3059 0.6744 -0.2509 0.5172 -0.1656C0.1997 0.0069 0.1097 0.0977 0.1513 0.2039C0.1688 0.2487 0.1917 0.2776 0.2265 0.2986C0.3097 0.3488 0.4220 0.3375 0.6348 0.2572C0.9775 0.1280 1.2160 -0.0339 1.2240 -0.1427C1.2287 -0.2070 1.1849 -0.2813 1.1220 -0.3156C1.0837 -0.3365 1.0773 -0.3379 1.0151 -0.3393C0.9699 -0.3403 0.9308 -0.3364 0.8920 -0.3272z"/>
</g>
</g>
<g transform="translate(47.7228, 18.3339)">
<rect x="-0.0474" y="-0.8703" width="0.0948" height="3.2453" ry="0.0235" fill="currentColor"/>
</g>
<g transform="scale(1.0000, 1.0000)">
<g transform="translate(65.9047, 18.3339)">
<path stroke-width="0.0001" stroke-linejoin="round" stroke-linecap="round" stroke="currentColor" fill="currentColor" d="M1.0162 -0.5005C1.1901 -0.4580 1.3000 -0.3601 1.3267 -0.2237C1.3473 -0.1188 1.3091 0.0324 1.2347 0.1410C1.1037 0.3322 0.8787 0.4644 0.6176 0.5036C0.5244 0.5176 0.3659 0.5121 0.2884 0.4921C-0.0297 0.4098 -0.0964 0.0918 0.1475 -0.1799C0.2984 -0.3479 0.5439 -0.4756 0.7758 -0.5066C0.8400 -0.5151 0.9696 -0.5119 1.0162 -0.5005z"/>
</g>
</g>
<g transform="scale(1.0000, 1.0000)">
<g transform="translate(63.3744, 18.3339)">
<path stroke-width="0.0001" stroke-linejoin="round" stroke-linecap="round" stroke="currentColor" fill="currentColor" d="M1.0162 -0.5005C1.1901 -0.4580 1.3000 -0.3601 1.3267 -0.2237C1.3473 -0.1188 1.3091 0.0324 1.2347 0.1410C1.1037 0.3322 0.8787 0.4644 0.6176 0.5036C0.5244 0.5176 0.3659 0.5121 0.2884 0.4921C-0.0297 0.4098 -0.0964 0.0918 0.1475 -0.1799C0.2984 -0.3479 0.5439 -0.4756 0.7758 -0.5066C0.8400 -0.5151 0.9696 -0.5119 1.0162 -0.5005z"/>
</g>
</g>
<g transform="scale(1.0000, 1.0000)">
<g transform="translate(63.3744, 16.8339)">
<path stroke-width="0.0001" stroke-linejoin="round" stroke-linecap="round" stroke="currentColor" fill="currentColor" d="M1.0162 -0.5005C1.1901 -0.4580 1.3000 -0.3601 1.3267 -0.2237C1.3473 -0.1188 1.3091 0.0324 1.2347 0.1410C1.1037 0.3322 0.8787 0.4644 0.6176 0.5036C0.5244 0.5176 0.3659 0.5121 0.2884 0.4921C-0.0297 0.4098 -0.0964 0.0918 0.1475 -0.1799C0.2984 -0.3479 0.5439 -0.4756 0.7758 -0.5066C0.8400 -0.5151 0.9696 -0.5119 1.0162 -0.5005z"/>
</g>
</g>
<g transform="scale(1.0000, 1.0000)">
<g transform="translate(63.3744, 15.7089)">
<path stroke-width="0.0001" stroke-linejoin="round" stroke-linecap="round" stroke="currentColor" fill="currentColor" d="M1.0162 -0.5005C1.1901 -0.4580 1.3000 -0.3601 1.3267 -0.2237C1.3473 -0.1188 1.3091 0.0324 1.2347 0.1410C1.1037 0.3322 0.8787 0.4644 0.6176 0.5036C0.5244 0.5176 0.3659 0.5121 0.2884 0.4921C-0.0297 0.4098 -0.0964 0.0918 0.1475 -0.1799C0.2984 -0.3479 0.5439 -0.4756 0.7758 -0.5066C0.8400 -0.5151 0.9696 -0.5119 1.0162 -0.5005z"/>
</g>
</g>
<g transform="translate(63.4218, 18.3339)">
<rect x="-0.0474" y="-2.4383" width="0.0948" height="5.9383" ry="0.0235" fill="currentColor"/>
</g>
<g transform="scale(1.0000, 1.0000)">
<g transform="translate(65.9047, 20.9589)">
<path stroke-width="0.0001" stroke-linejoin="round" stroke-linecap="round" stroke="currentColor" fill="currentColor" d="M1.0162 -0.5005C1.1901 -0.4580 1.3000 -0.3601 1.3267 -0.2237C1.3473 -0.1188 1.3091 0.0324 1.2347 0.1410C1.1037 0.3322 0.8787 0.4644 0.6176 0.5036C0.5244 0.5176 0.3659 0.5121 0.2884 0.4921C-0.0297 0.4098 -0.0964 0.0918 0.1475 -0.1799C0.2984 -0.3479 0.5439 -0.4756 0.7758 -0.5066C0.8400 -0.5151 0.9696 -0.5119 1.0162 -0.5005z"/>
</g>
</g>
<g transform="scale(1.0000, 1.0000)">
<g transform="translate(65.9047, 19.4589)">
<path stroke-width="0.0001" stroke-linejoin="round" stroke-linecap="round" stroke="currentColor" fill="currentColor" d="M1.0162 -0.5005C1.1901 -0.4580 1.3000 -0.3601 1.3267 -0.2237C1.3473 -0.1188 1.3091 0.0324 1.2347 0.1410C1.1037 0.3322 0.8787 0.4644 0.6176 0.5036C0.5244 0.5176 0.3659 0.5121 0.2884 0.4921C-0.0297 0.4098 -0.0964 0.0918 0.1475 -0.1799C0.2984 -0.3479 0.5439 -0.4756 0.7758 -0.5066C0.8400 -0.5151 0.9696 -0.5119 1.0162 -0.5005z"/>
</g>
</g>
<g transform="translate(67.1896, 18.3339)">
<rect x="-0.0474" y="-3.5000" width="0.0948" height="5.9383" ry="0.0235" fill="currentColor"/>
</g>
<g transform="translate(57.3611, 18.3339)">
<rect x="-0.0474" y="-3.1883" width="0.0948" height="5.9383" ry="0.0235" fill="currentColor"/>
</g>
<g transform="scale(1.0000, 1.0000)">
<g transform="translate(60.3440, 19.0839)">
<path stroke-width="0.0001" stroke-linejoin="round" stroke-linecap="round" stroke="currentColor" fill="currentColor" d="M1.0162 -0.5005C1.1901 -0.4580 1.3000 -0.3601 1.3267 -0.2237C1.3473 -0.1188 1.3091 0.0324 1.2347 0.1410C1.1037 0.3322 0.8787 0.4644 0.6176 0.5036C0.5244 0.5176 0.3659 0.5121 0.2884 0.4921C-0.0297 0.4098 -0.0964 0.0918 0.1475 -0.1799C0.2984 -0.3479 0.5439 -0.4756 0.7758 -0.5066C0.8400 -0.5151 0.9696 -0.5119 1.0162 -0.5005z"/>
</g>
</g>
<g transform="scale(1.0000, 1.0000)">
<g transform="translate(60.3440, 17.5839)">
<path stroke-width="0.0001" stroke-linejoin="round" stroke-linecap="round" stroke="currentColor" fill="currentColor" d="M1.0162 -0.5005C1.1901 -0.4580 1.3000 -0.3601 1.3267 -0.2237C1.3473 -0.1188 1.3091 0.0324 1.2347 0.1410C1.1037 0.3322 0.8787 0.4644 0.6176 0.5036C0.5244 0.5176 0.3659 0.5121 0.2884 0.4921C-0.0297 0.4098 -0.0964 0.0918 0.1475 -0.1799C0.2984 -0.3479 0.5439 -0.4756 0.7758 -0.5066C0.8400 -0.5151 0.9696 -0.5119 1.0162 -0.5005z"/>
</g>
</g>
<g transform="scale(1.0000, 1.0000)">
<g transform="translate(60.3440, 16.4589)">
<path stroke-width="0.0001" stroke-linejoin="round" stroke-linecap="round" stroke="currentColor" fill="currentColor" d="M1.0162 -0.5005C1.1901 -0.4580 1.3000 -0.3601 1.3267 -0.2237C1.3473 -0.1188 1.3091 0.0324 1.2347 0.1410C1.1037 0.3322 0.8787 0.4644 0.6176 0.5036C0.5244 0.5176 0.3659 0.5121 0.2884 0.4921C-0.0297 0.4098 -0.0964 0.0918 0.1475 -0.1799C0.2984 -0.3479 0.5439 -0.4756 0.7758 -0.5066C0.8400 -0.5151 0.9696 -0.5119 1.0162 -0.5005z"/>
</g>
</g>
<g transform="translate(60.3915, 18.3339)">
<rect x="-0.0474" y="-1.6883" width="0.0948" height="5.7716" ry="0.0235" fill="currentColor"/>
</g>
<g transform="scale(1.0000, 1.0000)">
<g transform="translate(20.0673, 19.8339)">
<path stroke-width="0.0001" stroke-linejoin="round" stroke-linecap="round" stroke="currentColor" fill="currentColor" d="M1.0162 -0.5005C1.1901 -0.4580 1.3000 -0.3601 1.3267 -0.2237C1.3473 -0.1188 1.3091 0.0324 1.2347 0.1410C1.1037 0.3322 0.8787 0.4644 0.6176 0.5036C0.5244 0.5176 0.3659 0.5121 0.2884 0.4921C-0.0297 0.4098 -0.0964 0.0918 0.1475 -0.1799C0.2984 -0.3479 0.5439 -0.4756 0.7758 -0.5066C0.8400 -0.5151 0.9696 -0.5119 1.0162 -0.5005z"/>
</g>
</g>
<g transform="scale(1.0000, 1.0000)">
<g transform="translate(13.4117, 20.5839)">
<path stroke-width="0.2000" stroke-linejoin="round" stroke-linecap="round" stroke="currentColor" fill="none" d="M0 0.5000L0 -0.5000"/>
</g>
<g transform="translate(13.4117, 20.0839)">
<circle stroke-linejoin="round" stroke-linecap="round" fill="currentColor" stroke="currentColor" stroke-width="0.0100" r="0.2400"/>
</g>
</g>
<g transform="scale(1.0000, 1.0000)">
<g transform="translate(17.0370, 20.2089)">
<path stroke-width="0.0001" stroke-linejoin="round" stroke-linecap="round" stroke="currentColor" fill="currentColor" d="M1.0162 -0.5005C1.1901 -0.4580 1.3000 -0.3601 1.3267 -0.2237C1.3473 -0.1188 1.3091 0.0324 1.2347 0.1410C1.1037 0.3322 0.8787 0.4644 0.6176 0.5036C0.5244 0.5176 0.3659 0.5121 0.2884 0.4921C-0.0297 0.4098 -0.0964 0.0918 0.1475 -0.1799C0.2984 -0.3479 0.5439 -0.4756 0.7758 -0.5066C0.8400 -0.5151 0.9696 -0.5119 1.0162 -0.5005z"/>
</g>
</g>
<g transform="translate(18.3219, 18.3339)">
<rect x="-0.0474" y="-1.6250" width="0.0948" height="3.3133" ry="0.0235" fill="currentColor"/>
</g>
<g transform="translate(15.2916, 18.3339)">
<rect x="-0.0474" y="-1.2500" width="0.0948" height="3.3133" ry="0.0235" fill="currentColor"/>
</g>
<g transform="translate(21.3522, 18.3339)">
<rect x="-0.0474" y="-2.0000" width="0.0948" height="3.3133" ry="0.0235" fill="currentColor"/>
</g>
<g transform="scale(1.0000, 1.0000)">
<g transform="translate(19.4723, 19.8339)">
<path stroke-width="0.2000" stroke-linejoin="round" stroke-linecap="round" stroke="currentColor" fill="none" d="M0 0.5000L0 -0.5000"/>
</g>
<g transform="translate(19.4723, 19.3339)">
<circle stroke-linejoin="round" stroke-linecap="round" fill="currentColor" stroke="currentColor" stroke-width="0.0100" r="0.2400"/>
</g>
</g>
<g transform="scale(1.0000, 1.0000)">
<g transform="translate(24.3863, 19.4589)">
<path stroke-width="0.0001" stroke-linejoin="round" stroke-linecap="round" stroke="currentColor" fill="currentColor" d="M1.0162 -0.5005C1.1901 -0.4580 1.3000 -0.3601 1.3267 -0.2237C1.3473 -0.1188 1.3091 0.0324 1.2347 0.1410C1.1037 0.3322 0.8787 0.4644 0.6176 0.5036C0.5244 0.5176 0.3659 0.5121 0.2884 0.4921C-0.0297 0.4098 -0.0964 0.0918 0.1475 -0.1799C0.2984 -0.3479 0.5439 -0.4756 0.7758 -0.5066C0.8400 -0.5151 0.9696 -0.5119 1.0162 -0.5005z"/>
</g>
</g>
<g transform="translate(25.6711, 18.3339)">
<rect x="-0.0474" y="-2.3750" width="0.0948" height="3.3133" ry="0.0235" fill="currentColor"/>
</g>
<g transform="scale(1.0000, 1.0000)">
<g transform="translate(10.9764, 20.9589)">
<path stroke-width="0.0001" stroke-linejoin="round" stroke-linecap="round" stroke="currentColor" fill="currentColor" d="M1.0162 -0.5005C1.1901 -0.4580 1.3000 -0.3601 1.3267 -0.2237C1.3473 -0.1188 1.3091 0.0324 1.2347 0.1410C1.1037 0.3322 0.8787 0.4644 0.6176 0.5036C0.5244 0.5176 0.3659 0.5121 0.2884 0.4921C-0.0297 0.4098 -0.0964 0.0918 0.1475 -0.1799C0.2984 -0.3479 0.5439 -0.4756 0.7758 -0.5066C0.8400 -0.5151 0.9696 -0.5119 1.0162 -0.5005z"/>
</g>
</g>
<g color="rgb(50.0000%, 50.0000%, 50.0000%)">
<g transform="translate(3.8514, 14.7972)">
<text font-family="sans-serif" font-size="1.1000" text-anchor="start" fill="currentColor">
<tspan>Clairnote SN</tspan>
</text>
</g>
</g>
<g transform="scale(1.0000, 1.0000)">
<g transform="translate(1.1348, 20.2089)">
<path stroke-width="0.0001" stroke-linejoin="round" stroke-linecap="round" stroke="currentColor" fill="currentColor" d="M1.5506 -4.7684C1.5376 -4.7684 1.5066 -4.7511 1.5136 -4.7338L1.7544 -4.1729C1.8234 -3.9737 1.8444 -3.8833 1.8444 -3.6642C1.8444 -3.1620 1.5635 -2.7697 1.2174 -2.3831L1.0789 -2.2278C0.5727 -1.6898 0 -1.1644 0 -0.4591C0 0.3671 0.6414 1.0500 1.4549 1.0500C1.5319 1.0500 1.6984 1.0492 1.8799 1.0372C2.0139 1.0282 2.1594 0.9969 2.2732 0.9744C2.3771 0.9538 2.5752 0.8757 2.5752 0.8757C2.7512 0.8152 2.6612 0.6291 2.5442 0.6835C2.5442 0.6835 2.3481 0.7626 2.2449 0.7822C2.1355 0.8030 1.9939 0.8319 1.8645 0.8382C1.6935 0.8462 1.5257 0.8402 1.4569 0.8352C1.1541 0.8139 0.8667 0.6743 0.6558 0.4876C0.5148 0.3628 0.3782 0.1741 0.3582 -0.1271C0.3582 -0.7647 0.7920 -1.2315 1.2550 -1.7136L1.3978 -1.8652C1.8046 -2.2996 2.1850 -2.7583 2.1850 -3.3281C2.1850 -3.7785 1.9185 -4.4220 1.6113 -4.7568C1.5983 -4.7686 1.5713 -4.7719 1.5513 -4.7683z"/>
</g>
</g>
<g transform="scale(0.9000, 0.9000)">
<g transform="translate(2.1449, 23.1543)">
<path transform="scale(0.0040, -0.0040)" d="M208 319c21 13 42 27 57 47c11 15 18 32 25 49c4 9 20 7 20 -7v-256h68c9 0 13 -7 13 -14s-4 -13 -13 -13h-68v-16c0 -45 26 -88 68 -88c7 0 10 -5 10 -10s-3 -11 -10 -11c-41 0 -82 13 -123 13s-82 -13 -123 -13c-7 0 -10 6 -10 11s3 10 10 10c42 0 68 43 68 88v16h-173
c-21 0 -29 13 -29 21c0 2 1 5 2 6c81 96 146 208 146 333c0 10 7 18 15 15c22 -7 44 -13 67 -13s45 6 67 13c12 4 21 -8 15 -15l-283 -333h173v147c0 8 2 16 8 20z" fill="currentColor"/>
</g>
</g>
<g transform="scale(1.0000, 1.0000)">
<g transform="translate(5.8498, 16.8339)">
<path stroke-width="0.1400" stroke-linejoin="round" stroke-linecap="round" stroke="currentColor" fill="currentColor" d="M0.3400 0C0.3400 -0.3400 -0.3400 -0.3400 -0.3400 0C-0.3400 0.3400 0.3400 0.3400 0.3400 0z"/>
</g>
<g transform="translate(5.8498, 17.5839)">
<path stroke-width="0.1400" stroke-linejoin="round" stroke-linecap="round" stroke="currentColor" fill="currentColor" d="M0.3400 0C0.3400 -0.3400 -0.3400 -0.3400 -0.3400 0C-0.3400 0.3400 0.3400 0.3400 0.3400 0z"/>
</g>
<g transform="translate(5.8498, 18.3339)">
<path stroke-width="0.1400" stroke-linejoin="round" stroke-linecap="round" stroke="currentColor" fill="currentColor" d="M0.3400 0C0.3400 -0.3400 -0.3400 -0.3400 -0.3400 0C-0.3400 0.3400 0.3400 0.3400 0.3400 0z"/>
</g>
<g transform="translate(5.5298, 19.0839)">
<path stroke-width="0.2200" stroke-linejoin="round" stroke-linecap="round" stroke="currentColor" fill="none" d="M0 -0.2000L-0.7000 -0.9000"/>
</g>
<g transform="translate(5.8498, 19.0839)">
<path stroke-width="0.1400" stroke-linejoin="round" stroke-linecap="round" stroke="currentColor" fill="currentColor" d="M0.3400 0C0.3400 -0.3400 -0.3400 -0.3400 -0.3400 0C-0.3400 0.3400 0.3400 0.3400 0.3400 0z"/>
</g>
<g transform="translate(5.0498, 19.4589)">
<path stroke-width="0.1500" stroke-linejoin="round" stroke-linecap="round" stroke="currentColor" fill="none" d="M0.3400 0C0.3400 -0.3400 -0.3400 -0.3400 -0.3400 0C-0.3400 0.3400 0.3400 0.3400 0.3400 0z"/>
</g>
<g transform="translate(5.0498, 20.2089)">
<path stroke-width="0.1500" stroke-linejoin="round" stroke-linecap="round" stroke="currentColor" fill="none" d="M0.3400 0C0.3400 -0.3400 -0.3400 -0.3400 -0.3400 0C-0.3400 0.3400 0.3400 0.3400 0.3400 0z"/>
</g>
<g transform="translate(5.0498, 20.9589)">
<path stroke-width="0.1500" stroke-linejoin="round" stroke-linecap="round" stroke="currentColor" fill="none" d="M0.3400 0C0.3400 -0.3400 -0.3400 -0.3400 -0.3400 0C-0.3400 0.3400 0.3400 0.3400 0.3400 0z"/>
</g>
</g>
<g transform="translate(7.4098, 19.2982)">
<path transform="scale(0.0040, -0.0040)" d="M208 319c21 13 42 27 57 47c11 15 18 32 25 49c4 9 20 7 20 -7v-256h68c9 0 13 -7 13 -14s-4 -13 -13 -13h-68v-16c0 -45 26 -88 68 -88c7 0 10 -5 10 -10s-3 -11 -10 -11c-41 0 -82 13 -123 13s-82 -13 -123 -13c-7 0 -10 6 -10 11s3 10 10 10c42 0 68 43 68 88v16h-173
c-21 0 -29 13 -29 21c0 2 1 5 2 6c81 96 146 208 146 333c0 10 7 18 15 15c22 -7 44 -13 67 -13s45 6 67 13c12 4 21 -8 15 -15l-283 -333h173v147c0 8 2 16 8 20z" fill="currentColor"/>
</g>
<g transform="translate(7.4098, 21.3267)">
<path transform="scale(0.0040, -0.0040)" d="M208 319c21 13 42 27 57 47c11 15 18 32 25 49c4 9 20 7 20 -7v-256h68c9 0 13 -7 13 -14s-4 -13 -13 -13h-68v-16c0 -45 26 -88 68 -88c7 0 10 -5 10 -10s-3 -11 -10 -11c-41 0 -82 13 -123 13s-82 -13 -123 -13c-7 0 -10 6 -10 11s3 10 10 10c42 0 68 43 68 88v16h-173
c-21 0 -29 13 -29 21c0 2 1 5 2 6c81 96 146 208 146 333c0 10 7 18 15 15c22 -7 44 -13 67 -13s45 6 67 13c12 4 21 -8 15 -15l-283 -333h173v147c0 8 2 16 8 20z" fill="currentColor"/>
</g>
<g transform="translate(12.2612, 18.3339)">
<rect x="-0.0474" y="-0.8750" width="0.0948" height="3.3133" ry="0.0235" fill="currentColor"/>
</g>
<g transform="scale(1.0000, 1.0000)">
<g transform="translate(14.0067, 20.5839)">
<path stroke-width="0.0001" stroke-linejoin="round" stroke-linecap="round" stroke="currentColor" fill="currentColor" d="M1.0162 -0.5005C1.1901 -0.4580 1.3000 -0.3601 1.3267 -0.2237C1.3473 -0.1188 1.3091 0.0324 1.2347 0.1410C1.1037 0.3322 0.8787 0.4644 0.6176 0.5036C0.5244 0.5176 0.3659 0.5121 0.2884 0.4921C-0.0297 0.4098 -0.0964 0.0918 0.1475 -0.1799C0.2984 -0.3479 0.5439 -0.4756 0.7758 -0.5066C0.8400 -0.5151 0.9696 -0.5119 1.0162 -0.5005z"/>
</g>
</g>
<g transform="scale(1.0000, 1.0000)">
<g transform="translate(27.4166, 19.0839)">
<path stroke-width="0.0001" stroke-linejoin="round" stroke-linecap="round" stroke="currentColor" fill="currentColor" d="M1.0162 -0.5005C1.1901 -0.4580 1.3000 -0.3601 1.3267 -0.2237C1.3473 -0.1188 1.3091 0.0324 1.2347 0.1410C1.1037 0.3322 0.8787 0.4644 0.6176 0.5036C0.5244 0.5176 0.3659 0.5121 0.2884 0.4921C-0.0297 0.4098 -0.0964 0.0918 0.1475 -0.1799C0.2984 -0.3479 0.5439 -0.4756 0.7758 -0.5066C0.8400 -0.5151 0.9696 -0.5119 1.0162 -0.5005z"/>
</g>
</g>
<g transform="scale(1.0000, 1.0000)">
<g transform="translate(37.8365, 17.9589)">
<path stroke-width="0.0001" stroke-linejoin="round" stroke-linecap="round" stroke="currentColor" fill="currentColor" d="M1.0265 -0.4999C1.2152 -0.4618 1.3372 -0.3515 1.3549 -0.2025C1.3692 -0.0828 1.3124 0.0767 1.2094 0.2063C1.0774 0.3724 0.8892 0.4721 0.6459 0.5049C0.5851 0.5131 0.5489 0.5134 0.4433 0.5068C0.3289 0.4996 0.3088 0.4966 0.2606 0.4798C0.1181 0.4300 0.0248 0.3354 0.0042 0.2196C-0.0154 0.1092 0.0352 -0.0503 0.1321 -0.1828C0.2682 -0.3692 0.4766 -0.4818 0.7307 -0.5063C0.8236 -0.5152 0.9655 -0.5122 1.0265 -0.4999zM0.8920 -0.3272C0.8019 -0.3059 0.6744 -0.2509 0.5172 -0.1656C0.1997 0.0069 0.1097 0.0977 0.1513 0.2039C0.1688 0.2487 0.1917 0.2776 0.2265 0.2986C0.3097 0.3488 0.4220 0.3375 0.6348 0.2572C0.9775 0.1280 1.2160 -0.0339 1.2240 -0.1427C1.2287 -0.2070 1.1849 -0.2813 1.1220 -0.3156C1.0837 -0.3365 1.0773 -0.3379 1.0151 -0.3393C0.9699 -0.3403 0.9308 -0.3364 0.8920 -0.3272z"/>
</g>
</g>
<g transform="scale(1.0000, 1.0000)">
<g transform="translate(30.4469, 18.7089)">
<path stroke-width="0.0001" stroke-linejoin="round" stroke-linecap="round" stroke="currentColor" fill="currentColor" d="M1.0162 -0.5005C1.1901 -0.4580 1.3000 -0.3601 1.3267 -0.2237C1.3473 -0.1188 1.3091 0.0324 1.2347 0.1410C1.1037 0.3322 0.8787 0.4644 0.6176 0.5036C0.5244 0.5176 0.3659 0.5121 0.2884 0.4921C-0.0297 0.4098 -0.0964 0.0918 0.1475 -0.1799C0.2984 -0.3479 0.5439 -0.4756 0.7758 -0.5066C0.8400 -0.5151 0.9696 -0.5119 1.0162 -0.5005z"/>
</g>
</g>
<g transform="translate(31.7318, 18.3339)">
<rect x="-0.0474" y="-3.1250" width="0.0948" height="3.3133" ry="0.0235" fill="currentColor"/>
</g>
<g transform="translate(28.7015, 18.3339)">
<rect x="-0.0474" y="-2.7500" width="0.0948" height="3.3133" ry="0.0235" fill="currentColor"/>
</g>
<g transform="scale(1.0000, 1.0000)">
<g transform="translate(29.7969, 18.7089)">
<path stroke-width="0.3300" stroke-linejoin="round" stroke-linecap="round" stroke="currentColor" fill="none" d="M-0.1300 0.0700L0.1300 -0.0700"/>
</g>
<g transform="translate(29.9969, 19.0089)">
<path stroke-width="0.2000" stroke-linejoin="round" stroke-linecap="round" stroke="currentColor" fill="none" d="M0 0.3000L0 -0.3000"/>
</g>
<g transform="translate(29.5969, 18.4089)">
<path stroke-width="0.2000" stroke-linejoin="round" stroke-linecap="round" stroke="currentColor" fill="none" d="M0 0.3000L0 -0.3000"/>
</g>
</g>
<g transform="translate(33.5250, 18.3339)">
<rect x="-0.0474" y="0.1867" width="0.0948" height="3.3133" ry="0.0235" fill="currentColor"/>
</g>
<g transform="scale(1.0000, 1.0000)">
<g transform="translate(33.4775, 18.3339)">
<path stroke-width="0.0001" stroke-linejoin="round" stroke-linecap="round" stroke="currentColor" fill="currentColor" d="M1.0162 -0.5005C1.1901 -0.4580 1.3000 -0.3601 1.3267 -0.2237C1.3473 -0.1188 1.3091 0.0324 1.2347 0.1410C1.1037 0.3322 0.8787 0.4644 0.6176 0.5036C0.5244 0.5176 0.3659 0.5121 0.2884 0.4921C-0.0297 0.4098 -0.0964 0.0918 0.1475 -0.1799C0.2984 -0.3479 0.5439 -0.4756 0.7758 -0.5066C0.8400 -0.5151 0.9696 -0.5119 1.0162 -0.5005z"/>
</g>
</g>
<g transform="translate(37.8839, 18.3339)">
<rect x="-0.0474" y="-0.1203" width="0.0948" height="3.2453" ry="0.0235" fill="currentColor"/>
</g>
<g transform="translate(0.3347, 29.3339)">
<line stroke-linejoin="round" stroke-linecap="round" stroke-width="0.0729" stroke="currentColor" x1="0.0365" y1="0" x2="69.8127" y2="0"/>
</g>
<g transform="translate(0.3347, 30.8339)">
<line stroke-linejoin="round" stroke-linecap="round" stroke-width="0.0729" stroke="currentColor" x1="0.0365" y1="0" x2="69.8127" y2="0"/>
</g>
<g transform="translate(0.3347, 33.8339)">
<line stroke-linejoin="round" stroke-linecap="round" stroke-width="0.0729" stroke="currentColor" x1="0.0365" y1="0" x2="69.8127" y2="0"/>
</g>
<g transform="translate(0.3347, 35.3339)">
<line stroke-linejoin="round" stroke-linecap="round" stroke-width="0.0729" stroke="currentColor" x1="0.0365" y1="0" x2="69.8127" y2="0"/>
</g>
<g transform="translate(36.3573, 32.3339)">
<rect x="0.0000" y="-3.0000" width="0.1386" height="6.0000" ry="0.0000" fill="currentColor"/>
</g>
<g transform="translate(46.5270, 32.3339)">
<rect x="0.0000" y="-3.0000" width="0.1386" height="6.0000" ry="0.0000" fill="currentColor"/>
</g>
<g transform="translate(23.3974, 32.3339)">
<rect x="0.0000" y="-3.0000" width="0.1386" height="6.0000" ry="0.0000" fill="currentColor"/>
</g>
<g transform="translate(56.6967, 32.3339)">
<rect x="0.0000" y="-3.0000" width="0.1386" height="6.0000" ry="0.0000" fill="currentColor"/>
</g>
<g transform="translate(70.0454, 32.3339)">
<rect x="0.0000" y="-3.0000" width="0.1386" height="6.0000" ry="0.0000" fill="currentColor"/>
</g>
<g transform="translate(0.3347, 32.3339)">
<rect x="65.8308" y="-0.0740" width="2.5313" height="0.1479" ry="0.0740" fill="currentColor"/>
</g>
<g transform="translate(0.3347, 32.3339)">
<rect x="63.2507" y="-0.0740" width="2.5313" height="0.1479" ry="0.0740" fill="currentColor"/>
</g>
<g transform="translate(0.3347, 32.3339)">
<rect x="60.1955" y="-0.0740" width="2.5313" height="0.1479" ry="0.0740" fill="currentColor"/>
</g>
<g transform="translate(0.3347, 32.3339)">
<rect x="60.1955" y="-0.0740" width="2.5313" height="0.1479" ry="0.0740" fill="currentColor"/>
</g>
<g transform="translate(0.3347, 32.3339)">
<rect x="57.1403" y="-0.0740" width="2.5313" height="0.1479" ry="0.0740" fill="currentColor"/>
</g>
<g transform="translate(0.3347, 32.3339)">
<rect x="41.6124" y="-0.0740" width="2.5313" height="0.1479" ry="0.0740" fill="currentColor"/>
</g>
<g transform="translate(0.3347, 32.3339)">
<rect x="37.6040" y="-0.0740" width="2.3206" height="0.1479" ry="0.0740" fill="currentColor"/>
</g>
<g transform="translate(0.3347, 32.3339)">
<rect x="32.6427" y="-0.0740" width="2.5313" height="0.1479" ry="0.0740" fill="currentColor"/>
</g>
<g transform="translate(0.3347, 32.3339)">
<rect x="30.0118" y="-0.0740" width="2.1429" height="0.1479" ry="0.0740" fill="currentColor"/>
</g>
<g transform="translate(0.3347, 32.3339)">
<rect x="26.5569" y="-0.0740" width="2.5313" height="0.1479" ry="0.0740" fill="currentColor"/>
</g>
<g transform="scale(1.0000, 1.0000)">
<g transform="translate(47.5106, 31.2089)">
<path stroke-width="0.2000" stroke-linejoin="round" stroke-linecap="round" stroke="currentColor" fill="none" d="M0 0.5000L0 -0.5000"/>
</g>
<g transform="translate(47.5106, 30.7089)">
<circle stroke-linejoin="round" stroke-linecap="round" fill="currentColor" stroke="currentColor" stroke-width="0.0100" r="0.2400"/>
</g>
</g>
<g transform="scale(1.0000, 1.0000)">
<g transform="translate(52.7164, 30.8339)">
<path stroke-width="0.0001" stroke-linejoin="round" stroke-linecap="round" stroke="currentColor" fill="currentColor" d="M1.0162 -0.5005C1.1901 -0.4580 1.3000 -0.3601 1.3267 -0.2237C1.3473 -0.1188 1.3091 0.0324 1.2347 0.1410C1.1037 0.3322 0.8787 0.4644 0.6176 0.5036C0.5244 0.5176 0.3659 0.5121 0.2884 0.4921C-0.0297 0.4098 -0.0964 0.0918 0.1475 -0.1799C0.2984 -0.3479 0.5439 -0.4756 0.7758 -0.5066C0.8400 -0.5151 0.9696 -0.5119 1.0162 -0.5005z"/>
</g>
</g>
<g transform="translate(52.7638, 32.3339)">
<rect x="-0.0474" y="-1.2453" width="0.0948" height="3.2453" ry="0.0235" fill="currentColor"/>
</g>
<g transform="translate(52.7638, 32.3339)">
<rect x="-0.4030" y="-0.9885" width="0.1422" height="2.9885" ry="0.0235" fill="currentColor"/>
</g>
<g transform="scale(1.0000, 1.0000)">
<g transform="translate(58.0746, 31.5839)">
<path stroke-width="0.0001" stroke-linejoin="round" stroke-linecap="round" stroke="currentColor" fill="currentColor" d="M1.0162 -0.5005C1.1901 -0.4580 1.3000 -0.3601 1.3267 -0.2237C1.3473 -0.1188 1.3091 0.0324 1.2347 0.1410C1.1037 0.3322 0.8787 0.4644 0.6176 0.5036C0.5244 0.5176 0.3659 0.5121 0.2884 0.4921C-0.0297 0.4098 -0.0964 0.0918 0.1475 -0.1799C0.2984 -0.3479 0.5439 -0.4756 0.7758 -0.5066C0.8400 -0.5151 0.9696 -0.5119 1.0162 -0.5005z"/>
</g>
</g>
<g transform="scale(1.0000, 1.0000)">
<g transform="translate(58.0746, 30.4589)">
<path stroke-width="0.0001" stroke-linejoin="round" stroke-linecap="round" stroke="currentColor" fill="currentColor" d="M1.0265 -0.4999C1.2152 -0.4618 1.3372 -0.3515 1.3549 -0.2025C1.3692 -0.0828 1.3124 0.0767 1.2094 0.2063C1.0774 0.3724 0.8892 0.4721 0.6459 0.5049C0.5851 0.5131 0.5489 0.5134 0.4433 0.5068C0.3289 0.4996 0.3088 0.4966 0.2606 0.4798C0.1181 0.4300 0.0248 0.3354 0.0042 0.2196C-0.0154 0.1092 0.0352 -0.0503 0.1321 -0.1828C0.2682 -0.3692 0.4766 -0.4818 0.7307 -0.5063C0.8236 -0.5152 0.9655 -0.5122 1.0265 -0.4999zM0.8920 -0.3272C0.8019 -0.3059 0.6744 -0.2509 0.5172 -0.1656C0.1997 0.0069 0.1097 0.0977 0.1513 0.2039C0.1688 0.2487 0.1917 0.2776 0.2265 0.2986C0.3097 0.3488 0.4220 0.3375 0.6348 0.2572C0.9775 0.1280 1.2160 -0.0339 1.2240 -0.1427C1.2287 -0.2070 1.1849 -0.2813 1.1220 -0.3156C1.0837 -0.3365 1.0773 -0.3379 1.0151 -0.3393C0.9699 -0.3403 0.9308 -0.3364 0.8920 -0.3272z"/>
</g>
</g>
<g transform="scale(1.0000, 1.0000)">
<g transform="translate(37.3409, 31.9589)">
<path stroke-width="0.2000" stroke-linejoin="round" stroke-linecap="round" stroke="currentColor" fill="none" d="M0 0.5000L0 -0.5000"/>
</g>
<g transform="translate(37.3409, 31.4589)">
<circle stroke-linejoin="round" stroke-linecap="round" fill="currentColor" stroke="currentColor" stroke-width="0.0100" r="0.2400"/>
</g>
</g>
<g transform="scale(1.0000, 1.0000)">
<g transform="translate(58.0746, 28.9589)">
<path stroke-width="0.0001" stroke-linejoin="round" stroke-linecap="round" stroke="currentColor" fill="currentColor" d="M1.0265 -0.4999C1.2152 -0.4618 1.3372 -0.3515 1.3549 -0.2025C1.3692 -0.0828 1.3124 0.0767 1.2094 0.2063C1.0774 0.3724 0.8892 0.4721 0.6459 0.5049C0.5851 0.5131 0.5489 0.5134 0.4433 0.5068C0.3289 0.4996 0.3088 0.4966 0.2606 0.4798C0.1181 0.4300 0.0248 0.3354 0.0042 0.2196C-0.0154 0.1092 0.0352 -0.0503 0.1321 -0.1828C0.2682 -0.3692 0.4766 -0.4818 0.7307 -0.5063C0.8236 -0.5152 0.9655 -0.5122 1.0265 -0.4999zM0.8920 -0.3272C0.8019 -0.3059 0.6744 -0.2509 0.5172 -0.1656C0.1997 0.0069 0.1097 0.0977 0.1513 0.2039C0.1688 0.2487 0.1917 0.2776 0.2265 0.2986C0.3097 0.3488 0.4220 0.3375 0.6348 0.2572C0.9775 0.1280 1.2160 -0.0339 1.2240 -0.1427C1.2287 -0.2070 1.1849 -0.2813 1.1220 -0.3156C1.0837 -0.3365 1.0773 -0.3379 1.0151 -0.3393C0.9699 -0.3403 0.9308 -0.3364 0.8920 -0.3272z"/>
</g>
</g>
<g transform="scale(1.0000, 1.0000)">
<g transform="translate(42.5467, 31.5839)">
<path stroke-width="0.0001" stroke-linejoin="round" stroke-linecap="round" stroke="currentColor" fill="currentColor" d="M1.0162 -0.5005C1.1901 -0.4580 1.3000 -0.3601 1.3267 -0.2237C1.3473 -0.1188 1.3091 0.0324 1.2347 0.1410C1.1037 0.3322 0.8787 0.4644 0.6176 0.5036C0.5244 0.5176 0.3659 0.5121 0.2884 0.4921C-0.0297 0.4098 -0.0964 0.0918 0.1475 -0.1799C0.2984 -0.3479 0.5439 -0.4756 0.7758 -0.5066C0.8400 -0.5151 0.9696 -0.5119 1.0162 -0.5005z"/>
</g>
</g>
<g transform="translate(42.5941, 32.3339)">
<rect x="-0.0474" y="-0.4953" width="0.0948" height="3.2453" ry="0.0235" fill="currentColor"/>
</g>
<g transform="translate(42.5941, 32.3339)">
<rect x="-0.4030" y="-0.2385" width="0.1422" height="2.9885" ry="0.0235" fill="currentColor"/>
</g>
<g transform="scale(1.0000, 1.0000)">
<g transform="translate(48.4612, 31.2089)">
<path stroke-width="0.0001" stroke-linejoin="round" stroke-linecap="round" stroke="currentColor" fill="currentColor" d="M1.0265 -0.4999C1.2152 -0.4618 1.3372 -0.3515 1.3549 -0.2025C1.3692 -0.0828 1.3124 0.0767 1.2094 0.2063C1.0774 0.3724 0.8892 0.4721 0.6459 0.5049C0.5851 0.5131 0.5489 0.5134 0.4433 0.5068C0.3289 0.4996 0.3088 0.4966 0.2606 0.4798C0.1181 0.4300 0.0248 0.3354 0.0042 0.2196C-0.0154 0.1092 0.0352 -0.0503 0.1321 -0.1828C0.2682 -0.3692 0.4766 -0.4818 0.7307 -0.5063C0.8236 -0.5152 0.9655 -0.5122 1.0265 -0.4999zM0.8920 -0.3272C0.8019 -0.3059 0.6744 -0.2509 0.5172 -0.1656C0.1997 0.0069 0.1097 0.0977 0.1513 0.2039C0.1688 0.2487 0.1917 0.2776 0.2265 0.2986C0.3097 0.3488 0.4220 0.3375 0.6348 0.2572C0.9775 0.1280 1.2160 -0.0339 1.2240 -0.1427C1.2287 -0.2070 1.1849 -0.2813 1.1220 -0.3156C1.0837 -0.3365 1.0773 -0.3379 1.0151 -0.3393C0.9699 -0.3403 0.9308 -0.3364 0.8920 -0.3272z"/>
</g>
</g>
<g transform="translate(48.5086, 32.3339)">
<rect x="-0.0474" y="-0.8703" width="0.0948" height="3.2453" ry="0.0235" fill="currentColor"/>
</g>
<g transform="translate(48.5086, 32.3339)">
<rect x="-0.4030" y="-0.6135" width="0.1422" height="2.9885" ry="0.0235" fill="currentColor"/>
</g>
<g transform="scale(1.0000, 1.0000)">
<g transform="translate(66.7650, 32.3339)">
<path stroke-width="0.0001" stroke-linejoin="round" stroke-linecap="round" stroke="currentColor" fill="currentColor" d="M1.0162 -0.5005C1.1901 -0.4580 1.3000 -0.3601 1.3267 -0.2237C1.3473 -0.1188 1.3091 0.0324 1.2347 0.1410C1.1037 0.3322 0.8787 0.4644 0.6176 0.5036C0.5244 0.5176 0.3659 0.5121 0.2884 0.4921C-0.0297 0.4098 -0.0964 0.0918 0.1475 -0.1799C0.2984 -0.3479 0.5439 -0.4756 0.7758 -0.5066C0.8400 -0.5151 0.9696 -0.5119 1.0162 -0.5005z"/>
</g>
</g>
<g transform="scale(1.0000, 1.0000)">
<g transform="translate(64.1850, 32.3339)">
<path stroke-width="0.0001" stroke-linejoin="round" stroke-linecap="round" stroke="currentColor" fill="currentColor" d="M1.0162 -0.5005C1.1901 -0.4580 1.3000 -0.3601 1.3267 -0.2237C1.3473 -0.1188 1.3091 0.0324 1.2347 0.1410C1.1037 0.3322 0.8787 0.4644 0.6176 0.5036C0.5244 0.5176 0.3659 0.5121 0.2884 0.4921C-0.0297 0.4098 -0.0964 0.0918 0.1475 -0.1799C0.2984 -0.3479 0.5439 -0.4756 0.7758 -0.5066C0.8400 -0.5151 0.9696 -0.5119 1.0162 -0.5005z"/>
</g>
</g>
<g transform="scale(1.0000, 1.0000)">
<g transform="translate(64.1850, 30.8339)">
<path stroke-width="0.0001" stroke-linejoin="round" stroke-linecap="round" stroke="currentColor" fill="currentColor" d="M1.0162 -0.5005C1.1901 -0.4580 1.3000 -0.3601 1.3267 -0.2237C1.3473 -0.1188 1.3091 0.0324 1.2347 0.1410C1.1037 0.3322 0.8787 0.4644 0.6176 0.5036C0.5244 0.5176 0.3659 0.5121 0.2884 0.4921C-0.0297 0.4098 -0.0964 0.0918 0.1475 -0.1799C0.2984 -0.3479 0.5439 -0.4756 0.7758 -0.5066C0.8400 -0.5151 0.9696 -0.5119 1.0162 -0.5005z"/>
</g>
</g>
<g transform="scale(1.0000, 1.0000)">
<g transform="translate(64.1850, 29.7089)">
<path stroke-width="0.0001" stroke-linejoin="round" stroke-linecap="round" stroke="currentColor" fill="currentColor" d="M1.0265 -0.4999C1.2152 -0.4618 1.3372 -0.3515 1.3549 -0.2025C1.3692 -0.0828 1.3124 0.0767 1.2094 0.2063C1.0774 0.3724 0.8892 0.4721 0.6459 0.5049C0.5851 0.5131 0.5489 0.5134 0.4433 0.5068C0.3289 0.4996 0.3088 0.4966 0.2606 0.4798C0.1181 0.4300 0.0248 0.3354 0.0042 0.2196C-0.0154 0.1092 0.0352 -0.0503 0.1321 -0.1828C0.2682 -0.3692 0.4766 -0.4818 0.7307 -0.5063C0.8236 -0.5152 0.9655 -0.5122 1.0265 -0.4999zM0.8920 -0.3272C0.8019 -0.3059 0.6744 -0.2509 0.5172 -0.1656C0.1997 0.0069 0.1097 0.0977 0.1513 0.2039C0.1688 0.2487 0.1917 0.2776 0.2265 0.2986C0.3097 0.3488 0.4220 0.3375 0.6348 0.2572C0.9775 0.1280 1.2160 -0.0339 1.2240 -0.1427C1.2287 -0.2070 1.1849 -0.2813 1.1220 -0.3156C1.0837 -0.3365 1.0773 -0.3379 1.0151 -0.3393C0.9699 -0.3403 0.9308 -0.3364 0.8920 -0.3272z"/>
</g>
</g>
<g transform="translate(64.2324, 32.3339)">
<rect x="-0.0474" y="-2.4383" width="0.0948" height="5.9383" ry="0.0235" fill="currentColor"/>
</g>
<g transform="scale(1.0000, 1.0000)">
<g transform="translate(66.7402, 34.9589)">
<path stroke-width="0.0001" stroke-linejoin="round" stroke-linecap="round" stroke="currentColor" fill="currentColor" d="M1.0265 -0.4999C1.2152 -0.4618 1.3372 -0.3515 1.3549 -0.2025C1.3692 -0.0828 1.3124 0.0767 1.2094 0.2063C1.0774 0.3724 0.8892 0.4721 0.6459 0.5049C0.5851 0.5131 0.5489 0.5134 0.4433 0.5068C0.3289 0.4996 0.3088 0.4966 0.2606 0.4798C0.1181 0.4300 0.0248 0.3354 0.0042 0.2196C-0.0154 0.1092 0.0352 -0.0503 0.1321 -0.1828C0.2682 -0.3692 0.4766 -0.4818 0.7307 -0.5063C0.8236 -0.5152 0.9655 -0.5122 1.0265 -0.4999zM0.8920 -0.3272C0.8019 -0.3059 0.6744 -0.2509 0.5172 -0.1656C0.1997 0.0069 0.1097 0.0977 0.1513 0.2039C0.1688 0.2487 0.1917 0.2776 0.2265 0.2986C0.3097 0.3488 0.4220 0.3375 0.6348 0.2572C0.9775 0.1280 1.2160 -0.0339 1.2240 -0.1427C1.2287 -0.2070 1.1849 -0.2813 1.1220 -0.3156C1.0837 -0.3365 1.0773 -0.3379 1.0151 -0.3393C0.9699 -0.3403 0.9308 -0.3364 0.8920 -0.3272z"/>
</g>
</g>
<g transform="scale(1.0000, 1.0000)">
<g transform="translate(66.7402, 33.4589)">
<path stroke-width="0.0001" stroke-linejoin="round" stroke-linecap="round" stroke="currentColor" fill="currentColor" d="M1.0265 -0.4999C1.2152 -0.4618 1.3372 -0.3515 1.3549 -0.2025C1.3692 -0.0828 1.3124 0.0767 1.2094 0.2063C1.0774 0.3724 0.8892 0.4721 0.6459 0.5049C0.5851 0.5131 0.5489 0.5134 0.4433 0.5068C0.3289 0.4996 0.3088 0.4966 0.2606 0.4798C0.1181 0.4300 0.0248 0.3354 0.0042 0.2196C-0.0154 0.1092 0.0352 -0.0503 0.1321 -0.1828C0.2682 -0.3692 0.4766 -0.4818 0.7307 -0.5063C0.8236 -0.5152 0.9655 -0.5122 1.0265 -0.4999zM0.8920 -0.3272C0.8019 -0.3059 0.6744 -0.2509 0.5172 -0.1656C0.1997 0.0069 0.1097 0.0977 0.1513 0.2039C0.1688 0.2487 0.1917 0.2776 0.2265 0.2986C0.3097 0.3488 0.4220 0.3375 0.6348 0.2572C0.9775 0.1280 1.2160 -0.0339 1.2240 -0.1427C1.2287 -0.2070 1.1849 -0.2813 1.1220 -0.3156C1.0837 -0.3365 1.0773 -0.3379 1.0151 -0.3393C0.9699 -0.3403 0.9308 -0.3364 0.8920 -0.3272z"/>
</g>
</g>
<g transform="translate(68.0499, 32.3339)">
<rect x="-0.0474" y="-3.5000" width="0.0948" height="5.9383" ry="0.0235" fill="currentColor"/>
</g>
<g transform="translate(58.1220, 32.3339)">
<rect x="-0.0474" y="-3.1883" width="0.0948" height="5.9383" ry="0.0235" fill="currentColor"/>
</g>
<g transform="scale(1.0000, 1.0000)">
<g transform="translate(61.1298, 33.0839)">
<path stroke-width="0.0001" stroke-linejoin="round" stroke-linecap="round" stroke="currentColor" fill="currentColor" d="M1.0162 -0.5005C1.1901 -0.4580 1.3000 -0.3601 1.3267 -0.2237C1.3473 -0.1188 1.3091 0.0324 1.2347 0.1410C1.1037 0.3322 0.8787 0.4644 0.6176 0.5036C0.5244 0.5176 0.3659 0.5121 0.2884 0.4921C-0.0297 0.4098 -0.0964 0.0918 0.1475 -0.1799C0.2984 -0.3479 0.5439 -0.4756 0.7758 -0.5066C0.8400 -0.5151 0.9696 -0.5119 1.0162 -0.5005z"/>
</g>
</g>
<g transform="scale(1.0000, 1.0000)">
<g transform="translate(61.1298, 31.5839)">
<path stroke-width="0.0001" stroke-linejoin="round" stroke-linecap="round" stroke="currentColor" fill="currentColor" d="M1.0162 -0.5005C1.1901 -0.4580 1.3000 -0.3601 1.3267 -0.2237C1.3473 -0.1188 1.3091 0.0324 1.2347 0.1410C1.1037 0.3322 0.8787 0.4644 0.6176 0.5036C0.5244 0.5176 0.3659 0.5121 0.2884 0.4921C-0.0297 0.4098 -0.0964 0.0918 0.1475 -0.1799C0.2984 -0.3479 0.5439 -0.4756 0.7758 -0.5066C0.8400 -0.5151 0.9696 -0.5119 1.0162 -0.5005z"/>
</g>
</g>
<g transform="scale(1.0000, 1.0000)">
<g transform="translate(61.1298, 30.4589)">
<path stroke-width="0.0001" stroke-linejoin="round" stroke-linecap="round" stroke="currentColor" fill="currentColor" d="M1.0265 -0.4999C1.2152 -0.4618 1.3372 -0.3515 1.3549 -0.2025C1.3692 -0.0828 1.3124 0.0767 1.2094 0.2063C1.0774 0.3724 0.8892 0.4721 0.6459 0.5049C0.5851 0.5131 0.5489 0.5134 0.4433 0.5068C0.3289 0.4996 0.3088 0.4966 0.2606 0.4798C0.1181 0.4300 0.0248 0.3354 0.0042 0.2196C-0.0154 0.1092 0.0352 -0.0503 0.1321 -0.1828C0.2682 -0.3692 0.4766 -0.4818 0.7307 -0.5063C0.8236 -0.5152 0.9655 -0.5122 1.0265 -0.4999zM0.8920 -0.3272C0.8019 -0.3059 0.6744 -0.2509 0.5172 -0.1656C0.1997 0.0069 0.1097 0.0977 0.1513 0.2039C0.1688 0.2487 0.1917 0.2776 0.2265 0.2986C0.3097 0.3488 0.4220 0.3375 0.6348 0.2572C0.9775 0.1280 1.2160 -0.0339 1.2240 -0.1427C1.2287 -0.2070 1.1849 -0.2813 1.1220 -0.3156C1.0837 -0.3365 1.0773 -0.3379 1.0151 -0.3393C0.9699 -0.3403 0.9308 -0.3364 0.8920 -0.3272z"/>
</g>
</g>
<g transform="translate(61.1772, 32.3339)">
<rect x="-0.0474" y="-1.6883" width="0.0948" height="5.7716" ry="0.0235" fill="currentColor"/>
</g>
<g transform="scale(1.0000, 1.0000)">
<g transform="translate(20.1171, 33.8339)">
<path stroke-width="0.0001" stroke-linejoin="round" stroke-linecap="round" stroke="currentColor" fill="currentColor" d="M1.0162 -0.5005C1.1901 -0.4580 1.3000 -0.3601 1.3267 -0.2237C1.3473 -0.1188 1.3091 0.0324 1.2347 0.1410C1.1037 0.3322 0.8787 0.4644 0.6176 0.5036C0.5244 0.5176 0.3659 0.5121 0.2884 0.4921C-0.0297 0.4098 -0.0964 0.0918 0.1475 -0.1799C0.2984 -0.3479 0.5439 -0.4756 0.7758 -0.5066C0.8400 -0.5151 0.9696 -0.5119 1.0162 -0.5005z"/>
</g>
</g>
<g transform="scale(1.0000, 1.0000)">
<g transform="translate(13.4366, 34.5839)">
<path stroke-width="0.2000" stroke-linejoin="round" stroke-linecap="round" stroke="currentColor" fill="none" d="M0 0.5000L0 -0.5000"/>
</g>
<g transform="translate(13.4366, 34.0839)">
<circle stroke-linejoin="round" stroke-linecap="round" fill="currentColor" stroke="currentColor" stroke-width="0.0100" r="0.2400"/>
</g>
</g>
<g transform="scale(1.0000, 1.0000)">
<g transform="translate(17.0619, 34.2089)">
<path stroke-width="0.0001" stroke-linejoin="round" stroke-linecap="round" stroke="currentColor" fill="currentColor" d="M1.0265 -0.4999C1.2152 -0.4618 1.3372 -0.3515 1.3549 -0.2025C1.3692 -0.0828 1.3124 0.0767 1.2094 0.2063C1.0774 0.3724 0.8892 0.4721 0.6459 0.5049C0.5851 0.5131 0.5489 0.5134 0.4433 0.5068C0.3289 0.4996 0.3088 0.4966 0.2606 0.4798C0.1181 0.4300 0.0248 0.3354 0.0042 0.2196C-0.0154 0.1092 0.0352 -0.0503 0.1321 -0.1828C0.2682 -0.3692 0.4766 -0.4818 0.7307 -0.5063C0.8236 -0.5152 0.9655 -0.5122 1.0265 -0.4999zM0.8920 -0.3272C0.8019 -0.3059 0.6744 -0.2509 0.5172 -0.1656C0.1997 0.0069 0.1097 0.0977 0.1513 0.2039C0.1688 0.2487 0.1917 0.2776 0.2265 0.2986C0.3097 0.3488 0.4220 0.3375 0.6348 0.2572C0.9775 0.1280 1.2160 -0.0339 1.2240 -0.1427C1.2287 -0.2070 1.1849 -0.2813 1.1220 -0.3156C1.0837 -0.3365 1.0773 -0.3379 1.0151 -0.3393C0.9699 -0.3403 0.9308 -0.3364 0.8920 -0.3272z"/>
</g>
</g>
<g transform="translate(18.3716, 32.3339)">
<rect x="-0.0474" y="-1.6250" width="0.0948" height="3.3133" ry="0.0235" fill="currentColor"/>
</g>
<g transform="translate(15.3164, 32.3339)">
<rect x="-0.0474" y="-1.2500" width="0.0948" height="3.3133" ry="0.0235" fill="currentColor"/>
</g>
<g transform="translate(21.4019, 32.3339)">
<rect x="-0.0474" y="-2.0000" width="0.0948" height="3.3133" ry="0.0235" fill="currentColor"/>
</g>
<g transform="scale(1.0000, 1.0000)">
<g transform="translate(19.5221, 33.8339)">
<path stroke-width="0.2000" stroke-linejoin="round" stroke-linecap="round" stroke="currentColor" fill="none" d="M0 0.5000L0 -0.5000"/>
</g>
<g transform="translate(19.5221, 33.3339)">
<circle stroke-linejoin="round" stroke-linecap="round" fill="currentColor" stroke="currentColor" stroke-width="0.0100" r="0.2400"/>
</g>
</g>
<g transform="scale(1.0000, 1.0000)">
<g transform="translate(24.4360, 33.4589)">
<path stroke-width="0.0001" stroke-linejoin="round" stroke-linecap="round" stroke="currentColor" fill="currentColor" d="M1.0265 -0.4999C1.2152 -0.4618 1.3372 -0.3515 1.3549 -0.2025C1.3692 -0.0828 1.3124 0.0767 1.2094 0.2063C1.0774 0.3724 0.8892 0.4721 0.6459 0.5049C0.5851 0.5131 0.5489 0.5134 0.4433 0.5068C0.3289 0.4996 0.3088 0.4966 0.2606 0.4798C0.1181 0.4300 0.0248 0.3354 0.0042 0.2196C-0.0154 0.1092 0.0352 -0.0503 0.1321 -0.1828C0.2682 -0.3692 0.4766 -0.4818 0.7307 -0.5063C0.8236 -0.5152 0.9655 -0.5122 1.0265 -0.4999zM0.8920 -0.3272C0.8019 -0.3059 0.6744 -0.2509 0.5172 -0.1656C0.1997 0.0069 0.1097 0.0977 0.1513 0.2039C0.1688 0.2487 0.1917 0.2776 0.2265 0.2986C0.3097 0.3488 0.4220 0.3375 0.6348 0.2572C0.9775 0.1280 1.2160 -0.0339 1.2240 -0.1427C1.2287 -0.2070 1.1849 -0.2813 1.1220 -0.3156C1.0837 -0.3365 1.0773 -0.3379 1.0151 -0.3393C0.9699 -0.3403 0.9308 -0.3364 0.8920 -0.3272z"/>
</g>
</g>
<g transform="translate(25.7457, 32.3339)">
<rect x="-0.0474" y="-2.3750" width="0.0948" height="3.3133" ry="0.0235" fill="currentColor"/>
</g>
<g transform="scale(1.0000, 1.0000)">
<g transform="translate(10.9764, 34.9589)">
<path stroke-width="0.0001" stroke-linejoin="round" stroke-linecap="round" stroke="currentColor" fill="currentColor" d="M1.0265 -0.4999C1.2152 -0.4618 1.3372 -0.3515 1.3549 -0.2025C1.3692 -0.0828 1.3124 0.0767 1.2094 0.2063C1.0774 0.3724 0.8892 0.4721 0.6459 0.5049C0.5851 0.5131 0.5489 0.5134 0.4433 0.5068C0.3289 0.4996 0.3088 0.4966 0.2606 0.4798C0.1181 0.4300 0.0248 0.3354 0.0042 0.2196C-0.0154 0.1092 0.0352 -0.0503 0.1321 -0.1828C0.2682 -0.3692 0.4766 -0.4818 0.7307 -0.5063C0.8236 -0.5152 0.9655 -0.5122 1.0265 -0.4999zM0.8920 -0.3272C0.8019 -0.3059 0.6744 -0.2509 0.5172 -0.1656C0.1997 0.0069 0.1097 0.0977 0.1513 0.2039C0.1688 0.2487 0.1917 0.2776 0.2265 0.2986C0.3097 0.3488 0.4220 0.3375 0.6348 0.2572C0.9775 0.1280 1.2160 -0.0339 1.2240 -0.1427C1.2287 -0.2070 1.1849 -0.2813 1.1220 -0.3156C1.0837 -0.3365 1.0773 -0.3379 1.0151 -0.3393C0.9699 -0.3403 0.9308 -0.3364 0.8920 -0.3272z"/>
</g>
</g>
<g color="rgb(50.0000%, 50.0000%, 50.0000%)">
<g transform="translate(3.8514, 28.7972)">
<text font-family="sans-serif" font-size="1.1000" text-anchor="start" fill="currentColor">
<tspan>Clairnote DN</tspan>
</text>
</g>
</g>
<g transform="scale(1.0000, 1.0000)">
<g transform="translate(1.1348, 34.2089)">
<path stroke-width="0.0001" stroke-linejoin="round" stroke-linecap="round" stroke="currentColor" fill="currentColor" d="M1.5506 -4.7684C1.5376 -4.7684 1.5066 -4.7511 1.5136 -4.7338L1.7544 -4.1729C1.8234 -3.9737 1.8444 -3.8833 1.8444 -3.6642C1.8444 -3.1620 1.5635 -2.7697 1.2174 -2.3831L1.0789 -2.2278C0.5727 -1.6898 0 -1.1644 0 -0.4591C0 0.3671 0.6414 1.0500 1.4549 1.0500C1.5319 1.0500 1.6984 1.0492 1.8799 1.0372C2.0139 1.0282 2.1594 0.9969 2.2732 0.9744C2.3771 0.9538 2.5752 0.8757 2.5752 0.8757C2.7512 0.8152 2.6612 0.6291 2.5442 0.6835C2.5442 0.6835 2.3481 0.7626 2.2449 0.7822C2.1355 0.8030 1.9939 0.8319 1.8645 0.8382C1.6935 0.8462 1.5257 0.8402 1.4569 0.8352C1.1541 0.8139 0.8667 0.6743 0.6558 0.4876C0.5148 0.3628 0.3782 0.1741 0.3582 -0.1271C0.3582 -0.7647 0.7920 -1.2315 1.2550 -1.7136L1.3978 -1.8652C1.8046 -2.2996 2.1850 -2.7583 2.1850 -3.3281C2.1850 -3.7785 1.9185 -4.4220 1.6113 -4.7568C1.5983 -4.7686 1.5713 -4.7719 1.5513 -4.7683z"/>
</g>
</g>
<g transform="scale(0.9000, 0.9000)">
<g transform="translate(2.1449, 38.7099)">
<path transform="scale(0.0040, -0.0040)" d="M208 319c21 13 42 27 57 47c11 15 18 32 25 49c4 9 20 7 20 -7v-256h68c9 0 13 -7 13 -14s-4 -13 -13 -13h-68v-16c0 -45 26 -88 68 -88c7 0 10 -5 10 -10s-3 -11 -10 -11c-41 0 -82 13 -123 13s-82 -13 -123 -13c-7 0 -10 6 -10 11s3 10 10 10c42 0 68 43 68 88v16h-173
c-21 0 -29 13 -29 21c0 2 1 5 2 6c81 96 146 208 146 333c0 10 7 18 15 15c22 -7 44 -13 67 -13s45 6 67 13c12 4 21 -8 15 -15l-283 -333h173v147c0 8 2 16 8 20z" fill="currentColor"/>
</g>
</g>
<g transform="scale(1.0000, 1.0000)">
<g transform="translate(5.8498, 30.8339)">
<path stroke-width="0.1400" stroke-linejoin="round" stroke-linecap="round" stroke="currentColor" fill="currentColor" d="M0.3400 0C0.3400 -0.3400 -0.3400 -0.3400 -0.3400 0C-0.3400 0.3400 0.3400 0.3400 0.3400 0z"/>
</g>
<g transform="translate(5.8498, 31.5839)">
<path stroke-width="0.1400" stroke-linejoin="round" stroke-linecap="round" stroke="currentColor" fill="currentColor" d="M0.3400 0C0.3400 -0.3400 -0.3400 -0.3400 -0.3400 0C-0.3400 0.3400 0.3400 0.3400 0.3400 0z"/>
</g>
<g transform="translate(5.8498, 32.3339)">
<path stroke-width="0.1400" stroke-linejoin="round" stroke-linecap="round" stroke="currentColor" fill="currentColor" d="M0.3400 0C0.3400 -0.3400 -0.3400 -0.3400 -0.3400 0C-0.3400 0.3400 0.3400 0.3400 0.3400 0z"/>
</g>
<g transform="translate(5.5298, 33.0839)">
<path stroke-width="0.2200" stroke-linejoin="round" stroke-linecap="round" stroke="currentColor" fill="none" d="M0 -0.2000L-0.7000 -0.9000"/>
</g>
<g transform="translate(5.8498, 33.0839)">
<path stroke-width="0.1400" stroke-linejoin="round" stroke-linecap="round" stroke="currentColor" fill="currentColor" d="M0.3400 0C0.3400 -0.3400 -0.3400 -0.3400 -0.3400 0C-0.3400 0.3400 0.3400 0.3400 0.3400 0z"/>
</g>
<g transform="translate(5.0498, 33.4589)">
<path stroke-width="0.1500" stroke-linejoin="round" stroke-linecap="round" stroke="currentColor" fill="none" d="M0.3400 0C0.3400 -0.3400 -0.3400 -0.3400 -0.3400 0C-0.3400 0.3400 0.3400 0.3400 0.3400 0z"/>
</g>
<g transform="translate(5.0498, 34.2089)">
<path stroke-width="0.1500" stroke-linejoin="round" stroke-linecap="round" stroke="currentColor" fill="none" d="M0.3400 0C0.3400 -0.3400 -0.3400 -0.3400 -0.3400 0C-0.3400 0.3400 0.3400 0.3400 0.3400 0z"/>
</g>
<g transform="translate(5.0498, 34.9589)">
<path stroke-width="0.1500" stroke-linejoin="round" stroke-linecap="round" stroke="currentColor" fill="none" d="M0.3400 0C0.3400 -0.3400 -0.3400 -0.3400 -0.3400 0C-0.3400 0.3400 0.3400 0.3400 0.3400 0z"/>
</g>
</g>
<g transform="translate(7.4098, 33.2982)">
<path transform="scale(0.0040, -0.0040)" d="M208 319c21 13 42 27 57 47c11 15 18 32 25 49c4 9 20 7 20 -7v-256h68c9 0 13 -7 13 -14s-4 -13 -13 -13h-68v-16c0 -45 26 -88 68 -88c7 0 10 -5 10 -10s-3 -11 -10 -11c-41 0 -82 13 -123 13s-82 -13 -123 -13c-7 0 -10 6 -10 11s3 10 10 10c42 0 68 43 68 88v16h-173
c-21 0 -29 13 -29 21c0 2 1 5 2 6c81 96 146 208 146 333c0 10 7 18 15 15c22 -7 44 -13 67 -13s45 6 67 13c12 4 21 -8 15 -15l-283 -333h173v147c0 8 2 16 8 20z" fill="currentColor"/>
</g>
<g transform="translate(7.4098, 35.3267)">
<path transform="scale(0.0040, -0.0040)" d="M208 319c21 13 42 27 57 47c11 15 18 32 25 49c4 9 20 7 20 -7v-256h68c9 0 13 -7 13 -14s-4 -13 -13 -13h-68v-16c0 -45 26 -88 68 -88c7 0 10 -5 10 -10s-3 -11 -10 -11c-41 0 -82 13 -123 13s-82 -13 -123 -13c-7 0 -10 6 -10 11s3 10 10 10c42 0 68 43 68 88v16h-173
c-21 0 -29 13 -29 21c0 2 1 5 2 6c81 96 146 208 146 333c0 10 7 18 15 15c22 -7 44 -13 67 -13s45 6 67 13c12 4 21 -8 15 -15l-283 -333h173v147c0 8 2 16 8 20z" fill="currentColor"/>
</g>
<g transform="translate(12.2861, 32.3339)">
<rect x="-0.0474" y="-0.8750" width="0.0948" height="3.3133" ry="0.0235" fill="currentColor"/>
</g>
<g transform="scale(1.0000, 1.0000)">
<g transform="translate(14.0316, 34.5839)">
<path stroke-width="0.0001" stroke-linejoin="round" stroke-linecap="round" stroke="currentColor" fill="currentColor" d="M1.0162 -0.5005C1.1901 -0.4580 1.3000 -0.3601 1.3267 -0.2237C1.3473 -0.1188 1.3091 0.0324 1.2347 0.1410C1.1037 0.3322 0.8787 0.4644 0.6176 0.5036C0.5244 0.5176 0.3659 0.5121 0.2884 0.4921C-0.0297 0.4098 -0.0964 0.0918 0.1475 -0.1799C0.2984 -0.3479 0.5439 -0.4756 0.7758 -0.5066C0.8400 -0.5151 0.9696 -0.5119 1.0162 -0.5005z"/>
</g>
</g>
<g transform="scale(1.0000, 1.0000)">
<g transform="translate(27.4912, 33.0839)">
<path stroke-width="0.0001" stroke-linejoin="round" stroke-linecap="round" stroke="currentColor" fill="currentColor" d="M1.0162 -0.5005C1.1901 -0.4580 1.3000 -0.3601 1.3267 -0.2237C1.3473 -0.1188 1.3091 0.0324 1.2347 0.1410C1.1037 0.3322 0.8787 0.4644 0.6176 0.5036C0.5244 0.5176 0.3659 0.5121 0.2884 0.4921C-0.0297 0.4098 -0.0964 0.0918 0.1475 -0.1799C0.2984 -0.3479 0.5439 -0.4756 0.7758 -0.5066C0.8400 -0.5151 0.9696 -0.5119 1.0162 -0.5005z"/>
</g>
</g>
<g transform="scale(1.0000, 1.0000)">
<g transform="translate(38.2915, 31.9589)">
<path stroke-width="0.0001" stroke-linejoin="round" stroke-linecap="round" stroke="currentColor" fill="currentColor" d="M1.0265 -0.4999C1.2152 -0.4618 1.3372 -0.3515 1.3549 -0.2025C1.3692 -0.0828 1.3124 0.0767 1.2094 0.2063C1.0774 0.3724 0.8892 0.4721 0.6459 0.5049C0.5851 0.5131 0.5489 0.5134 0.4433 0.5068C0.3289 0.4996 0.3088 0.4966 0.2606 0.4798C0.1181 0.4300 0.0248 0.3354 0.0042 0.2196C-0.0154 0.1092 0.0352 -0.0503 0.1321 -0.1828C0.2682 -0.3692 0.4766 -0.4818 0.7307 -0.5063C0.8236 -0.5152 0.9655 -0.5122 1.0265 -0.4999zM0.8920 -0.3272C0.8019 -0.3059 0.6744 -0.2509 0.5172 -0.1656C0.1997 0.0069 0.1097 0.0977 0.1513 0.2039C0.1688 0.2487 0.1917 0.2776 0.2265 0.2986C0.3097 0.3488 0.4220 0.3375 0.6348 0.2572C0.9775 0.1280 1.2160 -0.0339 1.2240 -0.1427C1.2287 -0.2070 1.1849 -0.2813 1.1220 -0.3156C1.0837 -0.3365 1.0773 -0.3379 1.0151 -0.3393C0.9699 -0.3403 0.9308 -0.3364 0.8920 -0.3272z"/>
</g>
</g>
<g transform="scale(1.0000, 1.0000)">
<g transform="translate(30.5215, 32.7089)">
<path stroke-width="0.0001" stroke-linejoin="round" stroke-linecap="round" stroke="currentColor" fill="currentColor" d="M1.0265 -0.4999C1.2152 -0.4618 1.3372 -0.3515 1.3549 -0.2025C1.3692 -0.0828 1.3124 0.0767 1.2094 0.2063C1.0774 0.3724 0.8892 0.4721 0.6459 0.5049C0.5851 0.5131 0.5489 0.5134 0.4433 0.5068C0.3289 0.4996 0.3088 0.4966 0.2606 0.4798C0.1181 0.4300 0.0248 0.3354 0.0042 0.2196C-0.0154 0.1092 0.0352 -0.0503 0.1321 -0.1828C0.2682 -0.3692 0.4766 -0.4818 0.7307 -0.5063C0.8236 -0.5152 0.9655 -0.5122 1.0265 -0.4999zM0.8920 -0.3272C0.8019 -0.3059 0.6744 -0.2509 0.5172 -0.1656C0.1997 0.0069 0.1097 0.0977 0.1513 0.2039C0.1688 0.2487 0.1917 0.2776 0.2265 0.2986C0.3097 0.3488 0.4220 0.3375 0.6348 0.2572C0.9775 0.1280 1.2160 -0.0339 1.2240 -0.1427C1.2287 -0.2070 1.1849 -0.2813 1.1220 -0.3156C1.0837 -0.3365 1.0773 -0.3379 1.0151 -0.3393C0.9699 -0.3403 0.9308 -0.3364 0.8920 -0.3272z"/>
</g>
</g>
<g transform="translate(31.8312, 32.3339)">
<rect x="-0.0474" y="-3.1250" width="0.0948" height="3.3133" ry="0.0235" fill="currentColor"/>
</g>
<g transform="translate(28.7760, 32.3339)">
<rect x="-0.0474" y="-2.7500" width="0.0948" height="3.3133" ry="0.0235" fill="currentColor"/>
</g>
<g transform="scale(1.0000, 1.0000)">
<g transform="translate(29.8715, 32.7089)">
<path stroke-width="0.3300" stroke-linejoin="round" stroke-linecap="round" stroke="currentColor" fill="none" d="M-0.1300 0.0700L0.1300 -0.0700"/>
</g>
<g transform="translate(30.0715, 33.0089)">
<path stroke-width="0.2000" stroke-linejoin="round" stroke-linecap="round" stroke="currentColor" fill="none" d="M0 0.3000L0 -0.3000"/>
</g>
<g transform="translate(29.6715, 32.4089)">
<path stroke-width="0.2000" stroke-linejoin="round" stroke-linecap="round" stroke="currentColor" fill="none" d="M0 0.3000L0 -0.3000"/>
</g>
</g>
<g transform="translate(33.6244, 32.3339)">
<rect x="-0.0474" y="0.1867" width="0.0948" height="3.3133" ry="0.0235" fill="currentColor"/>
</g>
<g transform="scale(1.0000, 1.0000)">
<g transform="translate(33.5770, 32.3339)">
<path stroke-width="0.0001" stroke-linejoin="round" stroke-linecap="round" stroke="currentColor" fill="currentColor" d="M1.0162 -0.5005C1.1901 -0.4580 1.3000 -0.3601 1.3267 -0.2237C1.3473 -0.1188 1.3091 0.0324 1.2347 0.1410C1.1037 0.3322 0.8787 0.4644 0.6176 0.5036C0.5244 0.5176 0.3659 0.5121 0.2884 0.4921C-0.0297 0.4098 -0.0964 0.0918 0.1475 -0.1799C0.2984 -0.3479 0.5439 -0.4756 0.7758 -0.5066C0.8400 -0.5151 0.9696 -0.5119 1.0162 -0.5005z"/>
</g>
</g>
<g transform="translate(38.3389, 32.3339)">
<rect x="-0.0474" y="-0.1203" width="0.0948" height="3.2453" ry="0.0235" fill="currentColor"/>
</g>
<g transform="translate(38.3389, 32.3339)">
<rect x="-0.4030" y="0.1365" width="0.1422" height="2.9885" ry="0.0235" fill="currentColor"/>
</g>
</svg>
