<svg xmlns="http://www.w3.org/2000/svg" xmlns:xlink="http://www.w3.org/1999/xlink" version="1.2" width="132.66mm" height="51.40mm" viewBox="0.0000 -0.0000 44.4063 17.2059">
<style type="text/css">
<![CDATA[
tspan { white-space: pre; }
]]>
</style>
<g transform="translate(0.3347, 0.3712)">
<line stroke-linejoin="round" stroke-linecap="round" stroke-width="0.0729" stroke="currentColor" x1="0.0365" y1="0" x2="43.6836" y2="0"/>
</g>
<g transform="translate(0.3347, 1.8712)">
<line stroke-linejoin="round" stroke-linecap="round" stroke-width="0.0729" stroke="currentColor" x1="0.0365" y1="0" x2="43.6836" y2="0"/>
</g>
<g transform="translate(0.3347, 4.8712)">
<line stroke-linejoin="round" stroke-linecap="round" stroke-width="0.0729" stroke="currentColor" x1="0.0365" y1="0" x2="43.6836" y2="0"/>
</g>
<g transform="translate(0.3347, 6.3712)">
<line stroke-linejoin="round" stroke-linecap="round" stroke-width="0.0729" stroke="currentColor" x1="0.0365" y1="0" x2="43.6836" y2="0"/>
</g>
<g transform="translate(43.9162, 3.3712)">
<rect x="0.0000" y="-3.0000" width="0.1386" height="6.0000" ry="0.0000" fill="currentColor"/>
</g>
<g transform="translate(43.9162, 12.3712)">
<rect x="0.0000" y="-2.0000" width="0.1386" height="4.0000" ry="0.0000" fill="currentColor"/>
</g>
<g transform="translate(25.6492, 12.3712)">
<rect x="0.0000" y="-2.0000" width="0.1386" height="4.0000" ry="0.0000" fill="currentColor"/>
</g>
<g transform="translate(25.6492, 3.3712)">
<rect x="0.0000" y="-3.0000" width="0.1386" height="6.0000" ry="0.0000" fill="currentColor"/>
</g>
<g transform="translate(0.3347, 14.3712)">
<line stroke-linejoin="round" stroke-linecap="round" stroke-width="0.0729" stroke="currentColor" x1="0.0365" y1="0" x2="43.6836" y2="0"/>
</g>
<g transform="translate(0.3347, 13.3712)">
<line stroke-linejoin="round" stroke-linecap="round" stroke-width="0.0729" stroke="currentColor" x1="0.0365" y1="0" x2="43.6836" y2="0"/>
</g>
<g transform="translate(0.3347, 12.3712)">
<line stroke-linejoin="round" stroke-linecap="round" stroke-width="0.0729" stroke="currentColor" x1="0.0365" y1="0" x2="43.6836" y2="0"/>
</g>
<g transform="translate(0.3347, 11.3712)">
<line stroke-linejoin="round" stroke-linecap="round" stroke-width="0.0729" stroke="currentColor" x1="0.0365" y1="0" x2="43.6836" y2="0"/>
</g>
<g transform="translate(0.3347, 10.3712)">
<line stroke-linejoin="round" stroke-linecap="round" stroke-width="0.0729" stroke="currentColor" x1="0.0365" y1="0" x2="43.6836" y2="0"/>
</g>
<g transform="translate(0.3347, 15.3712)">
<rect x="21.8921" y="-0.0865" width="1.8233" height="0.1729" ry="0.0865" fill="currentColor"/>
</g>
<g transform="translate(0.3347, 15.3712)">
<rect x="18.6203" y="-0.0865" width="1.8073" height="0.1729" ry="0.0865" fill="currentColor"/>
</g>
<g transform="translate(0.3347, 15.3712)">
<rect x="14.7645" y="-0.0865" width="1.8073" height="0.1729" ry="0.0865" fill="currentColor"/>
</g>
<g transform="translate(0.3347, 15.3712)">
<rect x="11.4087" y="-0.0865" width="1.8073" height="0.1729" ry="0.0865" fill="currentColor"/>
</g>
<g transform="translate(0.3347, 15.3712)">
<rect x="8.2402" y="-0.0865" width="1.9587" height="0.1729" ry="0.0865" fill="currentColor"/>
</g>
<g transform="translate(0.3347, 7.8712)">
<rect x="40.1870" y="-0.0740" width="2.1068" height="0.1479" ry="0.0740" fill="currentColor"/>
</g>
<g transform="translate(0.3347, 7.8712)">
<rect x="36.3795" y="-0.0740" width="2.1068" height="0.1479" ry="0.0740" fill="currentColor"/>
</g>
<g transform="translate(0.3347, 7.8712)">
<rect x="32.5237" y="-0.0740" width="2.1068" height="0.1479" ry="0.0740" fill="currentColor"/>
</g>
<g transform="translate(0.3347, 7.1212)">
<rect x="29.3641" y="-0.0740" width="2.1068" height="0.1479" ry="0.0740" fill="currentColor"/>
</g>
<g transform="translate(0.3347, 7.8712)">
<rect x="28.9396" y="-0.0740" width="2.5313" height="0.1479" ry="0.0740" fill="currentColor"/>
</g>
<g transform="translate(0.3347, 7.1212)">
<rect x="25.7536" y="-0.0740" width="2.5313" height="0.1479" ry="0.0740" fill="currentColor"/>
</g>
<g transform="translate(0.3347, 7.8712)">
<rect x="25.7536" y="-0.0740" width="2.5313" height="0.1479" ry="0.0740" fill="currentColor"/>
</g>
<g transform="translate(0.3347, 7.1212)">
<rect x="21.9081" y="-0.0740" width="2.1068" height="0.1479" ry="0.0740" fill="currentColor"/>
</g>
<g transform="translate(0.3347, 7.8712)">
<rect x="21.4836" y="-0.0740" width="2.5313" height="0.1479" ry="0.0740" fill="currentColor"/>
</g>
<g transform="translate(0.3347, 7.8712)">
<rect x="18.6203" y="-0.0740" width="2.1068" height="0.1479" ry="0.0740" fill="currentColor"/>
</g>
<g transform="translate(0.3347, 7.8712)">
<rect x="14.7645" y="-0.0740" width="2.1068" height="0.1479" ry="0.0740" fill="currentColor"/>
</g>
<g transform="translate(0.3347, 7.8712)">
<rect x="11.4087" y="-0.0740" width="2.1068" height="0.1479" ry="0.0740" fill="currentColor"/>
</g>
<g transform="translate(0.3347, 7.8712)">
<rect x="7.9671" y="-0.0740" width="2.5313" height="0.1479" ry="0.0740" fill="currentColor"/>
</g>
<g transform="translate(31.1587, 3.3712)">
<rect x="-0.0474" y="0.2500" width="0.0948" height="3.3133" ry="0.0235" fill="currentColor"/>
</g>
<g transform="translate(26.6878, 14.8712)">
<path transform="scale(0.0040, -0.0040)" d="M222 135c53 0 104 -27 104 -86c0 -71 -56 -120 -103 -148c-36 -22 -76 -36 -118 -36c-53 0 -105 27 -105 86c0 71 57 120 104 148c36 22 76 36 118 36z" fill="currentColor"/>
</g>
<g transform="translate(28.7239, 7.1212)">
<path transform="scale(0.0040, -0.0040)" d="M149 44c-1 33 -23 62 -54 62c-30 0 -44 -35 -44 -69c0 -59 50 -101 96 -139c2 22 4 44 4 66c0 4 -1 7 -1 11zM188 -136c0 -12 -9 -21 -21 -21c-18 0 -26 21 -40 32c-63 51 -153 87 -153 169c0 54 40 100 93 100c32 0 62 -11 88 -30l-6 349c8 4 16 7 25 7s17 -3 25 -7z
" fill="currentColor"/>
</g>
<g transform="translate(31.1323, 12.3712)">
<rect x="-0.0474" y="-1.0000" width="0.0948" height="3.3033" ry="0.0235" fill="currentColor"/>
</g>
<g transform="translate(28.7520, 14.8712)">
<path transform="scale(0.0040, -0.0040)" d="M149 44c-1 33 -23 62 -54 62c-30 0 -44 -35 -44 -69c0 -59 50 -101 96 -139c2 22 4 44 4 66c0 4 -1 7 -1 11zM188 -136c0 -12 -9 -21 -21 -21c-18 0 -26 21 -40 32c-63 51 -153 87 -153 169c0 54 40 100 93 100c32 0 62 -11 88 -30l-6 349c8 4 16 7 25 7s17 -3 25 -7z
" fill="currentColor"/>
</g>
<g transform="translate(34.2918, 12.3712)">
<rect x="-0.0474" y="-1.0000" width="0.0948" height="3.3033" ry="0.0235" fill="currentColor"/>
</g>
<g transform="scale(1.0000, 1.0000)">
<g transform="translate(33.0334, 7.4962)">
<path stroke-width="0.0001" stroke-linejoin="round" stroke-linecap="round" stroke="currentColor" fill="currentColor" d="M1.0162 -0.5005C1.1901 -0.4580 1.3000 -0.3601 1.3267 -0.2237C1.3473 -0.1188 1.3091 0.0324 1.2347 0.1410C1.1037 0.3322 0.8787 0.4644 0.6176 0.5036C0.5244 0.5176 0.3659 0.5121 0.2884 0.4921C-0.0297 0.4098 -0.0964 0.0918 0.1475 -0.1799C0.2984 -0.3479 0.5439 -0.4756 0.7758 -0.5066C0.8400 -0.5151 0.9696 -0.5119 1.0162 -0.5005z"/>
</g>
</g>
<g transform="translate(33.0334, 14.8712)">
<path transform="scale(0.0040, -0.0040)" d="M222 135c53 0 104 -27 104 -86c0 -71 -56 -120 -103 -148c-36 -22 -76 -36 -118 -36c-53 0 -105 27 -105 86c0 71 57 120 104 148c36 22 76 36 118 36z" fill="currentColor"/>
</g>
<g transform="translate(34.3183, 3.3712)">
<rect x="-0.0474" y="0.6250" width="0.0948" height="3.3133" ry="0.0235" fill="currentColor"/>
</g>
<g transform="scale(1.0000, 1.0000)">
<g transform="translate(32.4384, 7.4962)">
<path stroke-width="0.2000" stroke-linejoin="round" stroke-linecap="round" stroke="currentColor" fill="none" d="M0 0.5000L0 -0.5000"/>
</g>
<g transform="translate(32.4384, 7.9962)">
<circle stroke-linejoin="round" stroke-linecap="round" fill="currentColor" stroke="currentColor" stroke-width="0.0100" r="0.2400"/>
</g>
</g>
<g transform="translate(27.9727, 3.3712)">
<rect x="-0.0474" y="0.2500" width="0.0948" height="3.3133" ry="0.0235" fill="currentColor"/>
</g>
<g transform="translate(27.9462, 12.3712)">
<rect x="-0.0474" y="-1.0000" width="0.0948" height="3.3033" ry="0.0235" fill="currentColor"/>
</g>
<g transform="translate(29.8739, 14.8712)">
<path transform="scale(0.0040, -0.0040)" d="M222 135c53 0 104 -27 104 -86c0 -71 -56 -120 -103 -148c-36 -22 -76 -36 -118 -36c-53 0 -105 27 -105 86c0 71 57 120 104 148c36 22 76 36 118 36z" fill="currentColor"/>
</g>
<g transform="scale(1.0000, 1.0000)">
<g transform="translate(29.8739, 7.1212)">
<path stroke-width="0.0001" stroke-linejoin="round" stroke-linecap="round" stroke="currentColor" fill="currentColor" d="M1.0162 -0.5005C1.1901 -0.4580 1.3000 -0.3601 1.3267 -0.2237C1.3473 -0.1188 1.3091 0.0324 1.2347 0.1410C1.1037 0.3322 0.8787 0.4644 0.6176 0.5036C0.5244 0.5176 0.3659 0.5121 0.2884 0.4921C-0.0297 0.4098 -0.0964 0.0918 0.1475 -0.1799C0.2984 -0.3479 0.5439 -0.4756 0.7758 -0.5066C0.8400 -0.5151 0.9696 -0.5119 1.0162 -0.5005z"/>
</g>
</g>
<g transform="scale(1.0000, 1.0000)">
<g transform="translate(39.6018, 7.8712)">
<path stroke-width="0.2000" stroke-linejoin="round" stroke-linecap="round" stroke="currentColor" fill="none" d="M0 0.5000L0 -0.5000"/>
</g>
<g transform="translate(39.6018, 8.3712)">
<circle stroke-linejoin="round" stroke-linecap="round" fill="currentColor" stroke="currentColor" stroke-width="0.0100" r="0.2400"/>
</g>
<g transform="translate(40.1018, 7.8712)">
<path stroke-width="0.2000" stroke-linejoin="round" stroke-linecap="round" stroke="currentColor" fill="none" d="M0 0.5000L0 -0.5000"/>
</g>
<g transform="translate(40.1018, 8.3712)">
<circle stroke-linejoin="round" stroke-linecap="round" fill="currentColor" stroke="currentColor" stroke-width="0.0100" r="0.2400"/>
</g>
</g>
<g transform="translate(41.9552, 12.3712)">
<rect x="-0.0474" y="-1.0000" width="0.0948" height="3.3033" ry="0.0235" fill="currentColor"/>
</g>
<g transform="translate(38.8988, 14.8712)">
<path transform="scale(0.0040, -0.0040)" d="M187 44l-1 -69v-11c0 -22 2 -44 4 -66c45 37 89 81 89 139c0 34 -12 69 -41 69c-30 0 -50 -30 -51 -62zM17 44l-1 -69v-11c0 -23 1 -45 4 -68c40 38 72 86 72 141c0 33 -6 69 -34 69c-27 0 -40 -31 -41 -62zM149 -136l-2 106c-28 -35 -71 -63 -105 -95
c-12 -11 -18 -32 -35 -32c-12 0 -21 9 -21 21l-11 599c8 4 16 7 25 7s17 -3 25 -7l-6 -349c18 19 42 30 68 30c22 0 42 -9 57 -23c-2 114 -5 228 -7 342c8 4 16 7 25 7s18 -3 26 -7l-7 -349c24 19 55 30 86 30c54 0 95 -45 95 -99c0 -82 -90 -118 -153 -170
c-14 -11 -21 -32 -39 -32c-12 0 -21 9 -21 21z" fill="currentColor"/>
</g>
<g transform="scale(1.0000, 1.0000)">
<g transform="translate(35.2392, 7.4962)">
<path stroke-width="0.2000" stroke-linejoin="round" stroke-linecap="round" stroke="currentColor" fill="none" d="M0 0.5000L0 -0.5000"/>
</g>
<g transform="translate(35.2392, 7.9962)">
<circle stroke-linejoin="round" stroke-linecap="round" fill="currentColor" stroke="currentColor" stroke-width="0.0100" r="0.2400"/>
</g>
</g>
<g transform="translate(35.7392, 7.4962)">
<path transform="scale(0.0040, -0.0040)" d="M149 44c-1 33 -23 62 -54 62c-30 0 -44 -35 -44 -69c0 -59 50 -101 96 -139c2 22 4 44 4 66c0 4 -1 7 -1 11zM188 -136c0 -12 -9 -21 -21 -21c-18 0 -26 21 -40 32c-63 51 -153 87 -153 169c0 54 40 100 93 100c32 0 62 -11 88 -30l-6 349c8 4 16 7 25 7s17 -3 25 -7z
" fill="currentColor"/>
</g>
<g transform="translate(31.8834, 14.8712)">
<path transform="scale(0.0040, -0.0040)" d="M25 44l-1 -69c0 -4 -1 -7 -1 -11c0 -22 2 -44 4 -66c46 38 96 80 96 139c0 34 -14 69 -44 69c-31 0 -53 -29 -54 -62zM-14 -136l-11 599c8 4 16 7 25 7s17 -3 25 -7l-6 -349c26 19 56 30 88 30c53 0 93 -46 93 -100c0 -82 -90 -118 -153 -169c-14 -11 -22 -32 -40 -32
c-12 0 -21 9 -21 21z" fill="currentColor"/>
</g>
<g transform="scale(1.0000, 1.0000)">
<g transform="translate(36.8892, 7.4962)">
<path stroke-width="0.0001" stroke-linejoin="round" stroke-linecap="round" stroke="currentColor" fill="currentColor" d="M1.0162 -0.5005C1.1901 -0.4580 1.3000 -0.3601 1.3267 -0.2237C1.3473 -0.1188 1.3091 0.0324 1.2347 0.1410C1.1037 0.3322 0.8787 0.4644 0.6176 0.5036C0.5244 0.5176 0.3659 0.5121 0.2884 0.4921C-0.0297 0.4098 -0.0964 0.0918 0.1475 -0.1799C0.2984 -0.3479 0.5439 -0.4756 0.7758 -0.5066C0.8400 -0.5151 0.9696 -0.5119 1.0162 -0.5005z"/>
</g>
</g>
<g transform="translate(36.8892, 14.8712)">
<path transform="scale(0.0040, -0.0040)" d="M222 135c53 0 104 -27 104 -86c0 -71 -56 -120 -103 -148c-36 -22 -76 -36 -118 -36c-53 0 -105 27 -105 86c0 71 57 120 104 148c36 22 76 36 118 36z" fill="currentColor"/>
</g>
<g transform="translate(38.1741, 3.3712)">
<rect x="-0.0474" y="0.6250" width="0.0948" height="3.3133" ry="0.0235" fill="currentColor"/>
</g>
<g transform="translate(38.1476, 12.3712)">
<rect x="-0.0474" y="-1.0000" width="0.0948" height="3.3033" ry="0.0235" fill="currentColor"/>
</g>
<g transform="translate(34.9392, 14.8712)">
<path transform="scale(0.0040, -0.0040)" d="M207 -157h-13c-18 0 -26 21 -40 32c-63 51 -153 87 -153 169c0 54 40 100 93 100c32 0 62 -11 88 -30l-7 349c8 4 16 7 25 7s17 -3 25 -7l-6 -349c26 19 56 30 88 30c53 0 93 -46 93 -100c0 -82 -90 -118 -153 -169c-14 -11 -22 -32 -40 -32zM175 44c-1 33 -23 62 -54 62
c-30 0 -44 -35 -44 -69c0 -59 50 -101 96 -139c2 22 4 44 4 66c0 4 -1 7 -1 11zM225 44l-1 -69c0 -4 -1 -7 -1 -11c0 -22 2 -44 4 -66c46 38 96 80 96 139c0 34 -14 69 -44 69c-31 0 -53 -29 -54 -62z" fill="currentColor"/>
</g>
<g transform="scale(1.0000, 1.0000)">
<g transform="translate(40.6968, 7.8712)">
<path stroke-width="0.0001" stroke-linejoin="round" stroke-linecap="round" stroke="currentColor" fill="currentColor" d="M1.0162 -0.5005C1.1901 -0.4580 1.3000 -0.3601 1.3267 -0.2237C1.3473 -0.1188 1.3091 0.0324 1.2347 0.1410C1.1037 0.3322 0.8787 0.4644 0.6176 0.5036C0.5244 0.5176 0.3659 0.5121 0.2884 0.4921C-0.0297 0.4098 -0.0964 0.0918 0.1475 -0.1799C0.2984 -0.3479 0.5439 -0.4756 0.7758 -0.5066C0.8400 -0.5151 0.9696 -0.5119 1.0162 -0.5005z"/>
</g>
</g>
<g transform="translate(40.6968, 14.8712)">
<path transform="scale(0.0040, -0.0040)" d="M222 135c53 0 104 -27 104 -86c0 -71 -56 -120 -103 -148c-36 -22 -76 -36 -118 -36c-53 0 -105 27 -105 86c0 71 57 120 104 148c36 22 76 36 118 36z" fill="currentColor"/>
</g>
<g transform="translate(41.9816, 3.3712)">
<rect x="-0.0474" y="1.0000" width="0.0948" height="3.3133" ry="0.0235" fill="currentColor"/>
</g>
<g transform="translate(13.1768, 12.3712)">
<rect x="-0.0474" y="-0.5000" width="0.0948" height="3.3033" ry="0.0235" fill="currentColor"/>
</g>
<g transform="scale(1.0000, 1.0000)">
<g transform="translate(11.9185, 7.8712)">
<path stroke-width="0.0001" stroke-linejoin="round" stroke-linecap="round" stroke="currentColor" fill="currentColor" d="M1.0162 -0.5005C1.1901 -0.4580 1.3000 -0.3601 1.3267 -0.2237C1.3473 -0.1188 1.3091 0.0324 1.2347 0.1410C1.1037 0.3322 0.8787 0.4644 0.6176 0.5036C0.5244 0.5176 0.3659 0.5121 0.2884 0.4921C-0.0297 0.4098 -0.0964 0.0918 0.1475 -0.1799C0.2984 -0.3479 0.5439 -0.4756 0.7758 -0.5066C0.8400 -0.5151 0.9696 -0.5119 1.0162 -0.5005z"/>
</g>
</g>
<g transform="translate(11.9185, 15.3712)">
<path transform="scale(0.0040, -0.0040)" d="M222 135c53 0 104 -27 104 -86c0 -71 -56 -120 -103 -148c-36 -22 -76 -36 -118 -36c-53 0 -105 27 -105 86c0 71 57 120 104 148c36 22 76 36 118 36z" fill="currentColor"/>
</g>
<g transform="translate(13.2033, 3.3712)">
<rect x="-0.0474" y="1.0000" width="0.0948" height="3.3133" ry="0.0235" fill="currentColor"/>
</g>
<g transform="translate(10.8685, 7.8712)">
<path transform="scale(0.0040, -0.0040)" d="M105 -315c0 -9 -8 -17 -17 -17s-18 8 -18 17v124l-46 -26c-2 -1 -5 -2 -8 -2c-8 0 -16 7 -16 16v65c0 6 3 11 8 14l62 34v161l-46 -26c-2 -1 -5 -2 -8 -2c-8 0 -16 7 -16 16v65c0 6 3 11 8 14l62 34v143c0 9 9 18 18 18s17 -9 17 -18v-124l46 26c2 1 5 2 8 2
c8 0 16 -7 16 -16v-65c0 -6 -3 -11 -8 -14l-62 -34v-161l46 26c2 1 5 2 8 2c8 0 16 -7 16 -16v-65c0 -6 -3 -11 -8 -14l-62 -34v-143z" fill="currentColor"/>
</g>
<g transform="translate(10.8685, 15.3712)">
<path transform="scale(0.0040, -0.0040)" d="M105 -315c0 -9 -8 -17 -17 -17s-18 8 -18 17v124l-46 -26c-2 -1 -5 -2 -8 -2c-8 0 -16 7 -16 16v65c0 6 3 11 8 14l62 34v161l-46 -26c-2 -1 -5 -2 -8 -2c-8 0 -16 7 -16 16v65c0 6 3 11 8 14l62 34v143c0 9 9 18 18 18s17 -9 17 -18v-124l46 26c2 1 5 2 8 2
c8 0 16 -7 16 -16v-65c0 -6 -3 -11 -8 -14l-62 -34v-161l46 26c2 1 5 2 8 2c8 0 16 -7 16 -16v-65c0 -6 -3 -11 -8 -14l-62 -34v-143z" fill="currentColor"/>
</g>
<g transform="scale(1.0000, 1.0000)">
<g transform="translate(15.2743, 7.4962)">
<path stroke-width="0.0001" stroke-linejoin="round" stroke-linecap="round" stroke="currentColor" fill="currentColor" d="M1.0162 -0.5005C1.1901 -0.4580 1.3000 -0.3601 1.3267 -0.2237C1.3473 -0.1188 1.3091 0.0324 1.2347 0.1410C1.1037 0.3322 0.8787 0.4644 0.6176 0.5036C0.5244 0.5176 0.3659 0.5121 0.2884 0.4921C-0.0297 0.4098 -0.0964 0.0918 0.1475 -0.1799C0.2984 -0.3479 0.5439 -0.4756 0.7758 -0.5066C0.8400 -0.5151 0.9696 -0.5119 1.0162 -0.5005z"/>
</g>
</g>
<g transform="translate(16.5591, 3.3712)">
<rect x="-0.0474" y="0.6250" width="0.0948" height="3.3133" ry="0.0235" fill="currentColor"/>
</g>
<g transform="translate(10.1862, 3.3712)">
<rect x="-0.0474" y="1.0000" width="0.0948" height="3.3133" ry="0.0235" fill="currentColor"/>
</g>
<g transform="translate(0.3180, 7.3712)">
<rect x="0.0000" y="-7.0365" width="0.1167" height="14.0729" ry="0.0365" fill="currentColor"/>
</g>
<g transform="scale(1.0000, 1.0000)">
<g transform="translate(8.9014, 7.8712)">
<path stroke-width="0.0001" stroke-linejoin="round" stroke-linecap="round" stroke="currentColor" fill="currentColor" d="M1.0162 -0.5005C1.1901 -0.4580 1.3000 -0.3601 1.3267 -0.2237C1.3473 -0.1188 1.3091 0.0324 1.2347 0.1410C1.1037 0.3322 0.8787 0.4644 0.6176 0.5036C0.5244 0.5176 0.3659 0.5121 0.2884 0.4921C-0.0297 0.4098 -0.0964 0.0918 0.1475 -0.1799C0.2984 -0.3479 0.5439 -0.4756 0.7758 -0.5066C0.8400 -0.5151 0.9696 -0.5119 1.0162 -0.5005z"/>
</g>
</g>
<g transform="scale(1.0000, 1.0000)">
<g transform="translate(1.1348, 5.2462)">
<path stroke-width="0.0001" stroke-linejoin="round" stroke-linecap="round" stroke="currentColor" fill="currentColor" d="M1.5506 -4.7684C1.5376 -4.7684 1.5066 -4.7511 1.5136 -4.7338L1.7544 -4.1729C1.8234 -3.9737 1.8444 -3.8833 1.8444 -3.6642C1.8444 -3.1620 1.5635 -2.7697 1.2174 -2.3831L1.0789 -2.2278C0.5727 -1.6898 0 -1.1644 0 -0.4591C0 0.3671 0.6414 1.0500 1.4549 1.0500C1.5319 1.0500 1.6984 1.0492 1.8799 1.0372C2.0139 1.0282 2.1594 0.9969 2.2732 0.9744C2.3771 0.9538 2.5752 0.8757 2.5752 0.8757C2.7512 0.8152 2.6612 0.6291 2.5442 0.6835C2.5442 0.6835 2.3481 0.7626 2.2449 0.7822C2.1355 0.8030 1.9939 0.8319 1.8645 0.8382C1.6935 0.8462 1.5257 0.8402 1.4569 0.8352C1.1541 0.8139 0.8667 0.6743 0.6558 0.4876C0.5148 0.3628 0.3782 0.1741 0.3582 -0.1271C0.3582 -0.7647 0.7920 -1.2315 1.2550 -1.7136L1.3978 -1.8652C1.8046 -2.2996 2.1850 -2.7583 2.1850 -3.3281C2.1850 -3.7785 1.9185 -4.4220 1.6113 -4.7568C1.5983 -4.7686 1.5713 -4.7719 1.5513 -4.7683z"/>
</g>
</g>
<g transform="scale(0.9000, 0.9000)">
<g transform="translate(2.1449, 6.5291)">
<path transform="scale(0.0040, -0.0040)" d="M208 319c21 13 42 27 57 47c11 15 18 32 25 49c4 9 20 7 20 -7v-256h68c9 0 13 -7 13 -14s-4 -13 -13 -13h-68v-16c0 -45 26 -88 68 -88c7 0 10 -5 10 -10s-3 -11 -10 -11c-41 0 -82 13 -123 13s-82 -13 -123 -13c-7 0 -10 6 -10 11s3 10 10 10c42 0 68 43 68 88v16h-173
c-21 0 -29 13 -29 21c0 2 1 5 2 6c81 96 146 208 146 333c0 8 5 15 12 15h3c22 -7 44 -13 67 -13s45 6 67 13c2 1 2 1 4 1c10 0 16 -10 11 -16l-283 -333h173v147c0 8 2 16 8 20z" fill="currentColor"/>
</g>
</g>
<g transform="translate(5.4553, 4.3355)">
<path transform="scale(0.0040, -0.0040)" d="M45 500c44 -8 89 -13 134 -13s89 5 133 13h4c11 0 16 -10 11 -15c-66 -66 -161 -87 -255 -87c-8 0 -15 -7 -15 -15v-108c28 28 63 47 102 47c114 0 182 -52 182 -161c0 -92 -83 -161 -179 -161c-82 0 -162 38 -162 111c0 36 29 65 65 65s65 -29 65 -65
c0 -25 -40 -28 -40 -53c0 -30 37 -37 72 -37c57 0 70 73 70 140c0 65 -17 134 -73 134c-41 0 -81 -15 -105 -48c-3 -4 -6 -5 -10 -5c-7 0 -14 5 -14 13v230c0 8 6 15 13 15h2z" fill="currentColor"/>
</g>
<g transform="translate(5.3348, 6.3394)">
<path transform="scale(0.0040, -0.0040)" d="M208 319c21 13 42 27 57 47c11 15 18 32 25 49c4 9 20 7 20 -7v-256h68c9 0 13 -7 13 -14s-4 -13 -13 -13h-68v-16c0 -45 26 -88 68 -88c7 0 10 -5 10 -10s-3 -11 -10 -11c-41 0 -82 13 -123 13s-82 -13 -123 -13c-7 0 -10 6 -10 11s3 10 10 10c42 0 68 43 68 88v16h-173
c-21 0 -29 13 -29 21c0 2 1 5 2 6c81 96 146 208 146 333c0 8 5 15 12 15h3c22 -7 44 -13 67 -13s45 6 67 13c2 1 2 1 4 1c10 0 16 -10 11 -16l-283 -333h173v147c0 8 2 16 8 20z" fill="currentColor"/>
</g>
<g transform="translate(8.9014, 15.3712)">
<path transform="scale(0.0040, -0.0040)" d="M222 135c53 0 104 -27 104 -86c0 -71 -56 -120 -103 -148c-36 -22 -76 -36 -118 -36c-53 0 -105 27 -105 86c0 71 57 120 104 148c36 22 76 36 118 36z" fill="currentColor"/>
</g>
<g transform="translate(1.1348, 13.3712)">
<path transform="scale(0.0040, -0.0040)" d="M374 260c5 0 10 1 15 1c154 0 254 -127 254 -259c0 -76 -33 -153 -107 -208c-22 -17 -47 -29 -73 -37c3 -36 5 -72 5 -108c0 -19 0 -37 -1 -56c-7 -120 -88 -226 -206 -226c-108 0 -195 87 -195 195c0 58 53 104 112 104c54 0 95 -48 95 -104c0 -52 -43 -95 -95 -95
c-12 0 -24 4 -35 9c26 -41 70 -70 121 -70c96 0 157 93 163 193c1 18 2 35 2 53c0 32 -2 64 -5 96c-29 -5 -58 -8 -89 -8c-188 0 -333 171 -333 372c0 178 133 306 251 440c-18 63 -35 126 -42 191c-6 51 -7 102 -7 154c0 116 55 226 150 295c2 2 5 3 8 3s6 -1 8 -3
c70 -84 132 -246 132 -359c0 -144 -87 -256 -183 -365c20 -69 39 -138 55 -208zM459 -205c69 24 117 96 117 166c0 92 -69 184 -179 193c25 -117 48 -235 62 -359zM71 31c0 -136 131 -251 267 -251c28 0 55 2 82 6c-15 128 -38 247 -64 367c-79 -9 -125 -62 -125 -121
c0 -44 26 -92 82 -124c4 -4 7 -9 7 -14c0 -11 -9 -21 -20 -21c-3 0 -6 1 -9 2c-80 43 -116 114 -116 184c0 88 57 173 158 196c-14 60 -30 119 -46 178c-108 -121 -216 -242 -216 -402zM411 1050c-99 -50 -161 -151 -161 -262c0 -76 15 -137 33 -200c82 97 149 198 149 325
c0 58 -4 84 -21 137z" fill="currentColor"/>
</g>
<g transform="translate(5.4553, 12.3712)">
<path transform="scale(0.0040, -0.0040)" d="M45 500c44 -8 89 -13 134 -13s89 5 133 13h4c11 0 16 -10 11 -15c-66 -66 -161 -87 -255 -87c-8 0 -15 -7 -15 -15v-108c28 28 63 47 102 47c114 0 182 -52 182 -161c0 -92 -83 -161 -179 -161c-82 0 -162 38 -162 111c0 36 29 65 65 65s65 -29 65 -65
c0 -25 -40 -28 -40 -53c0 -30 37 -37 72 -37c57 0 70 73 70 140c0 65 -17 134 -73 134c-41 0 -81 -15 -105 -48c-3 -4 -6 -5 -10 -5c-7 0 -14 5 -14 13v230c0 8 6 15 13 15h2z" fill="currentColor"/>
</g>
<g transform="translate(5.3348, 14.3751)">
<path transform="scale(0.0040, -0.0040)" d="M208 319c21 13 42 27 57 47c11 15 18 32 25 49c4 9 20 7 20 -7v-256h68c9 0 13 -7 13 -14s-4 -13 -13 -13h-68v-16c0 -45 26 -88 68 -88c7 0 10 -5 10 -10s-3 -11 -10 -11c-41 0 -82 13 -123 13s-82 -13 -123 -13c-7 0 -10 6 -10 11s3 10 10 10c42 0 68 43 68 88v16h-173
c-21 0 -29 13 -29 21c0 2 1 5 2 6c81 96 146 208 146 333c0 8 5 15 12 15h3c22 -7 44 -13 67 -13s45 6 67 13c2 1 2 1 4 1c10 0 16 -10 11 -16l-283 -333h173v147c0 8 2 16 8 20z" fill="currentColor"/>
</g>
<g transform="translate(15.2743, 15.3712)">
<path transform="scale(0.0040, -0.0040)" d="M222 135c53 0 104 -27 104 -86c0 -71 -56 -120 -103 -148c-36 -22 -76 -36 -118 -36c-53 0 -105 27 -105 86c0 71 57 120 104 148c36 22 76 36 118 36z" fill="currentColor"/>
</g>
<g transform="translate(10.1598, 12.3712)">
<rect x="-0.0474" y="-0.5000" width="0.0948" height="3.3033" ry="0.0235" fill="currentColor"/>
</g>
<g transform="translate(20.3885, 12.3712)">
<rect x="-0.0474" y="-0.5000" width="0.0948" height="3.3033" ry="0.0235" fill="currentColor"/>
</g>
<g transform="translate(17.1801, 15.3712)">
<path transform="scale(0.0040, -0.0040)" d="M217 -331c0 -9 -8 -17 -17 -17s-17 8 -17 17v147l-78 -19v-155c0 -9 -8 -17 -17 -17s-18 8 -18 17v147l-50 -13c-10 -2 -20 6 -20 16v65c0 7 5 13 12 15l58 14v165l-50 -12c-10 -2 -20 5 -20 15v65c0 7 5 14 12 16l58 14v155c0 9 9 17 18 17s17 -8 17 -17v-147l78 19v155
c0 9 8 17 17 17s17 -8 17 -17v-147l78 19v155c0 9 9 17 18 17s17 -8 17 -17v-147l50 13c10 2 20 -6 20 -16v-65c0 -7 -5 -13 -12 -15l-58 -14v-165l50 12c10 2 20 -5 20 -15v-65c0 -7 -5 -14 -12 -16l-58 -14v-155c0 -9 -8 -17 -17 -17s-18 8 -18 17v147l-78 -19v-155z
M105 59v-165l78 19v165zM295 106l-78 -19v-165l78 19v165z" fill="currentColor"/>
</g>
<g transform="scale(1.0000, 1.0000)">
<g transform="translate(22.4179, 7.1212)">
<path stroke-width="0.0001" stroke-linejoin="round" stroke-linecap="round" stroke="currentColor" fill="currentColor" d="M1.0162 -0.5005C1.1901 -0.4580 1.3000 -0.3601 1.3267 -0.2237C1.3473 -0.1188 1.3091 0.0324 1.2347 0.1410C1.1037 0.3322 0.8787 0.4644 0.6176 0.5036C0.5244 0.5176 0.3659 0.5121 0.2884 0.4921C-0.0297 0.4098 -0.0964 0.0918 0.1475 -0.1799C0.2984 -0.3479 0.5439 -0.4756 0.7758 -0.5066C0.8400 -0.5151 0.9696 -0.5119 1.0162 -0.5005z"/>
</g>
</g>
<g transform="translate(22.4179, 15.3712)">
<path transform="scale(0.0040, -0.0040)" d="M222 135c53 0 104 -27 104 -86c0 -71 -56 -120 -103 -148c-36 -22 -76 -36 -118 -36c-53 0 -105 27 -105 86c0 71 57 120 104 148c36 22 76 36 118 36z" fill="currentColor"/>
</g>
<g transform="translate(23.7027, 3.3712)">
<rect x="-0.0474" y="0.2500" width="0.0948" height="3.3133" ry="0.0235" fill="currentColor"/>
</g>
<g transform="scale(1.0000, 1.0000)">
<g transform="translate(21.3229, 7.1212)">
<path stroke-width="0.2000" stroke-linejoin="round" stroke-linecap="round" stroke="currentColor" fill="none" d="M0 0.5000L0 -0.5000"/>
</g>
<g transform="translate(21.3229, 6.6212)">
<circle stroke-linejoin="round" stroke-linecap="round" fill="currentColor" stroke="currentColor" stroke-width="0.0100" r="0.2400"/>
</g>
<g transform="translate(21.8229, 7.1212)">
<path stroke-width="0.2000" stroke-linejoin="round" stroke-linecap="round" stroke="currentColor" fill="none" d="M0 0.5000L0 -0.5000"/>
</g>
<g transform="translate(21.8229, 6.6212)">
<circle stroke-linejoin="round" stroke-linecap="round" fill="currentColor" stroke="currentColor" stroke-width="0.0100" r="0.2400"/>
</g>
</g>
<g transform="translate(23.6763, 12.3712)">
<rect x="-0.0474" y="-0.5000" width="0.0948" height="3.3033" ry="0.0235" fill="currentColor"/>
</g>
<g transform="translate(21.0359, 15.3712)">
<path transform="scale(0.0040, -0.0040)" d="M150 0c23 -23 58 -28 91 -28c4 0 8 -4 8 -8l9 -89c0 -4 -3 -8 -7 -8h-1l-89 9c-4 0 -8 4 -8 8c0 33 -5 68 -28 91c-23 -23 -28 -58 -28 -91c0 -4 -4 -8 -8 -8l-89 -9h-1c-4 0 -7 4 -7 8l9 89c0 4 4 8 8 8c33 0 68 5 91 28c-23 23 -58 28 -91 28c-4 0 -8 4 -8 8l-9 89
c0 4 3 8 7 8h1l89 -9c4 0 8 -4 8 -8c0 -33 5 -68 28 -91c23 23 28 58 28 91c0 4 4 8 8 8l89 9h1c4 0 7 -4 7 -8l-9 -89c0 -4 -4 -8 -8 -8c-33 0 -68 -5 -91 -28z" fill="currentColor"/>
</g>
<g transform="scale(1.0000, 1.0000)">
<g transform="translate(26.6878, 7.1212)">
<path stroke-width="0.0001" stroke-linejoin="round" stroke-linecap="round" stroke="currentColor" fill="currentColor" d="M1.0162 -0.5005C1.1901 -0.4580 1.3000 -0.3601 1.3267 -0.2237C1.3473 -0.1188 1.3091 0.0324 1.2347 0.1410C1.1037 0.3322 0.8787 0.4644 0.6176 0.5036C0.5244 0.5176 0.3659 0.5121 0.2884 0.4921C-0.0297 0.4098 -0.0964 0.0918 0.1475 -0.1799C0.2984 -0.3479 0.5439 -0.4756 0.7758 -0.5066C0.8400 -0.5151 0.9696 -0.5119 1.0162 -0.5005z"/>
</g>
</g>
<g transform="scale(1.0000, 1.0000)">
<g transform="translate(14.6793, 7.4962)">
<path stroke-width="0.2000" stroke-linejoin="round" stroke-linecap="round" stroke="currentColor" fill="none" d="M0 0.5000L0 -0.5000"/>
</g>
<g transform="translate(14.6793, 6.9962)">
<circle stroke-linejoin="round" stroke-linecap="round" fill="currentColor" stroke="currentColor" stroke-width="0.0100" r="0.2400"/>
</g>
</g>
<g transform="translate(16.5327, 12.3712)">
<rect x="-0.0474" y="-0.5000" width="0.0948" height="3.3033" ry="0.0235" fill="currentColor"/>
</g>
<g transform="translate(13.8243, 15.3712)">
<path transform="scale(0.0040, -0.0040)" d="M0 121c0 7 5 13 11 15l49 17v163c0 9 8 17 17 17s17 -8 17 -17v-151l87 31v162c0 9 8 17 17 17s17 -8 17 -17v-150l39 13c10 4 21 -4 21 -15v-64c0 -7 -5 -13 -11 -15l-49 -18v-164l39 14c10 4 21 -4 21 -15v-65c0 -7 -5 -13 -11 -15l-49 -17v-163c0 -9 -8 -17 -17 -17
s-17 8 -17 17v151l-87 -31v-162c0 -9 -8 -17 -17 -17s-17 8 -17 17v150l-39 -13c-10 -4 -21 4 -21 15v64c0 7 5 13 11 15l49 18v164l-39 -14c-10 -4 -21 4 -21 15v65zM181 97l-87 -30v-164l87 30v164z" fill="currentColor"/>
</g>
<g transform="scale(1.0000, 1.0000)">
<g transform="translate(19.1301, 7.4962)">
<path stroke-width="0.0001" stroke-linejoin="round" stroke-linecap="round" stroke="currentColor" fill="currentColor" d="M1.0162 -0.5005C1.1901 -0.4580 1.3000 -0.3601 1.3267 -0.2237C1.3473 -0.1188 1.3091 0.0324 1.2347 0.1410C1.1037 0.3322 0.8787 0.4644 0.6176 0.5036C0.5244 0.5176 0.3659 0.5121 0.2884 0.4921C-0.0297 0.4098 -0.0964 0.0918 0.1475 -0.1799C0.2984 -0.3479 0.5439 -0.4756 0.7758 -0.5066C0.8400 -0.5151 0.9696 -0.5119 1.0162 -0.5005z"/>
</g>
</g>
<g transform="translate(19.1301, 15.3712)">
<path transform="scale(0.0040, -0.0040)" d="M222 135c53 0 104 -27 104 -86c0 -71 -56 -120 -103 -148c-36 -22 -76 -36 -118 -36c-53 0 -105 27 -105 86c0 71 57 120 104 148c36 22 76 36 118 36z" fill="currentColor"/>
</g>
<g transform="translate(20.4149, 3.3712)">
<rect x="-0.0474" y="0.6250" width="0.0948" height="3.3133" ry="0.0235" fill="currentColor"/>
</g>
<g transform="scale(1.0000, 1.0000)">
<g transform="translate(17.5801, 7.4962)">
<path stroke-width="0.2000" stroke-linejoin="round" stroke-linecap="round" stroke="currentColor" fill="none" d="M0 0.5000L0 -0.5000"/>
</g>
<g transform="translate(17.5801, 6.9962)">
<circle stroke-linejoin="round" stroke-linecap="round" fill="currentColor" stroke="currentColor" stroke-width="0.0100" r="0.2400"/>
</g>
</g>
<g transform="translate(18.0801, 7.4962)">
<path transform="scale(0.0040, -0.0040)" d="M105 -315c0 -9 -8 -17 -17 -17s-18 8 -18 17v124l-46 -26c-2 -1 -5 -2 -8 -2c-8 0 -16 7 -16 16v65c0 6 3 11 8 14l62 34v161l-46 -26c-2 -1 -5 -2 -8 -2c-8 0 -16 7 -16 16v65c0 6 3 11 8 14l62 34v143c0 9 9 18 18 18s17 -9 17 -18v-124l46 26c2 1 5 2 8 2
c8 0 16 -7 16 -16v-65c0 -6 -3 -11 -8 -14l-62 -34v-161l46 26c2 1 5 2 8 2c8 0 16 -7 16 -16v-65c0 -6 -3 -11 -8 -14l-62 -34v-143z" fill="currentColor"/>
</g>
</svg>
